<?xml version="1.0" encoding="utf-8"?>
<!-- Generator: Adobe Illustrator 13.0.1, SVG Export Plug-In  -->
<!DOCTYPE svg PUBLIC "-//W3C//DTD SVG 1.1//EN" "http://www.w3.org/Graphics/SVG/1.1/DTD/svg11.dtd" [
	<!ENTITY ns_flows "http://ns.adobe.com/Flows/1.0/">
]>
<svg version="1.1"
	 xmlns="http://www.w3.org/2000/svg" xmlns:xlink="http://www.w3.org/1999/xlink" xmlns:a="http://ns.adobe.com/AdobeSVGViewerExtensions/3.0/"
	 x="0px" y="0px" width="169px" height="27px" viewBox="-0.359 -0.506 169 27" enable-background="new -0.359 -0.506 169 27"
	 xml:space="preserve">
<defs>
</defs>
<path fill-rule="evenodd" clip-rule="evenodd" d="M6.949,2.565c2.052,0,3.893,0.106,5.664,0.812c2.937,1.2,5.771,4.621,5.771,9.559
	c0,6.632-4.179,10.229-11.435,10.229V2.565L6.949,2.565z M0.08,1.314c-0.107,0.145-0.107,0.398,0,0.541
	c2.055,0.463,2.478,1.062,2.478,2.934v16.153c0,2.152-0.283,2.471-2.336,2.932c-0.107,0.143-0.107,0.396,0,0.541h8.814
	c8.072,0,13.949-4.494,13.949-11.479c0-4.55-2.866-8.748-6.904-10.37c-2.194-0.89-4.848-1.251-7.963-1.251H0.08L0.08,1.314z
	 M14.099,2.955l0.07-0.108c3.788,1.625,6.798,5.258,6.798,10.089c0,3.741-2.087,7.935-6.833,9.911l-0.07-0.139
	c4.142-1.941,6.373-5.752,6.373-9.772C20.437,8.314,17.46,4.612,14.099,2.955L14.099,2.955z M4.505,2.565h0.496v20.6H4.505V2.565
	L4.505,2.565z"/>
<path fill-rule="evenodd" clip-rule="evenodd" d="M28.932,2.565h0.496v20.6h-0.496V2.565L28.932,2.565z M24.862,1.314
	c-0.106,0.145-0.106,0.398,0,0.541c1.876,0.357,2.123,0.922,2.123,2.58v16.861c0,1.656-0.247,2.221-2.123,2.578
	c-0.106,0.143-0.106,0.396,0,0.541h8.637c0.105-0.145,0.105-0.398,0-0.541c-1.876-0.357-2.123-0.922-2.123-2.578V4.435
	c0-1.658,0.247-2.223,2.123-2.58c0.105-0.142,0.105-0.396,0-0.541H24.862L24.862,1.314z"/>
<path fill-rule="evenodd" clip-rule="evenodd" d="M39.764,2.508h0.496v20.674h-0.496V2.508L39.764,2.508z M54.918,18.474
	c-0.039-0.213-0.249-0.283-0.427-0.213c-2.759,4.037-5.911,4.922-10.869,4.922h-1.415v-9.879h3.081c2.619,0,4.071,0.709,5.628,2.799
	c0.177,0.07,0.388,0,0.424-0.215l-1.486-3.256l1.486-3.256c-0.037-0.177-0.212-0.283-0.424-0.212
	c-1.557,2.088-3.009,2.795-5.628,2.795h-3.081v-9.45h1.204c5.31,0,7.505,1.381,10.478,5.024c0.176,0.108,0.425,0,0.425-0.21
	c-0.992-2.018-1.911-4.072-2.655-6.162c-0.531,0.073-2.229,0.108-2.867,0.108H35.693c-0.107,0.141-0.107,0.389,0,0.531
	c1.876,0.353,2.123,0.921,2.123,2.583v16.923c0,1.662-0.247,2.23-2.123,2.586c-0.107,0.139-0.107,0.387,0,0.529h13.7
	c0.709,0,2.161,0.035,2.867,0.107C53.005,22.476,53.926,20.454,54.918,18.474L54.918,18.474z"/>
<path fill-rule="evenodd" clip-rule="evenodd" d="M113.238,2.508l-11.931,20.674h-0.604l11.933-20.674H113.238L113.238,2.508z
	 M116.53,18.296c-0.036-0.141-0.248-0.246-0.425-0.176c-2.266,3.363-4.709,5.063-10.409,5.063h-2.229l12.602-21.737V1.269h-11.541
	c-0.955,0-2.514-0.035-3.538-0.108c-0.708,2.021-1.595,4.038-2.551,6.126c0.037,0.142,0.283,0.246,0.426,0.175
	c2.16-3.115,3.787-4.954,9.947-4.954h1.665L97.872,24.243v0.178h12.109c1.273,0,2.583,0.035,3.858,0.107
	C114.619,22.44,115.538,20.386,116.53,18.296L116.53,18.296z"/>
<path fill-rule="evenodd" clip-rule="evenodd" d="M122.157,2.508h0.496v20.674h-0.496V2.508L122.157,2.508z M137.31,18.474
	c-0.035-0.213-0.248-0.283-0.425-0.213c-2.763,4.037-5.911,4.922-10.869,4.922h-1.415v-9.879h3.079c2.62,0,4.071,0.709,5.63,2.799
	c0.176,0.07,0.388,0,0.423-0.215l-1.487-3.256l1.487-3.256c-0.035-0.177-0.211-0.283-0.423-0.212
	c-1.559,2.088-3.01,2.795-5.63,2.795h-3.079v-9.45h1.202c5.311,0,7.507,1.381,10.48,5.024c0.178,0.108,0.425,0,0.425-0.21
	c-0.99-2.018-1.91-4.072-2.656-6.162c-0.53,0.073-2.23,0.108-2.868,0.108h-13.097c-0.106,0.141-0.106,0.389,0,0.531
	c1.877,0.353,2.123,0.921,2.123,2.583v16.923c0,1.662-0.246,2.23-2.123,2.586c-0.106,0.139-0.106,0.387,0,0.529h13.7
	c0.708,0,2.16,0.035,2.868,0.107C135.398,22.476,136.319,20.454,137.31,18.474L137.31,18.474z"/>
<path fill-rule="evenodd" clip-rule="evenodd" d="M143.187,2.565h0.495v20.6h-0.495V2.565L143.187,2.565z M139.114,1.314
	c-0.106,0.145-0.106,0.398,0,0.541c1.877,0.357,2.124,0.922,2.124,2.58v16.861c0,1.656-0.247,2.221-2.124,2.578
	c-0.106,0.143-0.106,0.396,0,0.541h8.639c0.104-0.145,0.104-0.398,0-0.541c-1.877-0.357-2.124-0.922-2.124-2.578V4.435
	c0-1.658,0.247-2.223,2.124-2.58c0.104-0.142,0.104-0.396,0-0.541H139.114L139.114,1.314z"/>
<path fill-rule="evenodd" clip-rule="evenodd" d="M157.949,2.489h0.496v20.674h-0.496V2.489L157.949,2.489z M151.01,1.141
	c-0.743,1.984-1.662,3.968-2.656,5.95c0,0.177,0.247,0.283,0.427,0.212c2.83-3.718,4.954-4.814,7.222-4.814v18.797
	c0,1.662-0.248,2.229-2.125,2.588c-0.106,0.143-0.106,0.396,0,0.541h8.639c0.104-0.18,0.104-0.361,0-0.541
	c-1.876-0.359-2.123-0.926-2.123-2.588V2.489c2.265,0,4.459,1.096,7.22,4.814c0.177,0.071,0.425-0.035,0.425-0.212
	c-0.991-1.946-1.876-3.93-2.652-5.95c-1.24,0.073-2.869,0.108-4.145,0.108h-6.087C154.301,1.25,151.857,1.214,151.01,1.141
	L151.01,1.141z"/>
<path fill-rule="evenodd" clip-rule="evenodd" d="M79.223,20.452c-0.255,0.236-0.661,0.201-1.02,0.154l-0.08-0.072
	c0.255-0.223,0.67-0.197,0.984-0.15L79.223,20.452L79.223,20.452z M78.922,18.628c0.093,0.141,0.174,0.33,0.114,0.516
	c-0.114,0.119-0.208,0.248-0.394,0.26c-0.172-0.035-0.368-0.059-0.451-0.225c-0.127-0.174,0.012-0.363,0.058-0.527
	C78.447,18.485,78.724,18.438,78.922,18.628L78.922,18.628z M77.15,18.581c0.081,0.295,0.093,0.717-0.082,0.988
	c-0.093-0.023-0.149-0.143-0.149-0.236c0-0.281-0.083-0.646,0.068-0.883C77.091,18.415,77.114,18.546,77.15,18.581L77.15,18.581z
	 M80.298,19.028c0.038,0.141-0.035,0.248-0.055,0.375c-0.211-0.07-0.188-0.342-0.222-0.539c0-0.201,0-0.402,0.115-0.555
	C80.298,18.485,80.323,18.769,80.298,19.028L80.298,19.028z M78.793,18.181c-0.266-0.047-0.579-0.012-0.787,0.188
	c-0.199,0.236-0.244,0.66-0.151,1c0.174,0.236,0.418,0.354,0.707,0.412c0.383,0.023,0.672-0.26,0.812-0.564
	c0.02-0.223,0.02-0.482-0.071-0.682C79.199,18.321,78.991,18.274,78.793,18.181L78.793,18.181z M79.767,17.804
	c0.14,0.258-0.058,0.494-0.081,0.742c-0.08,0.424,0.022,0.787,0.22,1.117c0.035,0.129,0.022,0.283-0.046,0.389
	c-0.406,0.176-0.893-0.129-1.343-0.047c-0.336,0.094-0.662,0.223-1.02,0.115c-0.242-0.469,0.184-0.926,0.037-1.434
	c-0.083-0.295-0.268-0.625-0.107-0.941c0.465-0.248,0.823,0.258,1.297,0.082C79.107,17.851,79.466,17.354,79.767,17.804
	L79.767,17.804z M78.991,17.331c-0.068,0.201-0.349,0.166-0.556,0.166c-0.151-0.047-0.312,0.047-0.395-0.119
	c0.072-0.094,0.234-0.094,0.35-0.129C78.598,17.296,78.804,17.214,78.991,17.331L78.991,17.331z M79.881,16.884
	c-0.821-0.457-1.968-0.469-2.709,0.129c-0.622,0.389-0.868,1.084-1.005,1.803c-0.036,0.953,0.45,1.814,1.24,2.168
	c0.669,0.471,1.781,0.424,2.442-0.035c0.255-0.084,0.45-0.318,0.639-0.484c0.554-0.578,0.658-1.576,0.403-2.355
	C80.67,17.579,80.323,17.214,79.881,16.884L79.881,16.884z M76.675,16.085l-0.752,0.764c-0.012,0.152,0.126,0.188,0.231,0.26
	c0.012,0.117-0.036,0.258,0.081,0.316c0.197-0.082,0.289-0.281,0.428-0.459l0.428-0.318c0.185-0.258-0.277-0.186-0.255-0.434
	C76.791,16.155,76.768,16.062,76.675,16.085L76.675,16.085z M75.031,10.549c-0.267,0.271-0.65,0.604-0.893,0.908
	c-0.058,0.059-0.035,0.153-0.141,0.165c-0.149,0.188-0.415,0.341-0.485,0.601c0.313,0.682,0.475-0.294,0.846-0.117
	c0.126,0.198,0.498,0.328,0.417,0.634l-0.637,0.589c-0.104,0.129-0.184,0.365-0.383,0.319c-0.438-0.38-0.855-0.743-1.216-1.155
	c-0.091-0.059-0.184-0.234-0.347-0.164c-0.092,0.083-0.195,0.187-0.139,0.34c1.229,1.26,2.502,2.496,3.742,3.674
	c0.139,0.061,0.254-0.082,0.335-0.152c0.069-0.342-0.335-0.4-0.439-0.66c-0.509-0.459-0.963-0.967-1.504-1.436v-0.201
	c0.194-0.282,0.552-0.483,0.716-0.753c0.081-0.071,0.185-0.212,0.311-0.129c0.163,0.21,0.407,0.355,0.558,0.565
	c0.023,0.271-0.326,0.294-0.314,0.53c0.083,0.047,0.083,0.258,0.267,0.199c0.127-0.188,0.359-0.223,0.43-0.447
	c0.324-0.176,0.542-0.492,0.796-0.755c0.105-0.187,0.419-0.222,0.349-0.517c-0.289-0.201-0.44-0.481-0.75-0.646
	c-0.108,0-0.117,0.118-0.222,0.129c-0.046,0.095-0.149,0.142-0.092,0.27c0.137,0.047,0.197-0.153,0.324-0.081
	c0.163,0.198,0.406,0.304,0.381,0.563l-0.659,0.65h-0.115c-0.187-0.144-0.326-0.287-0.454-0.461
	c-0.518-0.366-0.844-0.825-1.32-1.236c-0.15-0.294,0.232-0.424,0.347-0.587c0.129-0.083,0.152-0.261,0.325-0.298
	c0.199,0.038,0.244,0.249,0.393,0.332c0.048,0.13-0.069,0.188-0.057,0.307c-0.024,0.023,0.025,0.082,0.057,0.059
	c0.139-0.035,0.303-0.177,0.314-0.33c-0.14-0.285-0.428-0.472-0.649-0.708H75.031L75.031,10.549z M75.415,10.373
	c0.287,0.271,0.577,0.507,0.809,0.836c-0.024,0.26-0.372,0.377-0.499,0.578c-0.081,0.13-0.208,0.224-0.358,0.2
	c-0.14-0.141-0.383-0.282-0.278-0.542c0.035-0.035,0.058-0.083,0.046-0.141c-0.046-0.059-0.115-0.012-0.163,0
	c-0.044,0.141-0.276,0.212-0.195,0.401c0.383,0.424,0.821,0.823,1.228,1.2c0.104,0.083,0.255,0.259,0.395,0.118
	c0.092-0.094,0.231-0.153,0.218-0.318c-0.034-0.07-0.115-0.047-0.175-0.035c-0.287,0.294-0.426-0.212-0.635-0.293
	c-0.046-0.271,0.256-0.307,0.36-0.53c0.125-0.141,0.254-0.401,0.476-0.318c0.333,0.412,0.752,0.669,1.098,1.059
	c0.068,0.271-0.254,0.448-0.394,0.66c-0.521,0.46-1.018,1.05-1.585,1.483c-0.265-0.068-0.452-0.365-0.672-0.541
	c-0.231-0.271,0.637-0.565,0.035-0.716c-0.195,0.104-0.358,0.304-0.462,0.47c-0.047,0.211,0.208,0.223,0.231,0.387
	c0.534,0.459,0.961,0.93,1.53,1.449c0.243,0.094,0.29-0.389,0.555-0.191c0.058,0.133,0.058,0.332,0.196,0.426
	c0.234-0.012,0.371,0.438,0.672,0.201c0.14-0.117,0.291-0.035,0.464-0.082c1.146-0.082,2.234,0.436,2.837,1.4
	c-0.046,0.094,0.081,0.105,0.081,0.164c0.349,0.73,0.407,1.73,0,2.449c-0.3,0.66-0.867,1.049-1.458,1.389
	c-0.624,0.26-1.552,0.365-2.167,0.047c-0.613-0.174-1.076-0.658-1.445-1.129c-0.047-0.164-0.163-0.283-0.198-0.447
	c-0.371-0.637-0.219-1.566,0-2.238c-0.313-0.082-0.116-0.672-0.58-0.506c-0.056-0.047-0.08-0.131-0.044-0.201
	c0.068-0.082,0.243-0.186,0.185-0.365c-0.334-0.328-0.661-0.682-1.021-0.951c-0.31-0.354-0.808-0.789-1.157-1.166
	c-0.137-0.014-0.163-0.199-0.255-0.248c-0.485-0.482-0.984-1.012-1.458-1.519c-0.022-0.306,0.16-0.646,0.404-0.799
	c0.094-0.083,0.231-0.071,0.326-0.071c0.452,0.307,0.833,0.788,1.273,1.129c0.023,0.13,0.175,0.177,0.278,0.106
	c0.117-0.236,0.615-0.377,0.429-0.672c-0.301-0.093-0.348,0.377-0.647,0.354c-0.199-0.248-0.697-0.436-0.545-0.811
	c0.649-0.637,1.205-1.32,1.876-1.897C75.205,10.09,75.285,10.302,75.415,10.373L75.415,10.373z M79.107,24.819
	c0.151,0.107-0.071,0.225-0.082,0.342c-0.323,0.072-0.59-0.176-0.902-0.197l-0.615-0.18c-0.022-0.023-0.045-0.07-0.045-0.129
	c0.151-0.236,0.44-0.07,0.66-0.07C78.411,24.69,78.782,24.726,79.107,24.819L79.107,24.819z M75.344,24.655
	c0.045,0.094-0.059,0.117-0.093,0.154c-0.498,0.059-0.938,0.352-1.425,0.316c-0.022-0.094-0.115-0.162-0.103-0.273
	c0.463-0.139,0.949-0.256,1.422-0.35C75.239,24.526,75.308,24.585,75.344,24.655L75.344,24.655z M81.945,24.644
	c0.033,0.082-0.095,0.082-0.151,0.129c-0.475,0.047-1.064,0.012-1.506-0.211l-0.116-0.119c0.418-0.305,0.95-0.141,1.414-0.035
	C81.689,24.466,81.839,24.562,81.945,24.644L81.945,24.644z M89.607,24.819c-0.184,0.145-0.449,0.025-0.67,0.033
	c-0.417-0.068-0.915-0.139-1.181-0.516l0.115-0.082C88.509,24.302,89.146,24.442,89.607,24.819L89.607,24.819z M72.691,24.407
	c0.011,0.107-0.115,0.096-0.163,0.166c-0.404,0.127-0.924,0.176-1.399,0.152c-0.035-0.025-0.106-0.025-0.115-0.082
	c0.021-0.117,0.137-0.141,0.195-0.201c0.346-0.141,0.778-0.234,1.124-0.176C72.472,24.267,72.588,24.337,72.691,24.407
	L72.691,24.407z M65.152,24.243c0.012,0.234-0.323,0.307-0.509,0.424c-0.359,0.178-0.821,0.117-1.193,0.152
	c-0.046,0-0.056-0.059-0.046-0.094c0.118-0.082,0.232-0.176,0.358-0.199l0.034-0.061c0.372-0.141,0.766-0.199,1.161-0.258
	L65.152,24.243L65.152,24.243z M77.891,24.042c-0.036,0.189-0.291,0.154-0.428,0.225c-0.291,0.082-0.291,0.836-0.672,0.4
	c-0.035-0.082-0.116-0.082-0.127-0.176c0.058-0.248,0.312-0.318,0.487-0.484C77.356,23.913,77.717,23.878,77.891,24.042
	L77.891,24.042z M76.13,24.372c0.128,0.271-0.196,0.295-0.313,0.412c-0.161-0.049-0.139-0.258-0.254-0.365
	c-0.164-0.188-0.464-0.211-0.637-0.377c0.173-0.176,0.461-0.105,0.693-0.07C75.795,24.089,76.015,24.208,76.13,24.372L76.13,24.372z
	 M84.249,24.042c0.055,0.178-0.164,0.131-0.254,0.166c-0.512-0.035-1.125-0.084-1.507-0.469c0.302-0.236,0.777-0.049,1.135,0.021
	C83.808,23.901,84.074,23.843,84.249,24.042L84.249,24.042z M70.421,23.702c-0.256,0.293-0.635,0.316-0.986,0.422
	c-0.23,0.014-0.497,0.035-0.716-0.023c-0.105-0.141,0.103-0.117,0.151-0.209c0.472-0.143,1.006-0.436,1.517-0.25L70.421,23.702
	L70.421,23.702z M86.843,23.56c0.162,0.014,0.37,0.107,0.521-0.021c0.692,0.152,1.388,0.139,2.117,0.236
	c0.046,0.127,0.209,0.15,0.326,0.127c0.126-0.094,0.266-0.225,0.438-0.211c0.14,0.094,0.255,0.293,0.428,0.129
	c0.15-0.096,0.29-0.305,0.512-0.199c0.069,0.082,0.162,0.164,0.276,0.154c0.454-0.215,0.915,0.068,1.345-0.189
	c0.266,0.045,0.521-0.129,0.809-0.117c0.07,0.035,0.07,0.127,0.046,0.223c-0.752,0.234-1.573,0.293-2.372,0.398
	c-1.599,0.035-3.174-0.105-4.737-0.314c-0.254-0.072-0.555-0.072-0.787-0.236c0.232-0.082,0.498-0.096,0.73-0.178
	C86.655,23.349,86.704,23.503,86.843,23.56L86.843,23.56z M67.157,23.468c-0.43,0.244-0.998,0.256-1.496,0.34
	c-0.961,0.084-1.839,0.246-2.849,0.199c-0.067,0.082-0.173-0.023-0.23,0.012c-1.124-0.035-2.294-0.141-3.348-0.434
	c0.035-0.025-0.08-0.082-0.023-0.129c0.15-0.119,0.36,0.012,0.544,0.012c0.44-0.025,0.833,0.271,1.286,0.105
	c0.265-0.023,0.625,0.283,0.797-0.082c0.325-0.023,0.557,0.633,0.835,0.129c0.325-0.082,0.497,0.434,0.752,0.164
	c0.255-0.199,0.649-0.094,0.938-0.129c0.36-0.105,0.811,0.021,1.145-0.188c0.314,0.092,0.686,0.092,0.857-0.166
	C66.67,23.302,66.867,23.503,67.157,23.468L67.157,23.468z M85.567,23.36c0,0.072,0.035,0.213-0.091,0.178
	c-0.141-0.061-0.36-0.035-0.418-0.178C85.208,23.302,85.487,23.161,85.567,23.36L85.567,23.36z M67.897,23.337
	c-0.091,0.154-0.313,0.105-0.463,0.119c-0.082-0.059-0.011-0.178,0.034-0.248C67.607,23.243,67.817,23.173,67.897,23.337
	L67.897,23.337z M76.836,23.372c0.071,0.305-0.139,0.52-0.324,0.67c-0.277,0.059-0.382-0.258-0.509-0.4
	c0.046-0.115-0.08-0.221,0.035-0.316C76.247,23.161,76.664,23.103,76.836,23.372L76.836,23.372z M90.976,23.126
	c0.022,0.141-0.115,0.26-0.231,0.33c-0.046,0.035-0.104,0.012-0.139-0.014c0.023-0.129,0.104-0.316,0.23-0.375
	C90.896,23.079,90.964,23.044,90.976,23.126L90.976,23.126z M84.618,23.126c0.025,0.07,0.231,0.117,0.08,0.211
	c-0.232,0.072-0.461-0.047-0.716-0.035c-0.754-0.059-1.528,0.141-2.237,0.354c-0.287,0.035-0.589,0.188-0.88,0.246
	c-0.136,0.117-0.347,0.07-0.498,0.152c-0.439,0.236-0.994,0.271-1.471,0.438c-0.173-0.025-0.324-0.072-0.461-0.154
	c0.116-0.094,0.3-0.094,0.474-0.117c0.8-0.225,1.552-0.459,2.328-0.717c0.591-0.061,1.124-0.354,1.736-0.377
	C83.482,23.019,84.109,23.019,84.618,23.126L84.618,23.126z M80.136,23.103c-0.092,0.34-0.473,0.646-0.822,0.705
	c-0.011-0.223,0.197-0.305,0.337-0.471c0.187-0.047,0.255-0.27,0.453-0.281L80.136,23.103L80.136,23.103z M73.56,23.69l-0.037,0.117
	c-0.321-0.131-0.715-0.398-0.774-0.717c0.022-0.096,0.14,0.023,0.196,0.035l0.534,0.434C73.513,23.595,73.513,23.642,73.56,23.69
	L73.56,23.69z M90.282,23.173c-0.048,0.152-0.231,0.283-0.395,0.318c0.012-0.178,0.022-0.389,0.218-0.447
	C90.202,23.044,90.305,23.067,90.282,23.173L90.282,23.173z M62.325,23.243c0.038,0.023-0.022,0.094-0.011,0.129
	c-0.138,0-0.231-0.105-0.31-0.211l0.035-0.154C62.234,22.983,62.224,23.126,62.325,23.243L62.325,23.243z M71.278,23.409
	c1.078,0.246,2.016,0.691,3.104,0.893c-0.081,0.141-0.289,0.141-0.464,0.141c-0.935-0.129-1.758-0.518-2.605-0.834
	c-0.299-0.023-0.532-0.188-0.845-0.199c-0.312-0.119-0.626-0.107-0.962-0.201c-0.416,0.023-0.892,0.094-1.261,0.059
	c0.034-0.082,0.06-0.199,0.174-0.211c0.869-0.119,1.574-0.012,2.383,0.164C70.954,23.278,71.141,23.302,71.278,23.409L71.278,23.409
	z M63.091,23.208c-0.01,0.059,0.07,0.129,0,0.213c-0.151,0.021-0.278-0.166-0.383-0.26c-0.011-0.059-0.033-0.189,0.081-0.201
	C62.94,22.995,63.033,23.056,63.091,23.208L63.091,23.208z M95.26,23.067c-0.057,0.258-0.371,0.305-0.591,0.375
	c-0.068-0.033-0.163-0.01-0.185-0.105c-0.012-0.117-0.047-0.305,0.092-0.354C94.831,22.866,95.04,22.995,95.26,23.067L95.26,23.067z
	 M94.253,22.937c0.023,0.07-0.057,0.082-0.094,0.107h-0.068c-0.023-0.061-0.035-0.189,0.068-0.189
	C94.208,22.843,94.276,22.866,94.253,22.937L94.253,22.937z M86.194,22.843c0.046,0.152-0.117,0.283-0.257,0.365
	c-0.08,0-0.139-0.07-0.092-0.141C85.962,22.983,86.02,22.819,86.194,22.843L86.194,22.843z M58.472,23.056
	c0.035,0.164-0.082,0.258-0.22,0.281c-0.221-0.035-0.51-0.094-0.592-0.354C57.88,22.808,58.346,22.726,58.472,23.056L58.472,23.056z
	 M67.144,23.019v0.119c-0.138,0.07-0.194-0.131-0.301-0.154c-0.034-0.059-0.105-0.117-0.057-0.197
	C66.949,22.786,67.04,22.901,67.144,23.019L67.144,23.019z M58.853,22.854c0.023,0.094-0.046,0.117-0.115,0.105
	c-0.022-0.059-0.128-0.117-0.069-0.188C58.761,22.751,58.818,22.808,58.853,22.854L58.853,22.854z M82.164,22.772
	c-0.012,0.014-0.035,0.014-0.058,0.014c0-0.061,0.012-0.117,0.058-0.166C82.232,22.642,82.164,22.726,82.164,22.772L82.164,22.772z
	 M75.495,23.161c0.08,0.082-0.015,0.141,0.033,0.248c-0.011,0.232-0.302,0.094-0.463,0.129c-0.289,0.021-0.568,0.152-0.785,0.318
	c-0.092,0.01-0.199-0.014-0.232-0.117c-0.221-0.531-0.858-0.838-1.356-1.154C73.617,22.866,74.497,23.079,75.495,23.161
	L75.495,23.161z M85.627,22.642c-0.024,0.26-0.372,0.318-0.545,0.402c0.035-0.225,0.151-0.424,0.371-0.494
	C85.545,22.534,85.567,22.597,85.627,22.642L85.627,22.642z M70.885,22.786c-0.07,0.021-0.104-0.035-0.125-0.084l0.01-0.18
	C70.84,22.597,70.954,22.653,70.885,22.786L70.885,22.786z M67.897,22.925v0.047c-0.198-0.047-0.383-0.164-0.522-0.318
	c0.025-0.057,0-0.154,0.092-0.166C67.689,22.522,67.851,22.726,67.897,22.925L67.897,22.925z M89.564,22.452
	c-0.141,0.391-0.534,0.721-0.929,0.85c0.14-0.4,0.511-0.74,0.892-0.895L89.564,22.452L89.564,22.452z M69.75,22.55
	c-0.012,0.035-0.057,0.012-0.08,0.021c-0.057-0.049-0.045-0.129-0.045-0.201C69.635,22.431,69.786,22.442,69.75,22.55L69.75,22.55z
	 M64.354,23.138c0,0.035,0.011,0.082-0.036,0.105c-0.359-0.152-0.589-0.4-0.833-0.721V22.37
	C63.914,22.442,64.099,22.843,64.354,23.138L64.354,23.138z M81.828,22.384c-0.059,0.293-0.325,0.529-0.508,0.742
	c-0.117,0.035-0.197,0.188-0.337,0.129c-0.035-0.188,0.14-0.377,0.277-0.518C81.445,22.62,81.551,22.241,81.828,22.384
	L81.828,22.384z M71.764,22.843c-0.058,0.176,0.325,0.213,0.14,0.377c-0.36-0.082-0.556-0.447-0.754-0.754v-0.178
	C71.452,22.335,71.544,22.642,71.764,22.843L71.764,22.843z M94.761,21.864c0.106,0.271-0.16,0.354-0.276,0.543
	c-0.094,0.023-0.151,0.092-0.266,0.059c-0.048-0.082-0.06-0.166-0.011-0.26C94.333,22.03,94.518,21.864,94.761,21.864L94.761,21.864
	z M58.761,22.241c-0.011,0.119-0.117,0.119-0.22,0.105c-0.185-0.117-0.396-0.258-0.383-0.529
	C58.426,21.724,58.715,21.981,58.761,22.241L58.761,22.241z M83.195,21.735c0.034,0.436-0.313,0.764-0.615,1.016
	c-0.057-0.367,0.244-0.639,0.417-0.945C83.067,21.794,83.102,21.7,83.195,21.735L83.195,21.735z M70.421,22.653
	c-0.033,0.049-0.128,0.049-0.149,0c-0.279-0.223-0.477-0.6-0.497-0.953c0.043-0.035,0.102,0.012,0.138,0.035
	C70.133,21.993,70.328,22.323,70.421,22.653L70.421,22.653z M84.898,21.442c0.02,0.328-0.303,0.518-0.487,0.74
	c-0.234,0.117-0.417,0.414-0.697,0.424c-0.081-0.164,0.14-0.283,0.188-0.4c0.115-0.07,0.171-0.201,0.241-0.318
	C84.386,21.724,84.607,21.511,84.898,21.442L84.898,21.442z M68.778,21.782c0.093,0.141,0.196,0.211,0.267,0.365
	c0.104,0.07,0.22,0.188,0.22,0.318c0.012,0.068-0.092,0.119-0.153,0.068c-0.333-0.246-0.681-0.516-0.935-0.834
	c-0.095-0.082-0.072-0.211-0.116-0.318c0.044-0.021,0.104-0.01,0.147,0c0.163,0.117,0.406,0.236,0.522,0.4H68.778L68.778,21.782z
	 M84.063,19.862c-0.046,0.365,0.093,0.625,0,0.979c-0.034,0.035-0.068,0.047-0.117,0.047c-0.232-0.377-0.264-0.953-0.092-1.367
	C83.995,19.546,84.005,19.745,84.063,19.862L84.063,19.862z M69.206,19.827c0.012,0.354,0.024,0.744-0.196,0.979
	c-0.092,0.023-0.071-0.082-0.092-0.141c-0.083-0.41-0.023-0.861,0.149-1.215C69.206,19.487,69.181,19.687,69.206,19.827
	L69.206,19.827z M85.406,18.923c0,0.164-0.059,0.305-0.093,0.457c-0.22,0.33-0.335,0.74-0.707,0.908
	c-0.092-0.225,0.059-0.426,0.128-0.625c0.184-0.26,0.298-0.576,0.544-0.799C85.325,18.876,85.396,18.841,85.406,18.923
	L85.406,18.923z M89.736,19.263c0.059,0.529,0.454,1.014,0.789,1.309c0.311,0.365,0.692,0.541,1.019,0.893
	c0.009,0.271-0.06,0.529-0.196,0.719c-0.452-0.059-1.065-0.223-1.346,0.27c-0.08,0.309-0.334,0.639-0.427,0.908
	c-0.059,0.049-0.162,0.082-0.242,0.049l-0.048-0.072c0.335-0.342,0.591-0.695,0.684-1.201c0.011-0.094-0.059-0.213-0.161-0.213
	c-0.686,0.143-1.264,0.627-1.507,1.297c-0.104,0.105-0.256,0.023-0.37,0c-0.081-0.176,0.15-0.225,0.195-0.377
	c0.094-0.117,0.103-0.271,0.188-0.391c0.067-0.588,0.485-1.092,0.322-1.717c-0.08-0.07-0.138-0.105-0.195-0.213
	c0.034-0.412,0.172-0.754,0.335-1.107c0.162-0.129,0.347-0.105,0.521-0.246c0.127-0.117,0.139-0.293,0.311-0.316
	C89.714,18.97,89.679,19.132,89.736,19.263L89.736,19.263z M67.77,18.829c0.277,0.434,0.566,0.799,0.637,1.34
	c-0.048,0.072-0.128,0-0.186,0c-0.268-0.307-0.5-0.682-0.626-1.072c0-0.104-0.045-0.221,0.023-0.316L67.77,18.829L67.77,18.829z
	 M64.156,19.286c0.244,0.33,0.326,0.766,0.37,1.201c-0.115,0.166-0.288,0.248-0.243,0.496c0.231,0.693,0.231,1.482,0.754,2.061
	c0.033,0.094-0.081,0.117-0.129,0.141c-0.383,0.094-0.3-0.354-0.474-0.531c-0.336-0.412-0.764-0.801-1.344-0.801
	c-0.162,0.236,0,0.494,0.116,0.697c0.036,0.201,0.197,0.328,0.279,0.506c0.081,0.047,0.185,0.117,0.23,0.199
	c-0.081,0.105-0.174,0.105-0.289,0.047c-0.104-0.199-0.161-0.283-0.243-0.516c-0.173-0.287-0.335-0.721-0.752-0.781
	c-0.3-0.057-0.578,0.061-0.858,0.049c-0.032-0.225-0.184-0.436-0.126-0.682c0.636-0.648,1.668-1.18,1.783-2.156
	c0.068-0.141,0.058-0.34,0.186-0.436C63.682,18.923,63.773,19.31,64.156,19.286L64.156,19.286z M84.386,16.778
	c0.175,0.447,0.29,0.918,0.28,1.438c-0.022,0.094-0.117,0.047-0.163,0c-0.174-0.543-0.486-1.049-0.325-1.648
	C84.271,16.603,84.329,16.708,84.386,16.778L84.386,16.778z M68.811,17.024c-0.069,0.307-0.172,0.602-0.232,0.908
	c-0.057,0.07-0.091,0.236-0.22,0.248c-0.138-0.143-0.023-0.344-0.034-0.52c0.094-0.412,0.196-0.834,0.405-1.176
	C68.929,16.521,68.834,16.86,68.811,17.024L68.811,17.024z M85.753,16.085c0.07,0.553-0.266,0.963-0.579,1.365
	c-0.046,0.035-0.127,0.117-0.161,0.012c0.092-0.553,0.301-0.988,0.67-1.377H85.753L85.753,16.085z M67.945,17.401
	c-0.024,0.023-0.059,0-0.095,0.012c-0.383-0.354-0.53-0.787-0.647-1.305c0.046-0.023-0.012-0.119,0.068-0.131
	C67.666,16.343,67.887,16.86,67.945,17.401L67.945,17.401z M88.904,16.86c0.021,0.152,0.103,0.318,0.162,0.447
	c0.056,0.365,0.287,0.646,0.299,1.025l-0.299,0.318c-0.036,0.082-0.116,0.178-0.231,0.213c-0.754,0.176-0.673,1.129-0.845,1.742
	c0.01,0.176,0.206,0.316,0.238,0.482c-0.238,0.764-0.298,1.719-0.992,2.201c-0.106,0.012-0.231,0-0.255-0.105
	c0.033-0.059,0.023-0.141-0.035-0.178c-0.104-0.164-0.279,0.049-0.371-0.07c0.012-0.176-0.08-0.34-0.231-0.414
	c-0.174-0.08-0.382,0.084-0.51-0.08c-0.045-0.107,0.012-0.236,0.128-0.201c0.396,0,0.881,0.281,1.159-0.07
	c0.069-0.52,0.416-1.047,0.138-1.59c-0.138-0.379-0.476-0.754-0.277-1.248c0.023-0.682,0.255-1.271,0.277-1.955
	c0.095-0.717,0.764-1.035,1.008-1.67c0.034-0.107,0.174-0.082,0.231-0.012C88.763,15.989,88.763,16.474,88.904,16.86L88.904,16.86z
	 M64.909,16.024c0.441,0.543,0.95,1.084,0.856,1.945c0.084,0.139,0.025,0.34,0.117,0.492c0.059,0.426,0.14,0.824,0.174,1.26
	c-0.208,0.506-0.603,1.025-0.371,1.625c0.116,0.33-0.013,0.836,0.417,0.941c0.359,0.035,0.706-0.164,1.055-0.07
	c0,0.07,0.023,0.199-0.081,0.234c-0.177,0.035-0.339-0.068-0.477,0.035c-0.263,0.035-0.069,0.639-0.428,0.379
	c-0.335-0.023-0.069,0.482-0.461,0.354c-0.256-0.318-0.589-0.578-0.649-1.002c-0.151-0.412-0.254-0.836-0.303-1.281
	c0.476-0.473,0.023-1.168-0.091-1.709c-0.058-0.281-0.336-0.412-0.59-0.482c-0.14-0.295-0.627-0.459-0.347-0.838
	c-0.013-0.152,0.067-0.223,0.126-0.34c0.231-0.543,0.28-1.141,0.463-1.682c0.151-0.072,0.092-0.438,0.348-0.32
	C64.769,15.72,64.852,15.849,64.909,16.024L64.909,16.024z M83.554,14.446c-0.071,0.096-0.197,0.143-0.325,0.143l-0.081-0.025
	c0.037-0.139,0.151-0.268,0.28-0.34C83.576,14.212,83.563,14.329,83.554,14.446L83.554,14.446z M69.831,14.493
	c-0.115,0.096-0.232-0.012-0.347-0.047c-0.035-0.057-0.06-0.141-0.048-0.223c0.048-0.117,0.163-0.047,0.222,0
	C69.726,14.306,69.819,14.364,69.831,14.493L69.831,14.493z M85.162,14.446c0.012,0.436-0.046,0.92-0.264,1.297
	c-0.232-0.307-0.095-0.838-0.049-1.215c0.092-0.164-0.012-0.492,0.278-0.434L85.162,14.446L85.162,14.446z M68.188,15.247
	c0.058,0.143,0,0.295-0.083,0.4c-0.232-0.211-0.266-0.564-0.288-0.883c-0.011-0.283,0.009-0.576,0.092-0.787
	C68.222,14.245,68.127,14.788,68.188,15.247L68.188,15.247z M83.172,13.623c0,0.106-0.083,0.235-0.199,0.306
	c-0.091-0.023-0.195,0.119-0.275,0c-0.038-0.199,0.171-0.258,0.218-0.423C83.021,13.519,83.172,13.472,83.172,13.623L83.172,13.623z
	 M70.272,13.765L70.26,13.87c-0.127,0.059-0.267,0-0.359-0.082c-0.07-0.059-0.082-0.188-0.046-0.283
	c0.022-0.059,0.138-0.153,0.195-0.047C70.145,13.564,70.189,13.671,70.272,13.765L70.272,13.765z M82.973,12.81
	c-0.104,0.118-0.266,0.177-0.415,0.153c-0.083-0.012-0.046-0.094-0.06-0.142C82.604,12.669,83.09,12.386,82.973,12.81L82.973,12.81z
	 M70.468,12.822c-0.034,0.118-0.22,0.059-0.323,0.047c-0.106-0.059-0.187-0.165-0.127-0.307
	C70.189,12.492,70.399,12.645,70.468,12.822L70.468,12.822z M86.031,12.386l0.209,0.882c0.092,0.085,0.208,0.061,0.312,0.099
	c0.071,0.222,0.336,0.387,0.314,0.611c0.08,0.07,0.044,0.211,0.195,0.199c0.209-0.129,0.267,0.143,0.347,0.213
	c0.014,0.152,0.048,0.34,0.199,0.389c0.231-0.189,0.255,0.162,0.357,0.246c-0.011,0.354-0.337,0.541-0.428,0.861
	c-0.151,0.258-0.336,0.457-0.498,0.717c-0.372,0.74-0.464,1.648-0.532,2.541c-0.035,0.344-0.149,0.602-0.012,0.92
	c0.046,0.482,0.59,0.789,0.403,1.344c-0.069,0.174-0.032,0.457-0.275,0.492c-0.406-0.094-0.893-0.211-1.228,0.105
	c-0.199,0.201-0.417,0.461-0.509,0.732c-0.14,0.023-0.325,0.035-0.42-0.068c0.129-0.262,0.487-0.322,0.567-0.65
	c0.234-0.213,0.326-0.564,0.489-0.848c0.057-0.176-0.083-0.283-0.209-0.307c-0.395,0-0.647,0.26-0.961,0.4
	c-0.048-0.117-0.035-0.281,0.06-0.377c0.53-0.281,0.995-0.742,1.191-1.283c0.221-0.41,0.268-0.918,0.221-1.424
	c-0.024-0.084-0.141-0.143-0.221-0.072c-0.255,0.178-0.406,0.33-0.636,0.508h-0.048c-0.02-0.201,0.012-0.389,0.094-0.555
	c0.289-0.199,0.498-0.447,0.706-0.719c0.324-0.459,0.521-1.059,0.462-1.717c-0.044-0.074,0.036-0.236-0.081-0.26
	c-0.392-0.061-0.555,0.367-0.786,0.576c-0.14,0.143-0.151,0.342-0.313,0.461c-0.115-0.365,0.254-0.484,0.324-0.791
	c0.405-0.707,0.242-1.646-0.117-2.319c-0.127-0.038-0.242,0.035-0.29,0.129c-0.069,0.26-0.275,0.506-0.312,0.719l-0.046,0.07
	c0.057,0.117-0.149,0.199-0.07,0.365c-0.139,0.506-0.071,1.094,0.195,1.52c-0.021,0.105,0.06,0.27-0.068,0.33
	c-0.174-0.037-0.127-0.236-0.232-0.33l-0.369-0.471c-0.28,0.129-0.163,0.541-0.267,0.801c-0.094,0.939,0.244,1.742,0.741,2.426
	c0.035,0.27-0.047,0.516-0.139,0.693h-0.081c-0.162-0.26-0.198-0.635-0.406-0.859c-0.103-0.059-0.184,0.07-0.209,0.166
	c-0.186,0.574-0.347,1.258-0.186,1.895c0.092,0.412,0.638,0.953,0.128,1.354c-0.117,0.094-0.232,0.283-0.254,0.449
	c-0.035,0.035-0.081,0.104-0.14,0.057c0.082-0.211,0.255-0.4,0.277-0.602c0.14-0.199,0.081-0.516,0.071-0.752
	c-0.22-0.295-0.44,0.107-0.638,0.164c-0.229,0.201-0.452,0.553-0.59,0.871c-0.06-0.199,0.08-0.447-0.083-0.564
	c-0.312,0.117-0.601,0.318-0.901,0.482c-0.22,0.164-0.417,0.391-0.626,0.602c-0.069-0.105-0.094-0.236-0.229-0.273
	c-0.697,0.168-1.427,0.732-1.705,1.309c-0.347,0.141-0.508-0.248-0.821-0.27c-0.197-0.023-0.36-0.023-0.554,0
	c-0.116-0.082-0.036-0.248-0.095-0.389c0.243-0.059,0.509-0.059,0.74-0.129l0.116,0.035c0.603-0.154,1.226-0.225,1.795-0.471
	c0.452-0.098,0.903-0.32,1.274-0.566c0.429-0.236,0.812-0.59,1.135-0.93c0.521-0.74,0.974-1.637,0.974-2.697
	c0.057-1.143,0.071-2.354,0.115-3.533c0.222-0.33,0.843-0.387,0.88-0.799c0.126-0.105,0.012-0.213,0.151-0.318
	c0.046-0.304,0.104-0.673,0.407-0.766c0.08-0.095,0.243-0.165,0.347-0.236c0.242-0.188,0.415-0.295,0.625-0.507
	C85.974,12.223,85.997,12.362,86.031,12.386L86.031,12.386z M67.55,12.527c0.359,0.354,0.984,0.448,0.95,1.12
	c0.151,0.305,0.129,0.658,0.51,0.834c0.183,0.143,0.522,0.164,0.509,0.459c0.069,1.721-0.115,3.463,0.417,5.006
	c0.37,0.777,0.786,1.496,1.576,1.941c0.287,0.236,0.623,0.412,0.948,0.6c-0.091,0.027-0.219,0.063-0.23,0.182
	c-0.011,0.045,0.021,0.092-0.011,0.117c-0.141,0-0.177-0.133-0.232-0.215c-0.326-0.436-0.836-0.707-1.324-0.906
	c-0.103,0.152,0,0.377-0.01,0.518c-0.125,0.012-0.104-0.152-0.185-0.234c-0.14-0.402-0.545-0.707-0.95-0.859
	c-0.149,0.117-0.115,0.4-0.094,0.6c0,0.199,0.141,0.354,0.12,0.553c-0.163-0.117-0.2-0.365-0.372-0.494
	c-0.14-0.365,0.243-0.646,0.301-0.977c0.185-0.73,0.045-1.529-0.267-2.154l-0.128,0.012c-0.184,0.26-0.243,0.588-0.404,0.834
	c-0.164-0.059-0.115-0.268-0.186-0.4c-0.117-0.232,0.126-0.375,0.186-0.539c0.567-0.719,0.658-1.896,0.416-2.865
	c-0.035-0.031-0.045-0.092-0.116-0.092c-0.267,0.143-0.334,0.412-0.452,0.684c-0.045,0.035-0.092,0.07-0.163,0.082
	c-0.126-0.223,0-0.436,0.081-0.623c0.211-0.414,0.163-1.145-0.021-1.52c-0.104-0.33-0.174-0.766-0.51-0.977
	c-0.22-0.026-0.21,0.247-0.291,0.376c-0.185,0.565-0.298,1.247-0.035,1.802c0.127,0.344,0.381,0.541,0.44,0.895
	c-0.035,0.059-0.115,0.023-0.127-0.035c-0.198-0.4-0.463-0.801-0.892-0.99c-0.117-0.035-0.186,0.082-0.22,0.166
	c-0.048,0.506,0.035,0.955,0.208,1.377c0.242,0.518,0.661,0.883,1.03,1.342c-0.059,0.166,0.163,0.295-0.011,0.426
	c-0.255-0.213-0.464-0.473-0.79-0.566c-0.138,0.189-0.081,0.508-0.043,0.73c0.126,0.693,0.394,1.4,0.947,1.801
	c0.163,0.213,0.674,0.283,0.476,0.672c-0.277-0.211-0.579-0.27-0.892-0.4c-0.093-0.023-0.149,0.059-0.219,0.094
	c-0.069,0.426,0.278,0.744,0.441,1.082c0.139,0.26,0.426,0.365,0.566,0.604c-0.048,0.117-0.174,0.084-0.254,0.141
	c-0.312-0.129-0.372-0.531-0.59-0.744c-0.36-0.375-0.973-0.176-1.437-0.176c-0.127-0.154-0.082-0.377-0.14-0.553
	c-0.114-0.471,0.258-0.693,0.325-1.107c0.231-0.234,0.115-0.658,0.092-0.967c-0.079-0.799-0.196-1.588-0.393-2.352
	c-0.22-0.473-0.648-0.885-0.834-1.367c-0.104-0.178-0.348-0.365-0.244-0.637c0.082-0.059,0.163-0.234,0.291-0.141
	c0.195-0.037,0.185-0.258,0.255-0.387c0.012-0.084,0.081-0.178,0.172-0.225c0.151,0.012,0.336,0.012,0.36-0.166
	c0.069-0.246,0.244-0.504,0.428-0.685c0.104,0.047,0.22,0,0.267-0.081c0.057-0.294,0.14-0.578,0.196-0.882
	C67.236,12.082,67.375,12.411,67.55,12.527L67.55,12.527z M83.125,11.257c-0.011,0.212-0.22,0.271-0.347,0.365h-0.059
	c-0.092-0.189,0.115-0.271,0.163-0.413C82.951,11.153,83.09,11.163,83.125,11.257L83.125,11.257z M70.293,11.445
	c0.012,0.047-0.021,0.083-0.033,0.106c-0.176-0.035-0.243-0.153-0.359-0.26c0.012-0.083-0.035-0.165,0.069-0.2
	C70.165,11.105,70.202,11.315,70.293,11.445L70.293,11.445z M83.391,9.927c0,0.127-0.092,0.187-0.196,0.222
	c-0.105,0.035-0.266,0.047-0.302-0.083c0.141-0.071,0.244-0.399,0.464-0.257L83.391,9.927L83.391,9.927z M76.55,9.809
	c0.194-0.061,0.426,0.021,0.633,0c0.592-0.026,1.159-0.061,1.739-0.026c0.312-0.035,0.589,0,0.903-0.035l0.959,0.026
	c0.197,0.106,0.279,0.458,0.566,0.354c0.107-0.096,0.071-0.236,0.222-0.271c0.14,0.092,0.254,0.281,0.452,0.281
	c0.138-0.07,0.115-0.316,0.335-0.2c0.104,0.165,0.023,0.471,0.313,0.471c0.117,0.094,0.105,0.306,0.08,0.459
	c-0.321,0.285-0.486,0.742-0.31,1.179h0.255c-0.048,0.365-0.498,0.551-0.592,0.894c0,0.129,0,0.271,0.137,0.306l0.43,0.057
	c0,0.368-0.544,0.426-0.37,0.792c0.14,0.129,0.313,0.164,0.498,0.164c0.033,0.047,0.012,0.119,0,0.188
	c-0.103,0.082-0.186,0.199-0.115,0.318l0.115,0.117c0.022,1.32-0.034,2.604-0.083,3.922c-0.081,0.494-0.301,0.895-0.452,1.365
	c-0.449,0.719-1.088,1.412-1.943,1.684c-0.417,0.33-1.02,0.248-1.496,0.471c-0.788,0.061-1.656,0.227-2.524,0.211
	c-1.078-0.012-2.095-0.188-3.101-0.434c-1.334-0.354-2.352-1.424-2.814-2.686c-0.359-1.307-0.116-2.871-0.255-4.273
	c-0.163-0.318,0.277-0.377,0.161-0.635l-0.161-0.223c0.115-0.225,0.498-0.039,0.567-0.318c0.022-0.295-0.427-0.401-0.358-0.72
	c0.161-0.13,0.473,0.057,0.521-0.224c-0.011-0.448-0.463-0.589-0.569-0.976v-0.071c0.095-0.012,0.244,0.071,0.315-0.071
	c0.139-0.495-0.187-0.8-0.383-1.167c0.022-0.13-0.036-0.248,0.047-0.354c0.104-0.059,0.243-0.107,0.288-0.236
	c-0.023-0.104,0.011-0.212,0.103-0.283c0.234-0.118,0.234,0.377,0.5,0.153c0.138-0.01,0.22-0.387,0.381-0.128
	c0.024,0.071,0.048,0.163,0.128,0.199c0.255,0.023,0.289-0.281,0.509-0.352C73.652,9.809,75.088,9.727,76.55,9.809L76.55,9.809z
	 M84.898,9.774c-0.037,0.271,0.135,0.552-0.012,0.799c-0.279,0.235-0.442,0.697-0.789,0.778c-0.103-0.259-0.046-0.637-0.347-0.778
	c-0.08-0.047-0.188-0.047-0.231-0.153c-0.012-0.071,0.022-0.094,0.069-0.13c0.568,0.153,0.58-0.563,1.056-0.587
	C84.71,9.748,84.838,9.667,84.898,9.774L84.898,9.774z M70.062,9.948c0.047,0.071-0.033,0.106-0.081,0.142
	c-0.163-0.011-0.324-0.059-0.395-0.188c-0.035-0.092,0.048-0.175,0.117-0.21C69.913,9.632,69.923,9.927,70.062,9.948L70.062,9.948z
	 M68.73,9.809c0.036,0.175,0.199,0.27,0.359,0.363c0.14,0.059,0.334-0.07,0.394,0.118c-0.069,0.201-0.358,0.177-0.439,0.401
	c-0.115,0.177,0.045,0.554-0.233,0.579c-0.323-0.426-0.902-0.721-0.717-1.333c0.034-0.106-0.033-0.305,0.151-0.316
	C68.407,9.679,68.651,9.621,68.73,9.809L68.73,9.809z M81.352,9.149c0.012,0.2-0.068,0.389-0.126,0.542
	c-0.161,0.047-0.091-0.142-0.161-0.201c-0.023-0.153,0-0.294,0.092-0.401C81.225,9.09,81.319,9.066,81.352,9.149L81.352,9.149z
	 M81.978,9.09c0.023,0.177,0.035,0.437-0.069,0.602c-0.103,0.023-0.174-0.083-0.207-0.153c-0.025-0.13-0.048-0.307,0.033-0.413
	C81.794,9.043,81.874,9.102,81.978,9.09L81.978,9.09z M82.687,9.42c-0.014,0.118-0.026,0.248-0.117,0.318
	c-0.254-0.012-0.163-0.318-0.234-0.483c0.048-0.118,0.107-0.188,0.234-0.2C82.753,9.031,82.698,9.291,82.687,9.42L82.687,9.42z
	 M71.904,9.185c-0.023,0.153,0.034,0.33-0.069,0.436c-0.221-0.036-0.14-0.342-0.231-0.495C71.661,8.96,71.904,9.055,71.904,9.185
	L71.904,9.185z M71.29,9.185c0.012,0.165,0.012,0.365-0.126,0.436c-0.149-0.059-0.174-0.295-0.186-0.483
	c-0.024-0.094,0.045-0.094,0.08-0.153C71.15,9.02,71.349,9.02,71.29,9.185L71.29,9.185z M70.653,9.172
	c0,0.177-0.034,0.389-0.196,0.483l-0.093-0.047c0-0.212-0.151-0.459,0-0.624C70.502,8.984,70.608,9.043,70.653,9.172L70.653,9.172z
	 M79.268,9.09c-0.371,0.142-0.878,0.06-1.307,0.06c-1.448-0.024-2.766,0.07-4.249-0.012l-0.059-0.036
	c0.535-0.233,1.18-0.224,1.773-0.332C76.722,8.748,78.03,8.829,79.268,9.09L79.268,9.09z M80.67,8.5c-0.034,0.071,0,0.14-0.08,0.187
	c-0.083,0.026-0.129-0.033-0.186-0.068c-0.012-0.095,0-0.165,0.091-0.189C80.566,8.43,80.646,8.43,80.67,8.5L80.67,8.5z
	 M85.962,8.631c-0.116,0.139-0.197,0.306-0.243,0.506c-0.068,0.271-0.092,0.611-0.323,0.764c-0.082,0.025-0.082-0.057-0.106-0.092
	c-0.104-0.625,0.338-1.061,0.625-1.438C85.985,8.43,85.997,8.548,85.962,8.631L85.962,8.631z M72.274,8.619
	c-0.024,0.012-0.045,0.021-0.082,0.012c-0.034-0.083-0.092-0.177,0-0.26C72.368,8.335,72.274,8.548,72.274,8.619L72.274,8.619z
	 M67.144,8.289c0.302,0.389,0.592,0.754,0.592,1.319c-0.014,0.083-0.037,0.236-0.162,0.175c-0.28-0.375-0.173-0.915-0.511-1.247
	c-0.034-0.059-0.011-0.141-0.023-0.212C67.077,8.313,67.099,8.265,67.144,8.289L67.144,8.289z M82.406,8.229
	c0.141,0,0.267,0.024,0.372,0.106c0.395-0.117,0.661,0.177,0.937,0.388c0.359,0,0.475-0.375,0.777-0.47
	c0.232,0.165-0.196,0.505,0.195,0.532c0.048,0.139,0.106,0.281,0.083,0.446c-0.163,0.023-0.325,0.188-0.475,0.059
	c-0.058-0.153-0.163-0.283-0.3-0.354c-0.081-0.012-0.177,0.012-0.177,0.094c0,0.177,0.107,0.318,0.128,0.495
	c0.011,0.165-0.092,0.318-0.232,0.375c-0.173-0.035-0.173-0.293-0.254-0.411c0.011-0.083-0.022-0.142-0.093-0.165
	c-0.417,0.012,0.104-0.625-0.324-0.589c-0.047,0.092-0.151,0.177-0.266,0.118c-0.105-0.167-0.323-0.047-0.452-0.153
	c-0.22,0.084-0.463,0.057-0.694,0.084c0-0.038-0.036-0.063-0.058-0.084c-0.151,0.084-0.291,0.167-0.486,0.106
	c-0.186-0.12,0-0.283,0.035-0.4c0.22-0.283,0.647-0.188,0.927-0.083L82.406,8.229L82.406,8.229z M80.566,8.925
	c0.092,0.012,0.15,0.083,0.185,0.165c-0.07,0.095-0.221,0.024-0.313,0c-1.946-0.624-4.077-0.79-6.08-0.507
	c-0.16,0.104-0.392,0.012-0.567,0.083c-0.534,0.083-0.996,0.366-1.542,0.401c-0.031-0.023-0.068-0.047-0.057-0.094
	c0.535-0.377,1.24-0.354,1.854-0.555c0.669-0.2,1.41-0.165,2.083-0.212C77.681,8.171,79.143,8.454,80.566,8.925L80.566,8.925z
	 M71.915,8.466c-0.011,0.094,0.035,0.139,0.023,0.235c-0.103,0.047-0.207,0.057-0.334,0.047c-0.083-0.143-0.244-0.083-0.373-0.025
	c-0.358-0.058-0.774-0.14-1.087,0.063c-0.151,0.035-0.267-0.332-0.349-0.038c-0.046,0.177,0.105,0.307,0,0.46
	c-0.092,0.012-0.209,0.012-0.252,0.118c-0.025,0.165-0.06,0.389-0.234,0.483c-0.138-0.012-0.172-0.142-0.243-0.236
	c-0.137-0.283,0.417-0.719-0.104-0.684l-0.323,0.342c-0.14-0.012-0.303-0.012-0.394-0.13c-0.049-0.165,0.06-0.281,0.091-0.4
	c0.06-0.036,0.141-0.036,0.163-0.118c0.035-0.141-0.163-0.341,0.059-0.4c0.313,0.082,0.415,0.504,0.785,0.448
	c0.281-0.507,0.822-0.283,1.298-0.46c0.312,0.2,0.648-0.129,0.962,0.035C71.743,8.218,71.881,8.348,71.915,8.466L71.915,8.466z
	 M80.136,8.253c0.024,0.118-0.021,0.236-0.147,0.236c-0.107,0.023-0.14-0.083-0.21-0.154c0-0.106,0.06-0.152,0.128-0.2
	C80.032,8.088,80.08,8.194,80.136,8.253L80.136,8.253z M72.934,8.229c0.026,0.118-0.045,0.201-0.125,0.26
	c-0.163,0.023-0.197-0.106-0.255-0.2c0.035-0.083,0.092-0.118,0.149-0.165C72.808,8.1,72.923,8.124,72.934,8.229L72.934,8.229z
	 M73.675,8.053c0.07,0.188-0.126,0.212-0.231,0.247c-0.138,0-0.254-0.141-0.186-0.283C73.375,7.947,73.641,7.841,73.675,8.053
	L73.675,8.053z M79.502,8.053c0.033,0.118-0.048,0.176-0.119,0.236c-0.092,0-0.196,0-0.265-0.071
	c-0.059-0.083-0.033-0.153,0.024-0.236C79.258,7.865,79.431,7.923,79.502,8.053L79.502,8.053z M78.748,7.9
	c0.034,0.129,0,0.259-0.138,0.283c-0.128,0-0.255-0.036-0.291-0.166c-0.011-0.094,0.071-0.153,0.116-0.2
	C78.539,7.829,78.702,7.771,78.748,7.9L78.748,7.9z M74.393,7.923c0,0.083-0.045,0.153-0.125,0.201
	c-0.128,0.023-0.232-0.036-0.269-0.142c0.025-0.118,0.083-0.177,0.201-0.2C74.279,7.806,74.43,7.782,74.393,7.923L74.393,7.923z
	 M72.749,7.853c-0.196,0.177-0.487,0.212-0.751,0.212c-0.059-0.118-0.254-0.189-0.162-0.342C72.134,7.806,72.448,7.806,72.749,7.853
	L72.749,7.853z M78.04,7.853c-0.01,0.13-0.08,0.212-0.22,0.212c-0.081-0.012-0.22-0.012-0.206-0.142
	c-0.014-0.118,0.066-0.188,0.161-0.236C77.891,7.678,78.02,7.747,78.04,7.853L78.04,7.853z M77.371,7.806
	c0,0.106-0.037,0.165-0.116,0.212c-0.152,0.047-0.304,0.012-0.36-0.129c-0.059-0.142,0.07-0.224,0.161-0.259
	C77.207,7.596,77.323,7.688,77.371,7.806L77.371,7.806z M75.134,7.817c0.037,0.153-0.103,0.153-0.195,0.212
	c-0.07-0.035-0.163,0.024-0.21-0.059c-0.104-0.142,0.025-0.283,0.14-0.342C75.008,7.607,75.088,7.711,75.134,7.817L75.134,7.817z
	 M75.886,7.747c-0.01,0.118-0.091,0.201-0.174,0.26c-0.104,0-0.232,0-0.255-0.106c-0.057-0.14,0.038-0.236,0.151-0.292
	C75.737,7.582,75.852,7.629,75.886,7.747L75.886,7.747z M76.559,7.9c-0.058,0.071-0.175,0.047-0.255,0.047
	C76.199,7.9,76.167,7.76,76.235,7.664C76.361,7.478,76.768,7.664,76.559,7.9L76.559,7.9z M86.02,7.652
	c-0.174,0.377-0.475,0.695-0.765,1.071c-0.185-0.083-0.058-0.352-0.046-0.505c0.046-0.354,0.394-0.566,0.581-0.837
	C85.938,7.207,86.113,7.489,86.02,7.652L86.02,7.652z M67.736,7.888c0.058,0.236,0.151,0.53,0.046,0.743
	c-0.278-0.342-0.638-0.719-0.801-1.142c-0.055-0.129,0.083-0.188,0.129-0.259C67.413,7.348,67.515,7.664,67.736,7.888L67.736,7.888z
	 M74.856,7.348c0.071,0.012,0.163-0.011,0.231,0.024c-0.614,0.071-1.216,0.236-1.794,0.363h-0.048
	c0.023-0.139,0.21-0.127,0.291-0.235c0.243-0.081,0.267-0.528,0.567-0.399C74.313,7.289,74.588,7.289,74.856,7.348L74.856,7.348z
	 M76.642,7.006c0.541,0.424,1.41,0.412,1.968,0.059c0.299-0.365,0.369,0.236,0.566,0.307c0.452,0.434,1.216,0.576,1.806,0.316
	c0.059-0.023,0.082,0.012,0.105,0.059c-0.06,0.142-0.06,0.318-0.211,0.389c-0.509-0.047-0.902-0.365-1.41-0.413
	c-0.904-0.127-1.76-0.446-2.769-0.375c-0.438-0.083-0.925,0.095-1.331-0.011c0.313-0.106,0.696-0.33,0.995-0.566
	C76.512,6.806,76.512,6.947,76.642,7.006L76.642,7.006z M85.765,6.617c0.059,0.177,0,0.366-0.114,0.483
	c-0.325,0.176-0.442,0.517-0.649,0.788c-0.151-0.023-0.059-0.236-0.083-0.354c0.035-0.47,0.395-0.693,0.684-0.988
	C85.66,6.556,85.778,6.511,85.765,6.617L85.765,6.617z M68.105,7.582c0,0.083,0.022,0.189-0.058,0.224
	c-0.138-0.045-0.16-0.21-0.229-0.306c-0.118-0.387-0.799-0.564-0.497-1.047C67.77,6.628,68.047,7.089,68.105,7.582L68.105,7.582z
	 M76.593,6.334c0.395,0.424,1.066,0.637,1.622,0.413c0.196-0.083,0.395-0.2,0.567-0.344c0.046-0.047,0.083-0.165,0.174-0.198
	c0.151,0.33,0.303,0.742,0.672,0.966c0.486,0.283,1.182,0.259,1.643-0.059C81.225,7.43,80.844,7.43,80.602,7.5
	c-0.592,0.072-1.218-0.163-1.53-0.67c-0.067-0.13,0-0.34-0.149-0.413c-0.141-0.035-0.095,0.156-0.175,0.189
	C78.33,7.065,77.588,7.112,77.011,6.9c-0.29-0.071-0.418-0.354-0.579-0.554c-0.197-0.094-0.197,0.153-0.325,0.226
	c-0.267,0.118-0.451,0.411-0.775,0.434c-0.452,0.142-1.113-0.012-1.389-0.389c-0.175,0-0.164,0.201-0.232,0.294
	c-0.268,0.425-0.729,0.542-1.172,0.635c-0.334,0.049-0.553-0.187-0.867-0.21c-0.08-0.012-0.092-0.106-0.117-0.153l0.049-0.047
	c0.53,0.271,1.261,0.364,1.724-0.082c0.255-0.142,0.301-0.437,0.476-0.637c0.22,0.156,0.438,0.248,0.66,0.366
	c0.601,0.201,1.249-0.012,1.644-0.471c0.059-0.118,0.14-0.259,0.277-0.294C76.491,6.099,76.491,6.252,76.593,6.334L76.593,6.334z
	 M85.372,5.651c-0.024,0.259,0.173,0.637-0.175,0.766c-0.208,0.073-0.255,0.331-0.462,0.366C84.71,6.288,84.898,5.816,85.372,5.651
	L85.372,5.651z M68.105,5.899c0.128,0.211,0.254,0.553,0.14,0.801c-0.221-0.21-0.418-0.365-0.626-0.589
	c0.024-0.165-0.057-0.412,0.071-0.563C67.827,5.604,68.024,5.757,68.105,5.899L68.105,5.899z M86.495,5.38
	c0.149,0.471-0.347,0.624-0.221,1.084c-0.034,0.083-0.126,0.153-0.209,0.108c-0.08-0.426,0.034-0.945,0.326-1.204L86.495,5.38
	L86.495,5.38z M88.636,5.451c0.059,0.096-0.045,0.271,0.104,0.318c0.21-0.035,0.301-0.283,0.545-0.188
	c0.116,0.059,0.312,0.071,0.312,0.224c-0.08,0.095-0.253,0-0.275,0.141c0,0.201,0.218,0.201,0.323,0.318
	c0.15,0.153,0.324,0.309,0.357,0.519c-0.254,0.059-0.395-0.344-0.637-0.292c-0.056,0.045-0.032,0.151-0.021,0.21
	c0.253,0.377,0.787,0.448,0.938,0.929c-0.014,0.059,0.044,0.106,0,0.153c-0.313-0.095-0.463-0.364-0.743-0.481
	c-0.126,0.177,0.058,0.352,0.14,0.481c0.231,0.212,0.685,0.389,0.729,0.79c0.093,0.047,0.036,0.165,0.069,0.235
	c-0.173,0.071-0.287-0.176-0.427-0.259c-0.06-0.059-0.141-0.153-0.231-0.141c-0.175,0.234,0.114,0.379,0.22,0.566
	c0.486,0.212,0.287,0.894,0.427,1.353c0.163,1.214,0.083,2.602,0.638,3.652c0.218,0.459,0.568,0.928,0.893,1.389
	c0.115,0.221,0.347,0.402,0.369,0.695c0.324,0.93,0.418,1.955,1.32,2.543c0.313,0.164,0.752,0.129,1.066-0.059
	c0.439-0.26,0.566-0.756,0.591-1.262c-0.176-1.658-1.81-2.59-2.387-4.017c-0.311-0.575-0.428-1.457-0.163-2.115
	c0.093-0.099-0.021-0.226-0.033-0.333c0.012-0.224-0.034-0.471,0.104-0.636c0.081-0.047,0.093,0.094,0.197,0.071
	c0.186-0.176,0.012-0.563,0.313-0.587c0.057,0.071,0.08,0.177,0.196,0.153c0.127-0.094,0.081-0.259,0.163-0.365
	c0.195-0.13,0.406-0.33,0.648-0.248c0.185,0.413-0.21,0.601-0.417,0.837c0,0.068,0.056,0.068,0.092,0.127h0.152
	c0.068,0.177-0.117,0.248-0.221,0.33c-0.094,0.023-0.223,0.012-0.255,0.141c-0.059,0.165,0.277,0.153,0.115,0.342
	c-0.104,0.26-0.395,0.202-0.59,0.26c-0.082-0.024-0.141-0.047-0.223-0.024c-0.242,0.283-0.149,0.766-0.149,1.141
	c0.231,0.613,0.464,1.192,0.811,1.709c0.566,0.717,1.204,1.389,1.646,2.178c0.229,0.445,0.427,0.988,0.286,1.566
	c-0.148,0.623-0.601,1.107-1.227,1.236c-0.275,0.035-0.638,0.023-0.869-0.117c-0.647-0.201-0.888-0.85-1.064-1.449
	c-0.034-0.096-0.174-0.166-0.267-0.084c-0.206,0.402,0.093,0.803,0.117,1.227c0.139,0.516-0.383,0.834-0.197,1.4
	c0.151,0.236,0.069,0.578,0.323,0.719c0.163,0,0.348,0.047,0.361,0.236c0.114,0.516,0.186,1.082-0.129,1.516
	c-0.032,0.309-0.232,0.58-0.324,0.826c-0.255,0-0.509-0.023-0.752,0.061c-0.037-0.025-0.081-0.061-0.037-0.096
	c0-0.023-0.021-0.035-0.032-0.047c0.032-0.105-0.048-0.094-0.07-0.152c-0.288,0.152-0.207-0.283-0.476-0.305
	c-0.138-0.035-0.254,0.057-0.381,0.033c-0.093-0.068-0.242-0.117-0.257-0.248c0.487-0.129,0.952,0,1.391,0.154
	c0.105,0.025,0.188-0.094,0.221-0.176c0-0.084-0.012-0.189-0.081-0.227c-0.023-0.424,0.313-0.742,0.092-1.141
	c-0.532-0.494-1.075-0.928-1.573-1.438c-0.207-0.684-0.358-1.4-0.684-2.049c-0.069-0.211-0.175-0.447-0.197-0.695
	c-0.046-0.152-0.127-0.27-0.139-0.457c-0.174-0.307-0.117-0.719-0.312-1.014c-0.231-0.307-0.558-0.648-0.824-0.953
	c-0.137-0.258-0.334-0.447-0.415-0.719c-0.093-0.176-0.349-0.059-0.383-0.282c-0.059-0.19-0.048-0.448-0.243-0.473
	c-0.06,0.073-0.06,0.2-0.187,0.165c-0.116-0.269-0.311-0.505-0.276-0.846c-0.034-0.071-0.061-0.153-0.151-0.163
	c-0.023,0.057-0.08,0.104-0.149,0.104c-0.058-0.116-0.14-0.257-0.105-0.434c0.08-0.165,0.302-0.365,0.417-0.118
	c0.161-0.047,0.266-0.212,0.313-0.366c0.175-0.118,0.197-0.377,0.417-0.318c0,0.13,0.149,0.061,0.209,0.083
	c0.092-0.071,0.092-0.2,0.14-0.306l0.207-0.483c0.092-0.094,0.279,0,0.359-0.153c0.024-0.693,0.301-1.294,0.267-2.001
	c-0.048-0.071-0.162-0.129-0.242-0.082C88.22,8.3,88.369,8.631,88.277,8.807c-0.068,0.224-0.035,0.507-0.209,0.684
	c-0.078-0.023-0.16-0.094-0.229-0.071c-0.243,0.248-0.07,0.693-0.269,0.965c-0.104,0-0.092-0.165-0.229-0.141
	c-0.22,0.188-0.163,0.529-0.359,0.729c-0.152,0.071-0.115-0.188-0.289-0.117c-0.627,0.79-1.447,1.321-2.189,1.931
	c-0.279,0.177-0.405,0.435-0.394,0.79c-0.046,0.224-0.07,0.376-0.244,0.519c-0.184,0.059-0.232-0.143-0.359-0.236
	c0.047-0.353-0.544-0.52-0.162-0.872c0.045-0.141-0.012-0.342-0.035-0.495c-0.082-0.048-0.105-0.164-0.115-0.246
	c0.034-0.132,0.232-0.024,0.208-0.188c-0.083-0.224-0.127-0.472-0.012-0.707c-0.023-0.142-0.104-0.246-0.115-0.401
	c0.07-0.106,0.185-0.023,0.278,0.022c0.149,0.343,0.08,0.792,0.349,1.074c0.229,0.094,0.347-0.165,0.509-0.236
	c0.45-0.613,1.133-1.214,1.47-1.874c0.275-0.564,0.369-1.214,0.752-1.708c0.115-0.082,0.254-0.247,0.185-0.424
	c-0.185-0.127-0.289,0.083-0.438,0.118c-0.036-0.352,0.138-0.646,0.313-0.917c-0.025-0.071,0.034-0.188-0.069-0.2
	c-0.06,0.012-0.094,0.047-0.163,0.047c0.047-0.342,0.323-0.625,0.602-0.872c0.14-0.224-0.232-0.153-0.163-0.318
	c0.223-0.199,0.476-0.377,0.777-0.248C87.791,5.474,87.803,5.71,88,5.616c0.045-0.13,0.094-0.305,0.242-0.33
	C88.418,5.25,88.556,5.333,88.636,5.451L88.636,5.451z M66.96,5.816c0.058,0.201,0.117,0.554-0.046,0.684
	c-0.105-0.01-0.151-0.108-0.187-0.2c0.071-0.424-0.311-0.613-0.173-1.035C66.867,5.25,66.809,5.651,66.96,5.816L66.96,5.816z
	 M65.106,5.533c0.105-0.047,0.149-0.13,0.196-0.236c0.313-0.104,0.639,0,0.834,0.271c0.023,0.2-0.195,0.011-0.232,0.176l0.06,0.118
	C66.24,6.099,66.474,6.37,66.566,6.7c-0.07,0.083-0.267-0.106-0.244,0.106c-0.023,0.141,0.105,0.224,0.161,0.33
	c0.071,0.212,0.187,0.411,0.163,0.67c-0.173,0-0.219-0.177-0.406-0.188c-0.044,0.07-0.104,0.153-0.081,0.248
	c0.695,0.625,0.614,1.708,1.228,2.355c0.475,0.601,0.938,1.296,1.542,1.756c0.103,0.071,0.219-0.047,0.263-0.118
	c0.211-0.294,0.097-0.777,0.326-1.037c0.069,0.024,0.198-0.047,0.186,0.069c0.012,0.237-0.186,0.415-0.024,0.615
	c0.059,0.224-0.287,0.472,0.024,0.602c0.083,0,0.151,0.08,0.092,0.163c-0.126,0.118-0.172,0.318-0.172,0.518
	c0,0.189,0.195,0.307,0.125,0.507c-0.289,0.179-0.197,0.743-0.638,0.719c-0.253-0.26-0.182-0.696-0.31-1.026
	c-0.35-0.389-0.777-0.589-1.136-0.964c-0.291-0.095-0.394-0.448-0.686-0.554c-0.218-0.224-0.415-0.554-0.704-0.73
	c-0.174-0.047-0.14,0.234-0.3,0.082c-0.151-0.201-0.151-0.506-0.325-0.693c-0.151-0.061-0.244,0.339-0.313,0.021
	c-0.083-0.283,0.035-0.658-0.218-0.858l-0.223,0.059c-0.14-0.4-0.197-0.837-0.289-1.261c-0.046-0.023-0.094-0.047-0.163-0.035
	c-0.173,0.236-0.081,0.612-0.011,0.872c0.011,0.377,0.162,0.731,0.127,1.12c0.092,0.045,0.023,0.163,0.138,0.21
	c0.463-0.011,0.36,0.565,0.592,0.837c0.162,0.129,0.242-0.271,0.394-0.038c0.163,0.216,0.311,0.438,0.485,0.65
	c0.128-0.024,0.232-0.177,0.359-0.083c0.139,0.118,0.163,0.33,0.104,0.483c-0.058,0.059-0.058,0.163-0.151,0.117
	c-0.033-0.025-0.067-0.083-0.126-0.059c-0.139,0.165-0.081,0.398-0.161,0.599c-0.093,0.118-0.117,0.33-0.291,0.377l-0.171-0.153
	c-0.187,0.177-0.164,0.601-0.478,0.672c-0.391,0.834-1.494,1.541-1.562,2.566c-0.196,1.082-0.764,1.908-0.973,2.98
	c-0.069,0.314-0.266,0.563-0.475,0.799c-0.441,0.379-0.959,0.777-1.343,1.213c-0.092,0.426,0.347,0.742,0.104,1.105
	c-0.011,0.119-0.011,0.262,0.128,0.297c0.299-0.07,0.589-0.133,0.892-0.203c0.185,0.025,0.45-0.047,0.59,0.117
	c-0.186,0.379-0.557-0.035-0.777,0.238c-0.081,0.105-0.185,0.377-0.381,0.246c-0.035,0.096,0.023,0.248-0.117,0.271
	c-0.243-0.129-0.542-0.047-0.796-0.082c-0.049-0.047-0.049-0.141-0.117-0.201c-0.151-0.541-0.58-1.047-0.406-1.705l0.128-0.566
	c0.185-0.105,0.462-0.07,0.543-0.316c0.139-0.449,0.222-0.969,0-1.404c-0.324-0.41,0.106-0.811,0.083-1.248
	c0.013-0.141,0.116-0.342-0.023-0.471c-0.046-0.094-0.175-0.094-0.244-0.047c-0.243,0.365-0.266,0.895-0.589,1.201
	c-0.372,0.391-0.996,0.564-1.542,0.438c-0.519-0.059-0.869-0.578-1.03-0.99c-0.473-1.73,0.961-2.721,1.831-3.885
	c0.544-0.792,1.053-1.684,0.844-2.804c-0.174-0.341-0.509,0.024-0.764-0.224c-0.058-0.082-0.163-0.13-0.196-0.247
	c0.012-0.119,0.172-0.153,0.138-0.295c-0.197-0.118-0.498-0.153-0.463-0.459c0.094,0,0.208,0.025,0.266-0.057
	c-0.046-0.283-0.463-0.271-0.44-0.578c-0.012-0.118-0.092-0.4,0.14-0.33c0.231,0.059,0.415,0.13,0.543,0.318
	c0.046,0.13,0.094,0.248,0.209,0.318c0.058-0.023,0.092-0.071,0.105-0.129c0.147-0.095,0.196,0.059,0.244,0.165
	c0.044,0.106-0.037,0.271,0.066,0.363c0.092,0.059,0.151-0.106,0.243-0.035c0.128,0.225,0.105,0.519,0.025,0.754
	c-0.059,0.212,0.081,0.354,0.126,0.531c0.231,1.118-0.417,1.978-0.855,2.803c-0.335,0.375-0.615,0.693-0.881,1.117
	c-0.566,0.625-1.135,1.533-0.869,2.508c0.092,0.295,0.292,0.625,0.615,0.754c0.347,0.213,0.844,0.107,1.158-0.105
	c0.395-0.354,0.555-0.883,0.787-1.32c0.138-0.551,0.337-1.117,0.591-1.611c0.568-0.885,1.228-1.459,1.423-2.508
	c0.243-0.729,0.14-1.636,0.279-2.414l0.114-1.306c0.118-0.352,0.626-0.497,0.66-0.896c-0.058-0.106-0.139-0.083-0.219-0.035
	c-0.174,0.118-0.256,0.398-0.522,0.365c-0.044-0.754,0.975-0.73,1.021-1.435c-0.244-0.095-0.406,0.245-0.626,0.316
	c-0.045,0.012-0.116,0.073-0.195,0.047c0.035-0.257,0.218-0.434,0.394-0.599c0.242-0.083,0.485-0.236,0.59-0.483
	c-0.013-0.061,0.023-0.13-0.047-0.165c-0.22,0.082-0.359,0.238-0.591,0.32c-0.069-0.202,0.187-0.381,0.29-0.508
	c0.128-0.142,0.313-0.142,0.36-0.33c0.021-0.236-0.443-0.012-0.244-0.269c0.138-0.118,0.335-0.118,0.509-0.118
	c0.139,0.009,0.173,0.316,0.348,0.187C64.4,5.451,64.365,5.25,64.563,5.18c0.115-0.012,0.218-0.034,0.314,0.014
	C64.98,5.286,64.945,5.429,65.106,5.533L65.106,5.533z M87.444,4.993c-0.012,0.036-0.059,0.012-0.08,0.022l0.044-0.045L87.444,4.993
	L87.444,4.993z M73.56,5.981c0,0.153,0.012,0.318-0.071,0.422c-0.104,0.403-0.487,0.532-0.787,0.697
	c-0.684,0.106-1.227-0.307-1.552-0.849c-0.056-0.153-0.116-0.318-0.093-0.483c0.047-0.165,0.199-0.257,0.335-0.318
	c0.119,0,0.233,0.047,0.279,0.129c0.034,0.023,0,0.083,0.046,0.106c-0.034,0.059-0.104,0.201-0.207,0.095l-0.106-0.212
	c-0.174,0.059-0.137,0.318-0.093,0.459c0.128,0.472,0.592,0.813,1.043,0.908c0.404,0.059,0.646-0.259,0.89-0.509
	c0.151-0.292,0.012-0.634-0.069-0.929c-0.114-0.151-0.254-0.423-0.475-0.366c-0.114,0.132,0.14,0.306-0.126,0.297
	c-0.092-0.049-0.081-0.144-0.081-0.236c0.057-0.106,0.104-0.235,0.287-0.283C73.294,4.993,73.457,5.498,73.56,5.981L73.56,5.981z
	 M72.182,5.415c0.037,0.212,0.231,0.354,0.463,0.389c0.104-0.036,0.197-0.153,0.338-0.106c0.08,0.188,0.02,0.412-0.083,0.565
	c-0.118,0.14-0.313,0.248-0.509,0.271c-0.257,0.047-0.51-0.131-0.648-0.33c0.23-0.118,0.264-0.401,0.244-0.658
	c-0.025-0.25-0.418-0.354-0.244-0.636C71.904,5.075,72.182,5.146,72.182,5.415L72.182,5.415z M80.392,5.028
	c0.046,0.059,0.046,0.222,0,0.269c-0.057,0.118-0.186,0.141-0.289,0.118c-0.023-0.057-0.083-0.047-0.06-0.129
	c0.048-0.057,0.117-0.14,0.06-0.233c-0.292-0.13-0.417,0.198-0.602,0.377c-0.048,0.14-0.119,0.292-0.128,0.458
	c-0.06,0.2,0,0.413,0.128,0.54c0.265,0.332,0.705,0.58,1.168,0.474c0.324-0.071,0.66-0.283,0.764-0.601
	c0.091-0.153,0.172-0.354,0.117-0.565c-0.071-0.048-0.06-0.142-0.163-0.118c-0.068,0.059-0.209,0.294-0.3,0.083
	c-0.023-0.059-0.023-0.151,0.021-0.2c0.117-0.234,0.302-0.06,0.465-0.012c-0.023,0.071,0.046,0.142,0.092,0.212
	c0.023,0.247,0.036,0.53-0.07,0.754c-0.266,0.176-0.417,0.578-0.8,0.554c-0.438,0.083-0.948,0.071-1.285-0.236
	c-0.208-0.224-0.347-0.507-0.36-0.86c0.048-0.283,0.083-0.542,0.268-0.743c-0.013-0.245,0.313-0.28,0.487-0.375
	C80.092,4.816,80.335,4.804,80.392,5.028L80.392,5.028z M85.406,4.969c-0.011,0.342-0.373,0.389-0.557,0.578
	c-0.091,0.081-0.174,0.246-0.312,0.198c0.011-0.469,0.106-0.846,0.556-1.082c0-0.071,0.081-0.036,0.115-0.047
	C85.255,4.746,85.279,4.887,85.406,4.969L85.406,4.969z M68.488,5.663c-0.183,0.047-0.243-0.234-0.406-0.283
	c-0.173-0.104-0.36-0.234-0.463-0.411c0.036-0.165,0.268-0.2,0.199-0.436c0.056-0.048,0.116,0,0.161,0.035
	C68.385,4.84,68.477,5.167,68.488,5.663L68.488,5.663z M86.412,4.698c-0.104,0.389-0.381,0.66-0.647,0.917
	c-0.057-0.165-0.012-0.34,0.024-0.504c-0.011-0.036,0.068-0.13,0.081-0.177c0.067-0.188,0.149-0.436,0.393-0.519
	C86.438,4.38,86.357,4.604,86.412,4.698L86.412,4.698z M67.307,5.111c-0.012,0.117,0.025,0.283-0.035,0.387
	c-0.115,0-0.103-0.151-0.186-0.201c-0.197-0.234-0.521-0.469-0.405-0.882l0.069-0.118C67.121,4.392,67.157,4.804,67.307,5.111
	L67.307,5.111z M76.13,4.592c0.208,0.471,0.069,1.106-0.196,1.506c-0.278,0.366-0.708,0.483-1.159,0.474
	c-0.497-0.051-0.915-0.438-1.087-0.886c-0.06-0.117-0.024-0.248-0.048-0.339c-0.14-0.25,0.034-0.436,0.115-0.66
	c0.094-0.106,0.268-0.094,0.394-0.07c0.06,0.023,0.14,0.07,0.13,0.153c-0.061,0.059,0.01,0.189-0.13,0.212
	c-0.126,0-0.079-0.271-0.265-0.153c-0.035,0.047,0.022,0.118-0.058,0.153c-0.046,0.269,0.058,0.47,0.091,0.717
	c0.106,0.436,0.604,0.613,0.974,0.671c0.314,0.057,0.604-0.141,0.833-0.342c0.187-0.283,0.348-0.634,0.279-1
	c-0.036-0.212-0.08-0.519-0.347-0.636c-0.256,0.014,0.035,0.471-0.28,0.342c-0.091-0.071-0.091-0.26-0.056-0.389
	c0.056-0.094,0.149-0.104,0.255-0.153C75.818,4.241,76.003,4.392,76.13,4.592L76.13,4.592z M87.315,4.616
	c-0.138,0.188-0.334,0.294-0.509,0.471c-0.14,0.036-0.08-0.059-0.14-0.142c-0.022-0.389,0.279-0.601,0.569-0.768
	C87.374,4.225,87.328,4.474,87.315,4.616L87.315,4.616z M77.497,4.392c0.011,0.153-0.011,0.259-0.126,0.318
	c-0.105,0.036-0.164-0.035-0.151-0.129c-0.012-0.059,0.036-0.175-0.069-0.165c-0.163-0.047-0.266,0.13-0.336,0.235
	c-0.221,0.472-0.172,1.094,0.173,1.448c0.313,0.189,0.708,0.305,1.064,0.201c0.347-0.118,0.613-0.389,0.661-0.766
	c0.081-0.095,0.035-0.236,0.091-0.34c-0.022-0.201,0.083-0.483-0.194-0.577c-0.117,0.094-0.059,0.271-0.244,0.294
	c-0.071-0.023-0.117-0.071-0.151-0.142c0.081-0.118,0.059-0.248,0.184-0.318c0.163-0.012,0.266,0,0.405,0.059
	c0.314,0.236,0.292,0.565,0.232,0.871c-0.172,0.495-0.452,1.011-1.017,1.154c-0.613,0.142-1.091-0.118-1.403-0.565
	c-0.218-0.283-0.066-0.741-0.137-1.059c0.057-0.059,0.022-0.212,0.103-0.26c-0.023-0.2,0.197-0.354,0.358-0.436
	C77.114,4.086,77.463,4.143,77.497,4.392L77.497,4.392z M66.368,4.792c-0.057,0.071-0.011,0.222-0.149,0.142
	c-0.265-0.188-0.648-0.4-0.485-0.827c0.045-0.057,0.125-0.057,0.171-0.009C66.16,4.241,66.428,4.439,66.368,4.792L66.368,4.792z
	 M69.461,4.416c0.034,0.07,0.114,0.153,0.114,0.235c0.2,0.201,0.244,0.517,0.418,0.764c0.3,0.554,0.707,0.931,1.101,1.415
	c0.08,0.165-0.024,0.342,0.035,0.507c0.057,0.141,0.231,0.375,0.103,0.493c-0.369,0.036-0.729-0.212-1.066,0
	c-0.31-0.083-0.659,0.059-0.889,0.271c-0.21-0.059-0.325-0.177-0.465-0.33c0.083-0.375-0.137-0.764,0-1.106
	c0.094-0.01,0.151-0.083,0.151-0.175c-0.011-0.297-0.057-0.603-0.011-0.886c0.058-0.057,0.139-0.092,0.174-0.174
	c-0.014-0.318,0.023-0.683,0.035-1.037c0.16-0.024,0.104-0.238,0.116-0.342C69.332,4.168,69.424,4.263,69.461,4.416L69.461,4.416z
	 M70.527,4.297l-0.06,0.012c-0.046-0.059-0.046-0.224,0.022-0.295C70.571,4.086,70.537,4.215,70.527,4.297L70.527,4.297z
	 M83.831,3.979c0.104,0.188-0.209,0.401,0.071,0.519c0.022,0.471-0.094,0.896,0.195,1.212c0.022,0.129-0.046,0.247,0.012,0.376
	c-0.036,0.165-0.058,0.389-0.046,0.603c0.046,0.057,0.161,0.057,0.186,0.163c-0.117,0.483,0.184,1.153-0.431,1.33
	C83.6,8.147,83.438,7.936,83.205,7.9c-0.404,0.177-0.845-0.271-1.26,0c-0.117,0.023-0.313,0.059-0.371-0.094
	c0.149-0.328,0.393-0.623,0.335-1.035c0.209-0.344,0.534-0.542,0.707-0.908c0.174-0.177,0.162-0.412,0.347-0.577
	c0.277-0.387,0.465-0.858,0.775-1.306H83.831L83.831,3.979z M71.405,4.015c0.106,0.153,0.359,0.33,0.221,0.566h-0.071
	c-0.011-0.118-0.162-0.175-0.243-0.271v-0.33L71.405,4.015L71.405,4.015z M88.973,4.132h-0.117
	c-0.021-0.046-0.032-0.143,0.012-0.164C88.95,3.989,89.007,4.05,88.973,4.132L88.973,4.132z M81.4,4.225
	c0.091,0.261-0.278,0.426-0.244,0.638c0.069,0.294-0.347,0.365-0.395,0.587c-0.057,0.26,0,0.495,0.232,0.648l0.094,0.012
	c0.091,0.224-0.115,0.306-0.255,0.401c-0.325,0.083-0.729,0.036-0.972-0.177c-0.209-0.142-0.278-0.424-0.197-0.671
	c0.034-0.094,0.149-0.047,0.218-0.012c0.012,0.083,0.107,0.035,0.14,0.094c0.174,0.036,0.347-0.035,0.498-0.129l0.232-0.283
	c-0.149-0.352,0.231-0.458,0.371-0.682c0.081-0.223-0.095-0.626,0.186-0.683C81.515,3.85,81.4,4.154,81.4,4.225L81.4,4.225z
	 M82.372,4.098c-0.024,0.035-0.011,0.127-0.081,0.117c-0.024-0.108-0.059-0.226-0.024-0.318C82.347,3.921,82.335,4.025,82.372,4.098
	L82.372,4.098z M64.25,3.909c0,0.035,0,0.105-0.059,0.08h-0.056c-0.036-0.045,0-0.104,0.021-0.163
	C64.216,3.803,64.25,3.872,64.25,3.909L64.25,3.909z M85.313,3.85c0.059,0.059,0.012,0.153-0.024,0.212
	c-0.288,0.248-0.623,0.377-0.845,0.719h-0.069c-0.011-0.13-0.071-0.33,0.045-0.437c0.024-0.413,0.417-0.684,0.742-0.801
	C85.208,3.649,85.185,3.803,85.313,3.85L85.313,3.85z M68.639,4.107c-0.025,0.203,0.232,0.462,0,0.58
	c-0.105-0.012-0.105-0.165-0.22-0.224c-0.186-0.295-0.626-0.295-0.708-0.648c0.095-0.095,0.21-0.189,0.186-0.354
	C68.245,3.484,68.477,3.838,68.639,4.107L68.639,4.107z M86.309,3.768c-0.068,0.318-0.371,0.556-0.601,0.73
	c-0.186-0.13-0.014-0.366,0-0.554c0.091-0.259,0.335-0.377,0.532-0.53C86.368,3.461,86.285,3.649,86.309,3.768L86.309,3.768z
	 M87.13,3.461c0.048,0.2,0.012,0.424-0.184,0.528c-0.104,0.025-0.151,0.165-0.291,0.153c-0.058-0.21,0.022-0.458,0.117-0.646
	C86.855,3.438,87.062,3.249,87.13,3.461L87.13,3.461z M80.716,3.343c-0.046,0.106-0.104,0.177-0.229,0.224h-0.151
	c0.043-0.118,0.171-0.201,0.277-0.259C80.658,3.296,80.681,3.332,80.716,3.343L80.716,3.343z M67.401,3.979
	c0.045,0.127,0.057,0.271,0.022,0.413c-0.28-0.177-0.581-0.342-0.661-0.696c-0.012-0.117-0.069-0.306,0.046-0.388
	C67.063,3.438,67.401,3.649,67.401,3.979L67.401,3.979z M66.357,3.497c0.071,0.153,0.06,0.33,0.06,0.518
	c-0.188-0.025-0.349-0.165-0.475-0.306c-0.083-0.141-0.059-0.283,0-0.424C66.079,3.167,66.322,3.32,66.357,3.497L66.357,3.497z
	 M72.333,3.391c-0.173,0-0.383-0.083-0.452-0.283C72.042,3.19,72.298,3.167,72.333,3.391L72.333,3.391z M69.679,3.048
	c0.117,0.142,0.107,0.401,0.268,0.483c0.162-0.141-0.012-0.352,0.115-0.483c0.14,0.036,0.151,0.212,0.21,0.318
	c0,0.495-0.222,1.214,0.137,1.567c0.187-0.047,0.279-0.188,0.324-0.389c0.057-0.271-0.034-0.556,0.026-0.837
	c0.137,0.059,0.172,0.177,0.218,0.306c0.08,0.248-0.138,0.483,0,0.672c0.139-0.023,0.312,0,0.383,0.165
	c0.012,0.094,0.012,0.26-0.129,0.26c-0.29,0.068-0.429,0.41-0.51,0.669c-0.276-0.177-0.3-0.531-0.461-0.766
	c-0.383-0.387-0.383-1.153-0.788-1.624c-0.049-0.165-0.292-0.283-0.196-0.494C69.461,2.85,69.575,2.967,69.679,3.048L69.679,3.048z
	 M83.946,2.874c0.048,0.188-0.184,0.306-0.264,0.434c-0.163,0.259-0.326,0.4-0.477,0.671c-0.195,0.33-0.392,0.73-0.589,1.001
	c-0.093,0.269-0.325,0.566-0.487,0.835c-0.22,0.036-0.103-0.294-0.254-0.401c-0.011-0.235-0.555-0.387-0.289-0.646
	c0.128-0.023,0.254,0.059,0.313-0.083c-0.07-0.259-0.221-0.509-0.115-0.79c0.044-0.082,0.091-0.188,0.183-0.236l0.083,0.024
	c0,0.34-0.048,0.778,0.172,1.049c0.046,0.035,0.105,0.059,0.163,0.059c0.254-0.259,0.232-0.686,0.186-1.025
	c-0.082-0.2-0.186-0.401-0.011-0.587c0.068-0.026,0.115-0.096,0.209-0.072c0.125,0.059-0.094,0.259,0.103,0.306
	c0.208-0.047,0.174-0.306,0.359-0.366C83.438,2.933,83.692,2.85,83.946,2.874L83.946,2.874z M79.466,3.213l-0.072,0.012
	c-0.068-0.118-0.068-0.316,0-0.434C79.523,2.862,79.49,3.084,79.466,3.213L79.466,3.213z M85.44,2.732
	c-0.023,0.13-0.056,0.331-0.231,0.399c-0.299,0.13-0.602,0.354-0.905,0.53c-0.08-0.153,0.083-0.33,0.117-0.481
	C84.644,2.874,85.047,2.65,85.44,2.732L85.44,2.732z M73.213,3.048c-0.07-0.033-0.082-0.198-0.048-0.304l0.069-0.118
	C73.317,2.732,73.269,2.933,73.213,3.048L73.213,3.048z M68.639,3.084c0.044,0.141,0.172,0.306,0.127,0.483
	c-0.138-0.036-0.218-0.118-0.326-0.201c-0.275-0.259-0.75-0.282-0.81-0.717c0.196-0.106,0.417,0.023,0.615,0.082
	C68.396,2.827,68.559,2.933,68.639,3.084L68.639,3.084z M86.38,2.673L86.357,2.85c-0.151,0.234-0.42,0.446-0.675,0.493
	c-0.08-0.163,0.06-0.364,0.116-0.528C85.95,2.697,86.194,2.438,86.38,2.673L86.38,2.673z M87.085,2.662
	c0.013,0.188-0.07,0.354-0.197,0.469c-0.104,0.014-0.173,0.166-0.301,0.095c-0.046-0.293,0.14-0.517,0.312-0.682
	C86.981,2.521,87.085,2.567,87.085,2.662L87.085,2.662z M67.375,2.827c-0.012,0.14,0.083,0.258,0.048,0.387
	c-0.303,0-0.51-0.222-0.696-0.469c-0.057-0.035-0.021-0.118-0.034-0.177c0.058-0.07,0.115-0.094,0.185-0.106
	C67.121,2.473,67.236,2.673,67.375,2.827L67.375,2.827z M66.439,2.78c0.044,0.094,0.057,0.221,0.044,0.318
	c-0.01,0.047-0.126,0.047-0.161,0c-0.22-0.141-0.417-0.377-0.326-0.648c0.048-0.059,0.151-0.036,0.211-0.023
	C66.299,2.532,66.336,2.685,66.439,2.78L66.439,2.78z M77.183,2.391c0.083,0.142-0.056,0.224-0.092,0.318l-0.116,0.023
	C76.965,2.591,77.056,2.438,77.183,2.391L77.183,2.391z M76.003,2.744c0.024,0.094-0.08,0.071-0.127,0.047
	c-0.116-0.071-0.164-0.165-0.185-0.318c0.021-0.047,0.033-0.095,0.104-0.083C75.852,2.521,76.003,2.591,76.003,2.744L76.003,2.744z
	 M85.567,2.214c0.023,0.153-0.22,0.177-0.359,0.236c-0.219-0.023-0.427,0.118-0.671,0.118c-0.046-0.212,0.209-0.294,0.349-0.389
	c0.207-0.047,0.461,0,0.659,0L85.567,2.214L85.567,2.214z M68.559,2.378c0.01,0.048-0.024,0.095-0.071,0.083
	c-0.323-0.13-0.729-0.059-0.984-0.318c0-0.142,0.174-0.071,0.266-0.118C68.036,2.025,68.407,2.096,68.559,2.378L68.559,2.378z
	 M86.738,1.849c-0.104,0.117,0.021,0.376-0.187,0.424c-0.16-0.047-0.438,0.059-0.532-0.094c0.08-0.273,0.338-0.413,0.567-0.521
	C86.704,1.658,86.692,1.766,86.738,1.849L86.738,1.849z M87.396,1.766c0.036,0.118,0.012,0.259-0.068,0.365
	c-0.104,0.035-0.207,0.118-0.323,0.118c-0.059-0.2-0.07-0.508,0.08-0.636C87.225,1.577,87.341,1.658,87.396,1.766L87.396,1.766z
	 M67.04,1.99c0.023,0.059,0.023,0.2-0.091,0.176c-0.211-0.094-0.466,0.13-0.558-0.155c-0.012-0.14-0.069-0.364,0.048-0.446
	C66.693,1.613,66.914,1.741,67.04,1.99L67.04,1.99z M66.091,1.577c0.012,0.164,0.057,0.329,0.012,0.495
	c-0.138,0.083-0.253-0.047-0.369-0.082c-0.072-0.095-0.083-0.236-0.047-0.366C65.742,1.459,66.01,1.413,66.091,1.577L66.091,1.577z
	 M85.799,1.577c0.071-0.011,0.104,0.012,0.151,0.071c0.035,0.024,0.012,0.093-0.013,0.128c-0.335,0.144-0.729,0.014-1.039,0.047
	c-0.083-0.033-0.037-0.151,0.02-0.198c0.128-0.177,0.383-0.224,0.568-0.177C85.614,1.448,85.73,1.507,85.799,1.577L85.799,1.577z
	 M81.064,1.459v0.413c-0.047,0.259-0.452,0.354-0.302,0.636c0.174,0.024,0.292-0.318,0.417-0.094
	c-0.057,0.495-0.589,0.565-0.926,0.812c-0.149,0.212-0.393,0.366-0.29,0.66c0.255,0.104,0.524-0.047,0.753-0.141
	c0.209-0.153,0.289-0.401,0.44-0.599c0.103-0.014,0.14,0.104,0.151,0.187C81.296,3.708,80.866,3.85,80.67,4.05
	c-0.034,0.201,0.207,0.33,0.092,0.53c-0.011,0.094-0.126,0.106-0.207,0.118c-0.209-0.047-0.36-0.247-0.592-0.212
	c-0.254,0.012-0.452,0.165-0.671,0.224c-0.115-0.224-0.324-0.556-0.649-0.542c-0.103-0.025-0.115-0.143-0.125-0.224
	c-0.014-0.142,0.081-0.212,0.162-0.295c0.103-0.07,0.347,0.012,0.3-0.2c-0.046-0.212-0.197-0.422-0.115-0.669
	c0.058-0.118,0.103-0.307,0.254-0.283c0.046,0.212-0.071,0.412-0.022,0.648c0.138,0.187,0.149,0.54,0.474,0.516
	c0.29-0.33,0.126-0.87,0.081-1.247c-0.093-0.118-0.045-0.306,0.012-0.424c0.046-0.118,0.175-0.141,0.266-0.201
	c0.151,0.033,0.034,0.271,0.092,0.389c0.034,0.059,0.139,0.094,0.174,0.035c0.103-0.188,0.048-0.438,0.173-0.601
	c0.163-0.188,0.371-0.247,0.593-0.283L81.064,1.459L81.064,1.459z M88.892,1.389c0.163,0.177-0.14,0.542,0.197,0.589
	c0.313-0.012,0.695-0.072,0.902,0.188c0.023,0.153-0.115,0.165-0.14,0.283c0,0.188,0.188,0.33,0.117,0.53
	c-0.093,0.047-0.035,0.14-0.149,0.151c-0.28-0.023-0.51-0.222-0.813-0.151c-0.395,0.27-0.532,0.741-0.532,1.212
	c0.116,0.377,0.592,0.2,0.858,0.294c-0.012,0.036-0.048,0.13-0.115,0.13c-0.326-0.012-0.697,0.176-0.94-0.106
	c-0.196-0.222-0.092-0.625-0.092-0.918c0.115-0.472,0.384-0.8,0.67-1.142c0.024-0.248-0.172-0.401-0.149-0.639
	c-0.162-0.198-0.464,0-0.672,0.084c-0.058,0.071-0.207,0.106-0.15,0.248c0.197,0.106,0.441,0.13,0.591,0.235
	c-0.127,0.236-0.369,0.483-0.452,0.767c-0.16,0.339-0.254,0.74-0.184,1.152c0.081,0.224,0.229,0.424,0.357,0.59
	c-0.034,0.118-0.22,0.082-0.313,0.047c-0.115-0.071-0.256-0.071-0.313-0.224c0.128-0.386-0.148-0.721-0.08-1.119
	c0.022-0.225-0.254-0.425-0.082-0.646c0.104-0.236-0.104-0.648,0.199-0.766c0.184-0.212-0.095-0.531,0.161-0.684
	c0.337-0.071,0.638-0.189,0.983-0.189L88.892,1.389L88.892,1.389z M68.222,1.625c0.035,0.142-0.117,0.094-0.197,0.106
	c-0.303-0.094-0.661,0.119-0.904-0.118V1.531c0.255-0.095,0.534-0.283,0.789-0.188C68.001,1.448,68.165,1.507,68.222,1.625
	L68.222,1.625z M72.505,1.79c0.105,0.116-0.068,0.448,0.151,0.424c0.115-0.142,0.092-0.318,0.163-0.473
	c0.194,0.049,0.183,0.25,0.243,0.402c-0.14,0.413-0.303,1.002-0.048,1.424c0.06,0.024,0.163,0.082,0.22,0.012
	c0.198-0.307,0.36-0.696,0.289-1.153c0.06-0.059,0.165-0.012,0.221,0.023c0.185,0.153,0.185,0.424,0.127,0.648
	c-0.068,0.057-0.08,0.187-0.046,0.281c0.141,0.071,0.313,0.118,0.373,0.283c0.02,0.2,0.043,0.481-0.151,0.59
	c-0.198,0-0.383,0.094-0.524,0.235c-0.08,0.13-0.056,0.224-0.184,0.342c-0.185-0.071-0.348-0.201-0.568-0.201
	c-0.288,0.012-0.612,0.505-0.81,0.036c-0.149-0.271,0.231-0.375,0.117-0.638c-0.197-0.116-0.474-0.14-0.523-0.434
	c0.013-0.119-0.043-0.283,0.049-0.378c0.16,0.095,0.265,0.271,0.426,0.366c0.21,0.094,0.418,0.212,0.638,0.212
	c0.277-0.224-0.08-0.377-0.128-0.601c-0.241-0.198-0.542-0.398-0.833-0.528c-0.126-0.071-0.102-0.224-0.08-0.33
	c0.138-0.059,0.242,0.189,0.371,0.036c-0.059-0.248-0.362-0.377-0.243-0.709c0.081-0.127,0.069-0.328,0.195-0.398
	C72.193,1.342,72.437,1.554,72.505,1.79L72.505,1.79z M65.303,1.377c0.07,0.036,0.093,0.142,0.081,0.236
	c-0.196,0.426,0.429,0.542,0.232,0.966c0.035,0.188,0.138,0.469-0.01,0.634c-0.151,0.236,0.021,0.637-0.151,0.849
	c-0.035,0.283,0.034,0.601-0.242,0.73C65.121,4.852,65,4.828,64.897,4.828L64.84,4.746c0.312-0.295,0.463-0.721,0.383-1.179
	c-0.082-0.495-0.325-0.906-0.625-1.271c0.069-0.224,0.334-0.188,0.544-0.224c0.035-0.047,0.071-0.116,0.035-0.177
	c-0.207-0.177-0.418-0.342-0.706-0.318c-0.151,0.153-0.105,0.401-0.232,0.566c-0.047,0.248,0.185,0.33,0.244,0.507
	c0.299,0.387,0.487,0.917,0.395,1.493C64.806,4.31,64.7,4.439,64.551,4.51c-0.232-0.059-0.626,0.071-0.809-0.165
	c0.287-0.035,0.729,0.061,0.844-0.32c-0.012-0.458-0.116-0.905-0.463-1.198c-0.312-0.142-0.544,0.106-0.834,0.165
	c-0.127-0.059-0.161-0.177-0.197-0.318c0-0.165,0.256-0.295,0.116-0.495c-0.092-0.024-0.116-0.153-0.08-0.238
	c0.103-0.092,0.289-0.092,0.44-0.13c0.195-0.021,0.461,0.146,0.625-0.081c-0.012-0.083,0.025-0.165-0.035-0.224
	c0.047-0.118,0.023-0.283,0.163-0.33C64.688,1.189,64.98,1.26,65.303,1.377L65.303,1.377z M86.623,1.295
	c-0.012,0.118-0.105,0.118-0.199,0.153c-0.254-0.023-0.45-0.177-0.671-0.271c-0.07-0.13,0.036-0.189,0.129-0.212
	C86.206,0.896,86.495,1.07,86.623,1.295L86.623,1.295z M67.353,0.906l0.023,0.118c-0.289,0.082-0.602,0.483-0.892,0.188
	c0.047-0.177,0.254-0.341,0.466-0.365C67.086,0.847,67.236,0.835,67.353,0.906L67.353,0.906z M76.744,1.141
	c0.104,0.201-0.022,0.436-0.068,0.635l0.081,0.073c0.173-0.047,0.185-0.39,0.416-0.272c0.314,0.401-0.221,0.554-0.358,0.837
	c-0.129,0.201-0.244,0.46-0.221,0.717c0.092,0.142,0.231,0,0.348,0c0.174-0.13,0.336-0.304,0.466-0.458
	c0.01-0.106,0.08-0.224,0.102-0.342c0.035-0.035,0.081-0.012,0.118-0.023c0.114,0.153,0,0.33-0.011,0.483
	c-0.094,0.118-0.208,0.235-0.232,0.375c0.081,0.118,0.277,0.118,0.313,0.283c-0.014,0.165,0.034,0.342-0.081,0.46
	c-0.208,0.059-0.442-0.118-0.663-0.024c-0.127,0.083-0.358,0.069-0.392,0.257c-0.106,0.072-0.138,0.263-0.289,0.167
	c-0.115-0.155-0.243-0.32-0.43-0.365c-0.244-0.059-0.464,0.035-0.695,0.045C75.088,3.85,74.994,3.661,75.1,3.508
	c0.083-0.176,0.38-0.165,0.314-0.4c-0.244-0.093-0.256-0.352-0.269-0.576c0.037-0.154,0.105-0.283,0.221-0.366
	c0.129,0.212,0.059,0.542,0.277,0.73c0.163,0.118,0.336,0.34,0.58,0.283c0.161-0.271,0.035-0.613-0.093-0.849
	c-0.186-0.212-0.544-0.4-0.393-0.743c0.163,0.024,0.219,0.234,0.381,0.187c0.069-0.21-0.174-0.352-0.069-0.599
	c0.117-0.165,0.16-0.507,0.429-0.472C76.57,0.847,76.697,0.977,76.744,1.141L76.744,1.141z M87.374,1.141
	c-0.021,0.048-0.033,0.13-0.115,0.13c-0.313,0.035-0.544-0.259-0.672-0.483c-0.035-0.118,0.047-0.14,0.14-0.14
	C87.039,0.648,87.201,0.929,87.374,1.141L87.374,1.141z M87.827,0.788c0.022,0.094-0.036,0.188-0.117,0.2
	c-0.14,0.047-0.207-0.118-0.266-0.175c-0.012-0.083-0.07-0.201,0-0.261C87.596,0.59,87.71,0.66,87.827,0.788L87.827,0.788z
	 M66.483,0.578c0.035,0.236-0.218,0.399-0.405,0.517c-0.103,0.036-0.229,0.036-0.336,0.012c-0.044-0.188,0.174-0.328,0.268-0.481
	C66.147,0.566,66.336,0.507,66.483,0.578L66.483,0.578z M65.662,0.448c0.048,0.165-0.068,0.258-0.151,0.366
	c-0.056,0.034-0.137,0.068-0.208,0.034c-0.091-0.047-0.01-0.177,0-0.234C65.384,0.542,65.524,0.39,65.662,0.448L65.662,0.448z
	 M66.45,0.142C66.171-0.071,65.651,0,65.315,0.071c-0.139,0.118-0.395,0.236-0.417,0.436c-0.032,0.106-0.14,0.224-0.289,0.199
	c-0.198-0.093-0.463-0.093-0.672,0c-0.207,0.13-0.335,0.342-0.313,0.625c-0.336,0.236-0.938,0.036-1.041,0.565
	c-0.069,0.165,0.034,0.295,0.115,0.413c-0.091,0.377,0.06,0.707,0.243,0.976c0.314,0,0.348,0.389,0.661,0.365
	c0.115-0.118,0.023-0.341,0.141-0.459c0.114-0.059,0.275-0.023,0.335,0.106c0.091,0.247-0.221,0.377-0.28,0.589
	c-0.114,0.024-0.138-0.153-0.254-0.07c-0.103,0.188-0.299,0.292-0.219,0.565c0.047,0.118,0.126,0.259,0.255,0.318
	c0.151,0.153,0.395,0.083,0.544,0.236c0,0.059-0.058,0.118-0.106,0.163c-0.287-0.068-0.567,0.049-0.81,0.201
	c-0.163,0.236-0.509,0.389-0.302,0.73c-0.229,0.342-0.379,0.719-0.681,1.002c-0.141,0.235,0.323,0.201,0.139,0.47
	c0.057,0.389-0.475,0.483-0.198,0.836c0.059,0.366-0.37,0.661-0.138,0.99c0.034,0.894-0.07,1.625-0.103,2.532
	c0.033,1.165-0.663,2.108-1.195,2.921c-0.323,0.27-0.474,0.658-0.614,1.047c-0.066,0.283-0.172,0.578-0.231,0.859
	c-0.23,0.494-0.335,1.131-0.796,1.459c-0.326,0.154-0.686,0.037-0.929-0.211c-0.358-0.471-0.163-1.166,0.036-1.637
	c0.37-0.648,0.833-1.166,1.331-1.719c0.684-1.001,1.494-2.191,1.021-3.568c0.011-0.307,0.043-0.66,0.032-0.964
	c-0.138-0.318-0.22-0.802-0.658-0.813c-0.267-0.508-0.881-0.461-1.355-0.612c-0.116-0.014-0.23-0.059-0.336,0.035
	c-0.045,0.271-0.045,0.578,0,0.849c0.047,0.281,0.047,0.587,0.128,0.823c0.381,0.129,0.208,0.589,0.462,0.801
	c0.186,0.225,0.544,0.236,0.787,0.366c0.21,0.74-0.243,1.412-0.555,1.98c-1.007,1.257-2.455,2.435-2.212,4.294
	c0.14,0.438,0.313,0.861,0.684,1.156c0.568,0.41,1.39,0.586,2.072,0.305c0.197-0.021,0.326-0.305,0.545-0.199
	c0.207,0.316,0.207,0.729,0.126,1.105c-0.091,0.094-0.232,0.082-0.358,0.082c-0.116,0.012-0.15,0.121-0.199,0.203
	c-0.021,0.6-0.461,1.246-0.067,1.799c0.092,0.316,0.266,0.508,0.311,0.838c-0.136,0.117-0.368-0.012-0.554-0.012
	c-0.335-0.201-0.303-0.637-0.36-1.002c-0.114-0.398-0.557-0.588-0.927-0.695c-0.137-0.01-0.22-0.164-0.392-0.105
	c-0.14,0.34,0.023,0.764,0.232,1.059c0.023,0.084,0.231,0.107,0.126,0.234c-0.335,0.072-0.729,0.051-0.996,0.285
	c-0.06,0.059-0.08,0.141-0.046,0.225c0.346,0.246,0.649,0.68,1.158,0.68c0.196-0.021,0.37-0.15,0.464-0.314
	c0.069-0.049,0.137-0.061,0.195,0.012c0.012,0.082-0.009,0.164-0.08,0.188c-0.046,0.115-0.208,0.293-0.046,0.41
	c1.236,0.307,2.615,0.543,3.971,0.484c0.083,0.023,0.174,0.082,0.115,0.188c-0.138,0.129-0.287,0.236-0.347,0.4
	c-0.069,0.131,0.037,0.189,0.129,0.213c0.589-0.082,1.228,0.023,1.805-0.059c0.569-0.107,1.088-0.41,1.378-0.92
	c0.764-0.141,1.528-0.389,2.315-0.506c0.151,0.141-0.207,0.33-0.116,0.518c0.729,0.248,1.667,0.271,2.398-0.082
	c0.125-0.059,0.22-0.189,0.383-0.189c0.031,0.023,0.08,0.059,0.055,0.119c-0.195,0.234-0.602,0.318-0.638,0.684
	c0.151,0.164,0.465,0.176,0.686,0.188c0.427,0.178,0.962,0.082,1.388,0.082c0.278-0.035,0.532-0.234,0.801-0.354
	c0.092,0.098,0.034,0.248,0.045,0.377c0.128,0.213,0.197,0.461,0.463,0.543c0.208,0.117,0.383-0.059,0.579-0.094
	c0.278-0.072,0.51-0.166,0.789-0.271c0.207-0.094,0.207,0.141,0.336,0.236c0.137,0,0.242-0.059,0.357-0.084
	c0.291-0.188,0.522-0.4,0.845-0.553c0.349,0.223,0.649,0.59,1.113,0.637c0.103-0.047,0.103-0.213,0.219-0.248
	c0.464,0.164,0.926,0.318,1.425,0.412c0.127-0.059,0.289-0.152,0.372-0.248c0.243-0.188,0.057-0.518,0.254-0.719
	c0.671,0.578,1.726,0.473,2.523,0.33c0.127-0.082,0.347-0.012,0.396-0.199c0-0.178-0.175-0.225-0.244-0.365
	c-0.139-0.107-0.359-0.201-0.431-0.354c0.036-0.035,0.071-0.084,0.128-0.061c0.752,0.461,1.774,0.602,2.641,0.318
	c0.359-0.199-0.186-0.389-0.024-0.576c0.707,0.07,1.379,0.318,2.097,0.436c0.314,0.059,0.347,0.365,0.625,0.543
	c0.718,0.623,1.806,0.459,2.745,0.529c0.069,0,0.232,0.012,0.196-0.129c-0.081-0.26-0.299-0.342-0.381-0.59
	c0.021-0.023,0.046-0.059,0.082-0.07c0.646,0.07,1.351,0.035,2-0.094c0.649-0.072,1.275-0.248,1.937-0.367
	c0.242-0.223-0.163-0.4-0.06-0.668c0.22-0.07,0.243,0.221,0.405,0.305c0.578,0.223,0.937-0.328,1.368-0.588l0.021-0.105
	c-0.161-0.342-0.566-0.365-0.913-0.414c-0.049-0.033-0.174,0.016-0.151-0.104c0.324-0.262,0.476-0.674,0.451-1.107
	c-0.046-0.096-0.104-0.096-0.186-0.105c-0.405,0.188-0.959,0.256-1.146,0.729c-0.195,0.281,0,0.789-0.313,0.99
	c-0.229,0.023-0.451,0.223-0.671,0.117c-0.023-0.07-0.059-0.117,0.036-0.166c0.012-0.164,0.151-0.293,0.207-0.422
	c-0.012-0.098,0.081-0.107,0.047-0.215c0.37-0.494,0.081-1.188,0-1.74c0.034-0.438-0.509-0.119-0.603-0.428
	c-0.047-0.352-0.104-0.811,0.175-1.059c0.079-0.033,0.196,0,0.229,0.072l0.709,0.246c0.646,0.084,1.284-0.141,1.758-0.516
	c0.603-0.59,0.788-1.533,0.476-2.344c-0.325-0.848-0.891-1.52-1.46-2.225c-0.379-0.508-0.808-0.813-0.971-1.415
	c-0.257-0.354-0.257-0.87-0.243-1.271c0.046-0.118,0.197-0.13,0.325-0.118c0.287-0.035,0.474-0.271,0.624-0.47
	c0-0.32,0.277-0.473,0.382-0.756c-0.069-0.54,0.325-1.023,0.045-1.542c-0.403-0.049-0.82,0.106-1.214,0.2l-0.08,0.059
	c-0.279,0.035-0.231,0.46-0.545,0.401c-0.313,0.224-0.476,0.611-0.453,1.035c0.173,0.707-0.208,1.332-0.057,2.072
	c0.082,0.566,0.395,1.014,0.625,1.485c0.474,0.646,1.008,1.307,1.517,1.918c0.196,0.389,0.428,0.766,0.475,1.248
	c0,0.436-0.08,0.859-0.451,1.061c-0.197,0.059-0.477,0.082-0.684-0.023c-0.578-0.602-0.777-1.449-1.006-2.25
	c-0.313-1.037-1.122-1.684-1.472-2.646c-0.383-1.098-0.22-2.416-0.393-3.592c0.033-0.095-0.011-0.248,0.081-0.283
	c0.15-0.106-0.025-0.259-0.037-0.365C90.896,8.925,90.896,8.713,90.86,8.5c0.255-0.306-0.196-0.436-0.187-0.718
	c-0.034-0.165-0.068-0.411,0.15-0.47c0.012-0.188-0.185-0.224-0.265-0.377c-0.094-0.363-0.568-0.614-0.406-1.073L89.84,5.451
	c-0.207-0.318-0.658-0.07-0.89-0.283c0.022-0.28,0.371-0.153,0.51-0.304c0.173-0.094,0.299-0.247,0.311-0.471
	c0.024-0.224-0.206-0.285-0.289-0.448c-0.058,0.059-0.138,0.081-0.221,0.07c-0.057-0.177-0.254-0.306-0.242-0.507
	c0.022-0.082,0.091-0.2,0.199-0.2c0.299,0,0.147,0.353,0.275,0.507c0.175,0.035,0.291-0.154,0.383-0.248
	c0.358,0,0.429-0.437,0.532-0.693c-0.162-0.331,0.197-0.53,0.069-0.862c-0.173-0.281-0.532-0.423-0.881-0.446
	c-0.207-0.094-0.069-0.377-0.195-0.519c-0.255-0.342-0.707-0.234-1.076-0.188C88.242,0.823,88.22,0.731,88.22,0.66
	c-0.229-0.53-0.823-0.519-1.354-0.519c-0.188,0.2-0.498,0.106-0.753,0.153c-0.21,0.012-0.128,0.212-0.268,0.318
	c-0.359,0-0.613,0.234-0.927,0.352c0.023,0.105-0.032,0.153-0.081,0.247c-0.347,0.154-0.426,0.542-0.682,0.778l0.021,0.354
	c-0.068,0.129-0.231,0.153-0.381,0.129c-0.336-0.083-0.568,0.318-0.904,0.142c-0.313,0.023-0.66,0.235-0.764,0.552
	c-0.172,0.094-0.334,0.259-0.497,0.377c-0.026-0.177-0.093-0.33-0.058-0.528c-0.232-0.271,0.081-0.518-0.023-0.836
	c-0.092-0.472,0.023-1.073-0.348-1.391c-0.29,0.035-0.51,0.236-0.788,0.306c-0.22,0.437-0.821,0.188-0.996,0.646
	c-0.208,0.391-0.892,0.426-0.892,0.956c-0.117,0.187,0.023,0.388,0,0.6c-0.253,0.211-0.393,0.542-0.324,0.881
	c-0.068,0.238-0.267,0.473-0.208,0.733c0.035,0.235,0.313,0.247,0.475,0.375c0.047,0.226-0.14,0.389-0.267,0.566
	c-0.208,0.118-0.486,0.2-0.74,0.118C77.139,5.804,77,5.486,76.94,5.132c-0.021-0.281,0.291-0.092,0.405-0.104
	c0.162,0.035,0.313-0.059,0.394-0.2c0.116-0.118,0.081-0.365,0.035-0.519c0.022-0.295,0.406-0.438,0.277-0.813
	c-0.357-0.47,0.222-0.906-0.116-1.389C77.52,1.79,77.566,1.2,77.068,0.941c-0.057-0.317-0.383-0.494-0.519-0.753
	c-0.351,0-0.478,0.401-0.732,0.555c-0.139,0.222-0.243,0.504-0.452,0.634c0.01,0.33-0.266,0.459-0.427,0.648
	c-0.232,0.306-0.2,0.801-0.036,1.12c-0.115,0.246-0.266,0.563-0.127,0.87c0.312,0.177,0.093,0.66,0.347,0.896
	c0.141,0.177,0.358,0.142,0.557,0.153c0.149,0.116-0.022,0.295,0,0.448c-0.174,0.269-0.497,0.516-0.857,0.493
	c-0.278-0.035-0.521-0.259-0.684-0.471c-0.141-0.257,0.197-0.187,0.302-0.283c0.139-0.187,0.147-0.304,0.139-0.54
	c-0.232-0.212-0.047-0.567-0.023-0.801c0.046-0.189-0.06-0.377-0.092-0.542c-0.488-0.177-0.083-0.834-0.417-1.106
	c-0.13-0.294-0.464-0.235-0.684-0.389c-0.07-0.318-0.393-0.554-0.707-0.625c-0.22-0.2-0.498-0.342-0.718-0.504
	c-0.114-0.061-0.254,0.01-0.303,0.127c-0.067,0.353-0.263,0.636-0.263,1.025c-0.383,0.365,0.128,0.836-0.116,1.212
	c-0.036,0.2,0.033,0.424-0.106,0.542c-0.137-0.2-0.288-0.4-0.509-0.483c-0.185-0.036-0.22-0.234-0.313-0.352
	c-0.229-0.294-0.67-0.106-0.936-0.354c-0.128-0.071-0.326,0.012-0.441-0.118c-0.058-0.071-0.058-0.153,0-0.212
	c0.058-0.19-0.068-0.282-0.197-0.365c-0.092-0.354-0.532-0.554-0.613-0.919c-0.314-0.142-0.603-0.34-0.95-0.399
	c-0.011-0.094-0.034-0.177-0.105-0.235L66.45,0.142L66.45,0.142z M78.577,16.911c-1.128,0-2.043,0.916-2.043,2.043
	c0,1.129,0.915,2.043,2.043,2.043c1.128,0,2.043-0.914,2.043-2.043C80.62,17.827,79.705,16.911,78.577,16.911L78.577,16.911z"/>
</svg>
