<?xml version="1.0" encoding="UTF-8" standalone="no"?>
<!-- Created with Inkscape (http://www.inkscape.org/) -->
<svg
   xmlns:dc="http://purl.org/dc/elements/1.1/"
   xmlns:cc="http://creativecommons.org/ns#"
   xmlns:rdf="http://www.w3.org/1999/02/22-rdf-syntax-ns#"
   xmlns:svg="http://www.w3.org/2000/svg"
   xmlns="http://www.w3.org/2000/svg"
   xmlns:sodipodi="http://sodipodi.sourceforge.net/DTD/sodipodi-0.dtd"
   xmlns:inkscape="http://www.inkscape.org/namespaces/inkscape"
   id="svg2"
   sodipodi:version="0.32"
   inkscape:version="0.46"
   width="92.392258"
   height="84.554665"
   xml:space="preserve"
   sodipodi:docname="linode.svg"
   version="1.0"
   style="display:inline"
   inkscape:output_extension="org.inkscape.output.svg.inkscape"><metadata
     id="metadata7"><rdf:RDF><cc:Work
         rdf:about=""><dc:format>image/svg+xml</dc:format><dc:type
           rdf:resource="http://purl.org/dc/dcmitype/StillImage" /></cc:Work></rdf:RDF></metadata><defs
     id="defs5"><inkscape:perspective
   sodipodi:type="inkscape:persp3d"
   inkscape:vp_x="0 : 526.18109 : 1"
   inkscape:vp_y="0 : 1000 : 0"
   inkscape:vp_z="744.09448 : 526.18109 : 1"
   inkscape:persp3d-origin="372.04724 : 350.78739 : 1"
   id="perspective9" /><inkscape:perspective
   id="perspective2587"
   inkscape:persp3d-origin="360 : 240 : 1"
   inkscape:vp_z="720 : 360 : 1"
   inkscape:vp_y="0 : 1000 : 0"
   inkscape:vp_x="0 : 360 : 1"
   sodipodi:type="inkscape:persp3d" /><inkscape:perspective
   id="perspective2731"
   inkscape:persp3d-origin="372.04724 : 350.78739 : 1"
   inkscape:vp_z="744.09448 : 526.18109 : 1"
   inkscape:vp_y="0 : 1000 : 0"
   inkscape:vp_x="0 : 526.18109 : 1"
   sodipodi:type="inkscape:persp3d" />



































</defs><sodipodi:namedview
     inkscape:cy="42.277333"
     inkscape:cx="46.19613"
     inkscape:zoom="5.8423743"
     inkscape:window-height="711"
     inkscape:window-width="1103"
     inkscape:pageshadow="2"
     inkscape:pageopacity="0.0"
     guidetolerance="10.0"
     gridtolerance="10.0"
     objecttolerance="10.0"
     borderopacity="1.0"
     bordercolor="#666666"
     pagecolor="#ffffff"
     id="base"
     showgrid="false"
     inkscape:window-x="0"
     inkscape:window-y="42"
     inkscape:current-layer="layer1" /><g
     inkscape:groupmode="layer"
     id="layer1"
     inkscape:label="vector"
     style="display:inline"
     transform="translate(-122.73319,-55.57471)"><g
       id="g2790"
       transform="matrix(0.3074527,0,0,-0.3074527,6.3974475,235.81559)"><path
         style="font-style:normal;font-variant:normal;font-weight:normal;font-stretch:normal;letter-spacing:normal;word-spacing:normal;text-anchor:start;fill:#060808;fill-opacity:1;fill-rule:nonzero;stroke:#060808;stroke-width:0;stroke-linecap:butt;stroke-linejoin:miter;stroke-miterlimit:10.43299961;stroke-dasharray:none;stroke-dashoffset:0;stroke-opacity:1"
         d="M 378.38582,355.34745 L 385.6491,357.08251 L 385.6491,322.15036 C 385.6491,318.3192 386.79071,316.03453 389.07537,315.30367 C 387.94985,313.16372 386.03207,312.08935 383.31912,312.08935 C 380.03026,312.08935 378.38582,314.37402 378.38582,318.94189 L 378.38582,355.34745 z"
         id="path2512" /><path
         style="font-style:normal;font-variant:normal;font-weight:normal;font-stretch:normal;letter-spacing:normal;word-spacing:normal;text-anchor:start;fill:#060808;fill-opacity:1;fill-rule:nonzero;stroke:#060808;stroke-width:0;stroke-linecap:butt;stroke-linejoin:miter;stroke-miterlimit:10.43299961;stroke-dasharray:none;stroke-dashoffset:0;stroke-opacity:1"
         d="M 400.34084,355.75819 L 400.449,355.75673 L 400.55571,355.75381 L 400.66241,355.74796 L 400.76766,355.73919 L 400.87144,355.72896 L 400.97522,355.7158 L 401.07754,355.69973 L 401.1784,355.68219 L 401.27926,355.66172 L 401.37866,355.63833 L 401.47659,355.61348 L 401.57453,355.58571 L 401.671,355.55502 L 401.76601,355.52286 L 401.86102,355.48778 L 401.95457,355.45123 L 402.04666,355.41177 L 402.13875,355.36938 L 402.22791,355.32553 L 402.31854,355.27875 L 402.40624,355.22905 L 402.49395,355.17789 L 402.58019,355.12381 L 402.66643,355.0668 L 402.75121,355.00833 L 402.83453,354.94694 L 402.91785,354.88409 L 402.99824,354.81831 L 403.07864,354.74961 L 403.15903,354.67945 L 403.23796,354.60636 L 403.31543,354.53035 C 404.13107,353.70887 404.54328,352.7149 404.54328,351.55575 C 404.54328,350.39661 404.13107,349.40849 403.31543,348.587 C 402.49249,347.76406 401.49998,347.35331 400.34084,347.35331 C 399.18169,347.35331 398.19357,347.76406 397.37062,348.587 C 396.54914,349.40849 396.1384,350.39661 396.1384,351.55575 C 396.1384,352.7149 396.54914,353.70887 397.37062,354.53035 C 398.19357,355.34745 399.18169,355.75819 400.34084,355.75819 z"
         id="path2514" /><polygon
         transform="matrix(1.4617185,0,0,1.4617185,293.001,294.62328)"
         style="font-style:normal;font-variant:normal;font-weight:normal;font-stretch:normal;letter-spacing:normal;word-spacing:normal;text-anchor:start;fill:#060808;fill-opacity:1;fill-rule:nonzero;stroke:#060808;stroke-width:0;stroke-linecap:butt;stroke-linejoin:miter;stroke-miterlimit:10.43299961;stroke-dasharray:none;stroke-dashoffset:0;stroke-opacity:1"
         points="70.871,12.356 70.871,29.543 68.152,29.543 68.152,33.605 75.902,33.605 75.902,12.356 70.871,12.356 "
         id="polygon2516" /><path
         style="font-style:normal;font-variant:normal;font-weight:normal;font-stretch:normal;letter-spacing:normal;word-spacing:normal;text-anchor:start;fill:#060808;fill-opacity:1;fill-rule:nonzero;stroke:#060808;stroke-width:0;stroke-linecap:butt;stroke-linejoin:miter;stroke-miterlimit:10.43299961;stroke-dasharray:none;stroke-dashoffset:0;stroke-opacity:1"
         d="M 432.4124,312.68427 L 432.4124,330.63564 C 432.4124,333.28427 431.90372,335.21959 430.88783,336.43574 C 429.87194,337.65773 428.21581,338.26289 425.90922,338.26289 C 424.84655,338.26289 423.71079,337.96616 422.50049,337.36685 C 421.29019,336.76755 420.34738,336.02499 419.66768,335.13481 L 419.66768,312.68427 L 412.40586,312.68427 L 412.40586,343.74433 L 417.63589,343.74433 L 418.9719,340.84428 C 420.94668,343.17426 423.85843,344.33925 427.71298,344.33925 C 431.4082,344.33925 434.32579,343.23711 436.46575,341.02115 C 438.60716,338.80665 439.66983,335.71657 439.66983,331.74801 L 439.66983,312.68427 L 432.4124,312.68427 z"
         id="path2518" /><path
         id="path2520"
         style="font-style:normal;font-variant:normal;font-weight:normal;font-stretch:normal;letter-spacing:normal;word-spacing:normal;text-anchor:start;fill:#060808;fill-opacity:1;fill-rule:nonzero;stroke:#060808;stroke-width:0;stroke-linecap:butt;stroke-linejoin:miter;stroke-miterlimit:10.43299961;stroke-dasharray:none;stroke-dashoffset:0;stroke-opacity:1"
         d="M 452.97147,328.28812 L 452.98609,327.65666 L 453.00071,327.04566 L 453.04456,326.45512 L 453.08841,325.88359 L 453.14688,325.33252 L 453.23458,324.80192 L 453.32229,324.29032 L 453.43922,323.79918 L 453.55616,323.32851 L 453.70233,322.8783 L 453.8485,322.44709 L 454.00929,322.03635 L 454.19932,321.64461 L 454.38934,321.27479 L 454.59398,320.92398 L 454.82786,320.59363 L 455.06173,320.28229 L 455.31022,319.9914 L 455.58795,319.72099 L 455.86568,319.47103 L 456.15802,319.24008 L 456.4796,319.02959 L 456.80118,318.83957 L 457.13737,318.66855 L 457.5028,318.51945 L 457.86823,318.3879 L 458.24828,318.27827 L 458.64294,318.18764 L 459.06684,318.11748 L 459.49074,318.06778 L 459.92925,318.03855 L 460.38239,318.02832 C 462.64805,318.02832 464.44596,318.9185 465.77613,320.69449 C 467.10629,322.47048 467.77868,325.0051 467.77868,328.28812 C 467.77868,335.03249 465.30838,338.40029 460.38239,338.40029 C 458.11672,338.40029 456.31881,337.51595 454.97403,335.73996 C 453.64386,333.95812 452.97147,331.47467 452.97147,328.28812 z M 445.44362,328.28812 L 445.44362,328.72956 L 445.45824,329.16661 L 445.47286,329.59782 L 445.50209,330.02464 L 445.53133,330.44562 L 445.57518,330.86221 L 445.63365,331.27295 L 445.69211,331.67931 L 445.7652,332.07982 L 445.83829,332.47448 L 445.92599,332.86622 L 446.01369,333.25065 L 446.11601,333.6307 L 446.21833,334.00636 L 446.33527,334.37618 L 446.46683,334.74014 L 446.59838,335.09973 L 446.72993,335.45492 L 446.87611,335.80428 L 447.0369,336.14778 L 447.19768,336.4869 L 447.37309,336.82017 L 447.56311,337.14906 L 447.73852,337.4721 L 447.94316,337.79075 L 448.1478,338.10356 L 448.35244,338.41198 L 448.5717,338.71456 L 448.80557,339.01275 L 449.03945,339.30509 L 449.28794,339.59159 L 449.53643,339.8737 C 452.28446,342.8483 455.89491,344.33925 460.38239,344.33925 C 465.10374,344.33925 468.77265,342.91115 471.38913,340.04472 C 474.0056,337.17829 475.30653,333.26235 475.30653,328.28812 C 475.30653,323.33289 473.97637,319.39795 471.31604,316.47451 C 468.65571,313.55107 465.01603,312.08935 460.38239,312.08935 C 455.66103,312.08935 451.99212,313.56861 449.37565,316.52128 C 446.74455,319.47249 445.44362,323.39575 445.44362,328.28812 z" /><path
         id="path2524"
         style="font-style:normal;font-variant:normal;font-weight:normal;font-stretch:normal;letter-spacing:normal;word-spacing:normal;text-anchor:start;fill:#060808;fill-opacity:1;fill-rule:nonzero;stroke:#060808;stroke-width:0;stroke-linecap:butt;stroke-linejoin:miter;stroke-miterlimit:10.43299961;stroke-dasharray:none;stroke-dashoffset:0;stroke-opacity:1"
         d="M 501.07663,336.31588 L 500.7989,336.54098 L 500.50656,336.75147 L 500.1996,336.94734 L 499.90725,337.12859 L 499.61491,337.29523 L 499.30795,337.44871 L 499.01561,337.58611 L 498.70864,337.70889 L 498.4163,337.81706 L 498.10934,337.91207 L 497.80238,337.99101 L 497.49542,338.05678 L 497.17384,338.10648 L 496.86688,338.14302 L 496.55992,338.16495 L 496.23834,338.17226 C 493.34414,338.17226 491.10771,337.2923 489.54367,335.51778 C 487.97963,333.74764 487.1903,331.21156 487.1903,327.90076 C 487.1903,321.44289 490.30376,318.21103 496.53068,318.21103 C 497.21769,318.21103 498.08011,318.42152 499.10331,318.83811 C 500.11189,319.25031 500.78428,319.67275 501.07663,320.10103 L 501.07663,336.31588 z M 501.07663,312.68427 L 501.07663,314.57281 C 500.49194,313.91066 499.46874,313.33474 498.03625,312.83775 C 496.60377,312.34077 495.12743,312.08935 493.60725,312.08935 C 489.28056,312.08935 485.87476,313.46629 483.38983,316.2114 C 480.90491,318.95797 479.66245,322.7906 479.66245,327.70635 C 479.66245,332.62211 481.08032,336.6243 483.93067,339.71437 C 486.78102,342.79714 490.36223,344.33925 494.64507,344.33925 C 496.99843,344.33925 499.14716,343.85981 501.07663,342.88922 L 501.07663,355.34745 L 508.34137,357.08251 L 508.34137,312.68427 L 501.07663,312.68427 z" /><path
         id="path2528"
         style="font-style:normal;font-variant:normal;font-weight:normal;font-stretch:normal;letter-spacing:normal;word-spacing:normal;text-anchor:start;fill:#060808;fill-opacity:1;fill-rule:nonzero;stroke:#060808;stroke-width:0;stroke-linecap:butt;stroke-linejoin:miter;stroke-miterlimit:10.43299961;stroke-dasharray:none;stroke-dashoffset:0;stroke-opacity:1"
         d="M 521.42375,331.41181 L 536.68409,331.41181 C 536.17249,335.97968 533.67295,338.26289 529.14162,338.26289 C 525.00496,338.26289 522.43234,335.97968 521.42375,331.41181 z M 543.33491,325.97568 L 521.14602,325.97568 C 521.2922,323.50976 522.13999,321.59052 523.70403,320.22089 C 525.26807,318.8498 527.37294,318.16426 530.03327,318.16426 C 533.33676,318.16426 535.85091,319.02082 537.56112,320.72226 L 540.38224,315.19551 C 537.82423,313.12864 534.02376,312.08935 528.9516,312.08935 C 524.21563,312.08935 520.45902,313.47653 517.71099,316.25818 C 514.94834,319.03252 513.57432,322.91046 513.57432,327.88322 C 513.57432,332.77706 515.07989,336.74416 518.10565,339.78307 C 521.13141,342.82052 524.77109,344.33925 528.99545,344.33925 C 533.51216,344.33925 537.12261,342.99739 539.85602,340.30198 C 542.57482,337.61242 543.94883,334.18031 543.94883,330.01879 C 543.94883,329.12715 543.74419,327.7809 543.33491,325.97568 z" /><path
         style="font-style:normal;font-variant:normal;font-weight:normal;font-stretch:normal;letter-spacing:normal;word-spacing:normal;text-anchor:start;fill:#90a4a3;fill-opacity:1;fill-rule:nonzero;stroke:#90a4a3;stroke-width:0;stroke-linecap:butt;stroke-linejoin:miter;stroke-miterlimit:10.43299961;stroke-dasharray:none;stroke-dashoffset:0;stroke-opacity:1"
         d="M 550.92123,316.46866 L 550.92123,316.6046 L 550.92123,316.73908 L 550.93585,316.87064 L 550.95046,317.00219 L 550.95046,317.13228 L 550.9797,317.26091 L 550.99432,317.38955 L 551.00893,317.51525 L 551.03817,317.6395 L 551.0674,317.76375 L 551.09664,317.88653 L 551.14049,318.00785 L 551.16972,318.12771 L 551.21357,318.24611 L 551.25742,318.36305 L 551.30128,318.47853 L 551.34513,318.594 L 551.4036,318.70655 L 551.46207,318.81911 L 551.52053,318.9302 L 551.579,319.03983 L 551.63747,319.14799 L 551.71056,319.25616 L 551.78364,319.3614 L 551.85673,319.46665 L 551.92982,319.56897 L 552.0029,319.67129 L 552.0906,319.77215 L 552.17831,319.87154 L 552.26601,319.97094 L 552.35371,320.06741 L 552.44142,320.16389 C 553.46462,321.17393 554.69246,321.68261 556.15418,321.68261 C 557.60128,321.68261 558.82913,321.17393 559.85233,320.16389 C 560.87553,319.14653 561.37252,317.92015 561.37252,316.46866 C 561.37252,315.01864 560.87553,313.78056 559.85233,312.75736 C 558.82913,311.73562 557.60128,311.22256 556.15418,311.22256 C 554.69246,311.22256 553.46462,311.73562 552.44142,312.75736 C 551.43283,313.78056 550.92123,315.01864 550.92123,316.46866 z"
         id="path2532" /><path
         style="font-style:normal;font-variant:normal;font-weight:normal;font-stretch:normal;letter-spacing:normal;word-spacing:normal;text-anchor:start;fill:#90a4a3;fill-opacity:1;fill-rule:nonzero;stroke:#90a4a3;stroke-width:0;stroke-linecap:butt;stroke-linejoin:miter;stroke-miterlimit:10.43299961;stroke-dasharray:none;stroke-dashoffset:0;stroke-opacity:1"
         d="M 595.94216,341.27841 L 592.84332,335.84228 C 591.13311,337.45894 588.85282,338.26289 585.98786,338.26289 C 583.23983,338.26289 581.06186,337.34931 579.46859,335.52216 C 577.87532,333.69502 577.08599,331.17209 577.08599,327.94023 C 577.08599,321.42535 580.18483,318.16426 586.39714,318.16426 C 589.0867,318.16426 591.45468,319.05006 593.50109,320.81435 L 596.17603,315.10488 C 594.05654,313.79079 592.22939,312.96346 590.65074,312.61557 C 589.07208,312.26622 587.2157,312.08935 585.06697,312.08935 C 580.27254,312.08935 576.48669,313.48822 573.70942,316.28595 C 570.93216,319.08368 569.54352,322.96746 569.54352,327.94023 C 569.54352,332.83991 571.06371,336.79678 574.08947,339.81085 C 577.12984,342.83076 581.26651,344.33925 586.51407,344.33925 C 590.12452,344.33925 593.28183,343.32189 595.94216,341.27841 z"
         id="path2534" /><path
         id="path2536"
         style="font-style:normal;font-variant:normal;font-weight:normal;font-stretch:normal;letter-spacing:normal;word-spacing:normal;text-anchor:start;fill:#90a4a3;fill-opacity:1;fill-rule:nonzero;stroke:#90a4a3;stroke-width:0;stroke-linecap:butt;stroke-linejoin:miter;stroke-miterlimit:10.43299961;stroke-dasharray:none;stroke-dashoffset:0;stroke-opacity:1"
         d="M 607.48974,328.28812 L 607.48974,327.65666 L 607.51897,327.04566 L 607.5482,326.45512 L 607.60667,325.88359 L 607.66514,325.33252 L 607.75284,324.80192 L 607.84055,324.29032 L 607.95749,323.79918 L 608.07442,323.32851 L 608.20598,322.8783 L 608.36677,322.44709 L 608.52756,322.03635 L 608.71758,321.64461 L 608.9076,321.27479 L 609.11224,320.92398 L 609.34612,320.59363 L 609.57999,320.28229 L 609.82848,319.9914 L 610.10621,319.72099 L 610.38394,319.47103 L 610.67628,319.24008 L 610.99786,319.02959 L 611.31944,318.83957 L 611.65563,318.66855 L 612.02106,318.51945 L 612.38649,318.3879 L 612.76654,318.27827 L 613.1612,318.18764 L 613.5851,318.11748 L 614.009,318.06778 L 614.44752,318.03855 L 614.90065,318.02832 C 617.16631,318.02832 618.96423,318.9185 620.29439,320.69449 C 621.62455,322.47048 622.28233,325.0051 622.28233,328.28812 C 622.28233,335.03249 619.82664,338.40029 614.90065,338.40029 C 612.63498,338.40029 610.83707,337.51595 609.49229,335.73996 C 608.16213,333.95812 607.48974,331.47467 607.48974,328.28812 z M 599.94727,328.28812 L 599.94727,328.72956 L 599.96188,329.16661 L 599.99112,329.59782 L 600.02035,330.02464 L 600.04959,330.44562 L 600.09344,330.86221 L 600.15191,331.27295 L 600.21038,331.67931 L 600.26885,332.07982 L 600.35655,332.47448 L 600.42963,332.86622 L 600.53196,333.25065 L 600.63428,333.6307 L 600.7366,334.00636 L 600.85353,334.37618 L 600.98509,334.74014 L 601.11664,335.09973 L 601.2482,335.45492 L 601.39437,335.80428 L 601.55516,336.14778 L 601.71595,336.4869 L 601.89135,336.82017 L 602.08138,337.14906 L 602.25678,337.4721 L 602.46142,337.79075 L 602.66606,338.10356 L 602.8707,338.41198 L 603.10458,338.71456 L 603.32384,339.01275 L 603.55771,339.30509 L 603.8062,339.59159 L 604.0547,339.8737 C 606.80273,342.8483 610.41317,344.33925 614.90065,344.33925 C 619.622,344.33925 623.29091,342.91115 625.90739,340.04472 C 628.52386,337.17829 629.82479,333.26235 629.82479,328.28812 C 629.82479,323.33289 628.49463,319.39795 625.8343,316.47451 C 623.17397,313.55107 619.5343,312.08935 614.90065,312.08935 C 610.1793,312.08935 606.51038,313.56861 603.89391,316.52128 C 601.26281,319.47249 599.94727,323.39575 599.94727,328.28812 z" /><path
         style="font-style:normal;font-variant:normal;font-weight:normal;font-stretch:normal;letter-spacing:normal;word-spacing:normal;text-anchor:start;fill:#90a4a3;fill-opacity:1;fill-rule:nonzero;stroke:#90a4a3;stroke-width:0;stroke-linecap:butt;stroke-linejoin:miter;stroke-miterlimit:10.43299961;stroke-dasharray:none;stroke-dashoffset:0;stroke-opacity:1"
         d="M 671.64456,312.68427 L 671.64456,332.14852 C 671.64456,336.22525 669.80279,338.26289 666.1485,338.26289 C 665.06683,338.26289 664.02901,337.95008 663.02042,337.30985 C 662.01184,336.67107 661.31021,335.93437 660.90093,335.10557 L 660.90093,312.68427 L 653.63619,312.68427 L 653.63619,333.27843 C 653.63619,334.803 653.16844,336.01915 652.21832,336.91664 C 651.2682,337.81852 649.93804,338.26289 648.21321,338.26289 C 647.30695,338.26289 646.31298,337.92669 645.24592,337.25284 C 644.16425,336.57899 643.38954,335.83643 642.90717,335.02079 L 642.90717,312.68427 L 635.64243,312.68427 L 635.64243,343.74433 L 640.62689,343.74433 L 642.11785,341.05038 C 644.1204,343.24296 646.73688,344.33925 649.92342,344.33925 C 654.04547,344.33925 657.14431,343.21373 659.24919,340.95829 C 660.15545,341.99173 661.42715,342.80883 663.04966,343.42568 C 664.67216,344.03667 666.29467,344.33925 667.9318,344.33925 C 671.38145,344.33925 674.08563,343.35113 676.0151,341.36904 C 677.92995,339.38256 678.89468,336.65938 678.89468,333.19949 L 678.89468,312.68427 L 671.64456,312.68427 z"
         id="path2540" /></g><g
       id="g2768"
       transform="matrix(0.7979315,0,0,-0.7979315,-96.997965,358.11633)"><polygon
         transform="matrix(1.4617185,0,0,1.4617185,293.001,294.62328)"
         style="font-style:normal;font-variant:normal;font-weight:normal;font-stretch:normal;letter-spacing:normal;word-spacing:normal;text-anchor:start;fill:#4bff00;fill-opacity:1;fill-rule:nonzero;stroke:#4bff00;stroke-width:0;stroke-linecap:butt;stroke-linejoin:miter;stroke-miterlimit:10.43299961;stroke-dasharray:none;stroke-dashoffset:0;stroke-opacity:1"
         points="41.812,28.66 35.105,24.285 35.105,24.285 35.277,32.531 35.277,32.531 42.406,36.656 42.406,36.656 41.812,28.66 "
         id="polygon2542" /><polygon
         transform="matrix(1.4617185,0,0,1.4617185,293.001,294.62328)"
         style="font-style:normal;font-variant:normal;font-weight:normal;font-stretch:normal;letter-spacing:normal;word-spacing:normal;text-anchor:start;fill:#4bff00;fill-opacity:1;fill-rule:nonzero;stroke:#4bff00;stroke-width:0;stroke-linecap:butt;stroke-linejoin:miter;stroke-miterlimit:10.43299961;stroke-dasharray:none;stroke-dashoffset:0;stroke-opacity:1"
         points="31.785,22.121 23.668,16.824 23.668,16.824 22.984,25.422 22.984,25.422 31.727,30.48 31.727,30.48 31.785,22.121 "
         id="polygon2544" /><polygon
         transform="matrix(1.4617185,0,0,1.4617185,293.001,294.62328)"
         style="font-style:normal;font-variant:normal;font-weight:normal;font-stretch:normal;letter-spacing:normal;word-spacing:normal;text-anchor:start;fill:#4bff00;fill-opacity:1;fill-rule:nonzero;stroke:#4bff00;stroke-width:0;stroke-linecap:butt;stroke-linejoin:miter;stroke-miterlimit:10.43299961;stroke-dasharray:none;stroke-dashoffset:0;stroke-opacity:1"
         points="19.938,14.394 9.9688,7.8906 9.9688,7.8906 8.0234,16.77 8.0234,16.77 18.938,23.082 18.938,23.082 19.938,14.394 "
         id="polygon2546" /><polygon
         transform="matrix(1.4617185,0,0,1.4617185,293.001,294.62328)"
         style="font-style:normal;font-variant:normal;font-weight:normal;font-stretch:normal;letter-spacing:normal;word-spacing:normal;text-anchor:start;fill:#4bff00;fill-opacity:1;fill-rule:nonzero;stroke:#4bff00;stroke-width:0;stroke-linecap:butt;stroke-linejoin:miter;stroke-miterlimit:10.43299961;stroke-dasharray:none;stroke-dashoffset:0;stroke-opacity:1"
         points="14.934,57.832 16.574,43.613 16.574,43.613 3.332,38.203 3.332,38.203 0,53.43 0,53.43 14.934,57.832 "
         id="polygon2548" /><polygon
         transform="matrix(1.4617185,0,0,1.4617185,293.001,294.62328)"
         style="font-style:normal;font-variant:normal;font-weight:normal;font-stretch:normal;letter-spacing:normal;word-spacing:normal;text-anchor:start;fill:#4bff00;fill-opacity:1;fill-rule:nonzero;stroke:#4bff00;stroke-width:0;stroke-linecap:butt;stroke-linejoin:miter;stroke-miterlimit:10.43299961;stroke-dasharray:none;stroke-dashoffset:0;stroke-opacity:1"
         points="17.16,38.496 18.426,27.508 18.426,27.508 7.0234,21.336 7.0234,21.336 4.5156,32.801 4.5156,32.801 17.16,38.496 "
         id="polygon2550" /><polygon
         transform="matrix(1.4617185,0,0,1.4617185,293.001,294.62328)"
         style="font-style:normal;font-variant:normal;font-weight:normal;font-stretch:normal;letter-spacing:normal;word-spacing:normal;text-anchor:start;fill:#060808;fill-opacity:1;fill-rule:nonzero;stroke:#060808;stroke-width:0;stroke-linecap:butt;stroke-linejoin:miter;stroke-miterlimit:10.43299961;stroke-dasharray:none;stroke-dashoffset:0;stroke-opacity:1"
         points="43.844,27.484 50.855,32.227 42.406,36.656 35.277,32.531 43.844,27.484 "
         id="polygon2552" /><polygon
         transform="matrix(1.4617185,0,0,1.4617185,293.001,294.62328)"
         style="font-style:normal;font-variant:normal;font-weight:normal;font-stretch:normal;letter-spacing:normal;word-spacing:normal;text-anchor:start;fill:#4ff818;fill-opacity:1;fill-rule:nonzero;stroke:#4ff818;stroke-width:0;stroke-linecap:butt;stroke-linejoin:miter;stroke-miterlimit:10.43299961;stroke-dasharray:none;stroke-dashoffset:0;stroke-opacity:1"
         points="43.07,19.035 43.844,27.484 35.277,32.531 35.105,24.285 43.07,19.035 "
         id="polygon2554" /><polygon
         transform="matrix(1.4617185,0,0,1.4617185,293.001,294.62328)"
         style="font-style:normal;font-variant:normal;font-weight:normal;font-stretch:normal;letter-spacing:normal;word-spacing:normal;text-anchor:start;fill:#2ed800;fill-opacity:1;fill-rule:nonzero;stroke:#2ed800;stroke-width:0;stroke-linecap:butt;stroke-linejoin:miter;stroke-miterlimit:10.43299961;stroke-dasharray:none;stroke-dashoffset:0;stroke-opacity:1"
         points="31.676,10.445 31.602,19.199 22.984,25.422 23.668,16.824 31.676,10.445 "
         id="polygon2556" /><polygon
         transform="matrix(1.4617185,0,0,1.4617185,293.001,294.62328)"
         style="font-style:normal;font-variant:normal;font-weight:normal;font-stretch:normal;letter-spacing:normal;word-spacing:normal;text-anchor:start;fill:#060808;fill-opacity:1;fill-rule:nonzero;stroke:#060808;stroke-width:0;stroke-linecap:butt;stroke-linejoin:miter;stroke-miterlimit:10.43299961;stroke-dasharray:none;stroke-dashoffset:0;stroke-opacity:1"
         points="31.602,19.199 40.328,25.105 31.727,30.48 22.984,25.422 31.602,19.199 "
         id="polygon2558" /><polygon
         transform="matrix(1.4617185,0,0,1.4617185,293.001,294.62328)"
         style="font-style:normal;font-variant:normal;font-weight:normal;font-stretch:normal;letter-spacing:normal;word-spacing:normal;text-anchor:start;fill:#146400;fill-opacity:1;fill-rule:nonzero;stroke:#146400;stroke-width:0;stroke-linecap:butt;stroke-linejoin:miter;stroke-miterlimit:10.43299961;stroke-dasharray:none;stroke-dashoffset:0;stroke-opacity:1"
         points="17.824,0 16.441,8.9375 8.0234,16.77 9.9688,7.8906 17.824,0 "
         id="polygon2560" /><polygon
         transform="matrix(1.4617185,0,0,1.4617185,293.001,294.62328)"
         style="font-style:normal;font-variant:normal;font-weight:normal;font-stretch:normal;letter-spacing:normal;word-spacing:normal;text-anchor:start;fill:#060808;fill-opacity:1;fill-rule:nonzero;stroke:#060808;stroke-width:0;stroke-linecap:butt;stroke-linejoin:miter;stroke-miterlimit:10.43299961;stroke-dasharray:none;stroke-dashoffset:0;stroke-opacity:1"
         points="16.441,8.9375 27.531,16.445 18.938,23.082 8.0234,16.77 16.441,8.9375 "
         id="polygon2562" /><polygon
         transform="matrix(1.4617185,0,0,1.4617185,293.001,294.62328)"
         style="font-style:normal;font-variant:normal;font-weight:normal;font-stretch:normal;letter-spacing:normal;word-spacing:normal;text-anchor:start;fill:#146400;fill-opacity:1;fill-rule:nonzero;stroke:#146400;stroke-width:0;stroke-linecap:butt;stroke-linejoin:miter;stroke-miterlimit:10.43299961;stroke-dasharray:none;stroke-dashoffset:0;stroke-opacity:1"
         points="15.723,13.586 13.894,25.406 4.5156,32.801 7.0234,21.336 15.723,13.586 "
         id="polygon2564" /><polygon
         transform="matrix(1.4617185,0,0,1.4617185,293.001,294.62328)"
         style="font-style:normal;font-variant:normal;font-weight:normal;font-stretch:normal;letter-spacing:normal;word-spacing:normal;text-anchor:start;fill:#0a120c;fill-opacity:1;fill-rule:nonzero;stroke:#0a120c;stroke-width:0;stroke-linecap:butt;stroke-linejoin:miter;stroke-miterlimit:10.43299961;stroke-dasharray:none;stroke-dashoffset:0;stroke-opacity:1"
         points="13.894,25.406 26.809,32.363 17.16,38.496 4.5156,32.801 13.894,25.406 "
         id="polygon2566" /><polygon
         transform="matrix(1.4617185,0,0,1.4617185,293.001,294.62328)"
         style="font-style:normal;font-variant:normal;font-weight:normal;font-stretch:normal;letter-spacing:normal;word-spacing:normal;text-anchor:start;fill:#146400;fill-opacity:1;fill-rule:nonzero;stroke:#146400;stroke-width:0;stroke-linecap:butt;stroke-linejoin:miter;stroke-miterlimit:10.43299961;stroke-dasharray:none;stroke-dashoffset:0;stroke-opacity:1"
         points="13.019,31.055 10.516,47.246 0,53.43 3.332,38.203 13.019,31.055 "
         id="polygon2568" /><polygon
         transform="matrix(1.4617185,0,0,1.4617185,293.001,294.62328)"
         style="font-style:normal;font-variant:normal;font-weight:normal;font-stretch:normal;letter-spacing:normal;word-spacing:normal;text-anchor:start;fill:#167700;fill-opacity:1;fill-rule:nonzero;stroke:#167700;stroke-width:0;stroke-linecap:butt;stroke-linejoin:miter;stroke-miterlimit:10.43299961;stroke-dasharray:none;stroke-dashoffset:0;stroke-opacity:1"
         points="10.516,47.246 25.887,52.832 14.934,57.832 0,53.43 10.516,47.246 "
         id="polygon2570" /><polygon
         transform="matrix(1.4617185,0,0,1.4617185,293.001,294.62328)"
         style="font-style:normal;font-variant:normal;font-weight:normal;font-stretch:normal;letter-spacing:normal;word-spacing:normal;text-anchor:start;fill:#4bff00;fill-opacity:1;fill-rule:nonzero;stroke:#4bff00;stroke-width:0;stroke-linecap:butt;stroke-linejoin:miter;stroke-miterlimit:10.43299961;stroke-dasharray:none;stroke-dashoffset:0;stroke-opacity:1"
         points="49.68,24.02 43.07,19.035 43.07,19.035 43.844,27.484 43.844,27.484 50.855,32.227 50.855,32.227 49.68,24.02 "
         id="polygon2572" /><polygon
         transform="matrix(1.4617185,0,0,1.4617185,293.001,294.62328)"
         style="font-style:normal;font-variant:normal;font-weight:normal;font-stretch:normal;letter-spacing:normal;word-spacing:normal;text-anchor:start;fill:#4bff00;fill-opacity:1;fill-rule:nonzero;stroke:#4bff00;stroke-width:0;stroke-linecap:butt;stroke-linejoin:miter;stroke-miterlimit:10.43299961;stroke-dasharray:none;stroke-dashoffset:0;stroke-opacity:1"
         points="39.781,16.555 31.676,10.445 31.676,10.445 31.602,19.199 31.602,19.199 40.328,25.105 40.328,25.105 39.781,16.555 "
         id="polygon2574" /><polygon
         transform="matrix(1.4617185,0,0,1.4617185,293.001,294.62328)"
         style="font-style:normal;font-variant:normal;font-weight:normal;font-stretch:normal;letter-spacing:normal;word-spacing:normal;text-anchor:start;fill:#4bff00;fill-opacity:1;fill-rule:nonzero;stroke:#4bff00;stroke-width:0;stroke-linecap:butt;stroke-linejoin:miter;stroke-miterlimit:10.43299961;stroke-dasharray:none;stroke-dashoffset:0;stroke-opacity:1"
         points="27.93,7.6211 17.824,0 17.824,0 16.441,8.9375 16.441,8.9375 27.531,16.445 27.531,16.445 27.93,7.6211 "
         id="polygon2576" /><polygon
         transform="matrix(1.4617185,0,0,1.4617185,293.001,294.62328)"
         style="font-style:normal;font-variant:normal;font-weight:normal;font-stretch:normal;letter-spacing:normal;word-spacing:normal;text-anchor:start;fill:#4bff00;fill-opacity:1;fill-rule:nonzero;stroke:#4bff00;stroke-width:0;stroke-linecap:butt;stroke-linejoin:miter;stroke-miterlimit:10.43299961;stroke-dasharray:none;stroke-dashoffset:0;stroke-opacity:1"
         points="25.887,52.832 26.566,37.727 26.566,37.727 13.019,31.055 13.019,31.055 10.516,47.246 10.516,47.246 25.887,52.832 "
         id="polygon2578" /><polygon
         transform="matrix(1.4617185,0,0,1.4617185,293.001,294.62328)"
         style="font-style:normal;font-variant:normal;font-weight:normal;font-stretch:normal;letter-spacing:normal;word-spacing:normal;text-anchor:start;fill:#4bff00;fill-opacity:1;fill-rule:nonzero;stroke:#4bff00;stroke-width:0;stroke-linecap:butt;stroke-linejoin:miter;stroke-miterlimit:10.43299961;stroke-dasharray:none;stroke-dashoffset:0;stroke-opacity:1"
         points="26.809,32.363 27.324,20.98 27.324,20.98 15.723,13.586 15.723,13.586 13.894,25.406 13.894,25.406 26.809,32.363 "
         id="polygon2580" /></g></g></svg>