<?xml version="1.0" encoding="utf-8"?>
<!-- Generator: Adobe Illustrator 13.0.0, SVG Export Plug-In . SVG Version: 6.00 Build 14948)  -->
<!DOCTYPE svg PUBLIC "-//W3C//DTD SVG 1.1//EN" "http://www.w3.org/Graphics/SVG/1.1/DTD/svg11.dtd">
<svg version="1.1" id="Layer_1" xmlns="http://www.w3.org/2000/svg" xmlns:xlink="http://www.w3.org/1999/xlink" x="0px" y="0px"
	 width="362.418px" height="596.195px" viewBox="0 0 362.418 596.195" enable-background="new 0 0 362.418 596.195"
	 xml:space="preserve">
<g>
	<path d="M130.619,258.68c-3.692,1.95-10.67,3.488-16.107,3.488c-28.422,0-40.117-21.854-40.117-40.322
		c0-16.621,12.106-40.117,40.425-40.117c23.085,0,40.322,14.672,40.322,38.477c0,18.058-11.389,30.063-18.161,34.474l21.034,10.876
		c22.47,11.594,38.065,12.106,43.195,12.106c5.131,0,13.134-1.128,20.213-4.001c0.616-0.205,1.129-0.411,1.437-0.411
		c0.41,0,0.615,0.309,0.615,0.617c0,0.409-0.205,0.718-0.82,1.024c-5.849,2.669-17.34,7.081-32.524,7.081
		c-12.415,0-25.651-4.617-42.272-13.749L130.619,258.68z M116.974,258.271c9.234,0,28.318-5.337,28.318-35.192
		c0-24.625-14.979-37.861-31.191-37.861c-17.134,0-29.96,11.287-29.96,33.756C84.141,242.88,98.506,258.271,116.974,258.271z"/>
	<path d="M175.355,212.92c0-16.007,0-18.88-0.206-22.162c-0.205-3.488-1.025-5.13-4.411-5.85c-0.821-0.204-2.565-0.307-3.488-0.307
		c-0.411,0-0.821-0.205-0.821-0.615c0-0.616,0.513-0.822,1.642-0.822c4.617,0,11.081,0.309,11.594,0.309
		c2.463,0,6.464-0.309,11.184-0.309c16.827,0,20.521,10.261,20.521,15.391c0,8.414-4.823,13.44-9.646,18.469
		c7.593,2.359,17.751,9.646,17.751,21.65c0,10.979-8.619,22.366-26.164,22.366c-2.36,0-12.825-0.616-13.646-0.616
		c-0.513,0-6.977,0.309-10.055,0.309c-1.129,0-1.643-0.206-1.643-0.821c0-0.308,0.206-0.616,0.821-0.616
		c0.923,0,2.155-0.204,3.079-0.409c2.051-0.41,2.564-2.668,2.975-5.644c0.514-4.31,0.514-12.415,0.514-22.265V212.92z
		 M183.563,215.177c0,0.718,0.206,0.923,0.719,1.129c0.615,0.103,2.463,0.411,6.259,0.411c5.745,0,7.182-0.206,9.337-2.669
		c2.154-2.462,3.694-6.156,3.694-10.362c0-8.517-3.797-17.648-13.852-17.648c-1.129,0-3.284,0.104-4.926,0.513
		c-0.923,0.207-1.231,0.514-1.231,1.129V215.177z M183.563,226.053c0,7.899,0,20.622,0.104,22.162
		c0.308,5.027,0.308,6.464,3.488,8.003c2.77,1.333,7.183,1.54,9.029,1.54c5.54,0,14.467-2.978,14.467-14.571
		c0-6.155-2.053-15.082-9.952-20.52c-3.488-2.359-6.054-2.668-8.517-2.976c-1.334-0.206-6.464-0.206-8.004-0.206
		c-0.409,0-0.615,0.206-0.615,0.72V226.053z"/>
	<path d="M276.418,209.636c0,28.831-22.982,50.551-35.5,56.81c-0.615,0.308-1.231,0.411-1.642,0.411s-0.821-0.411-0.821-1.026
		s0.411-1.129,1.026-1.438c12.107-6.668,27.907-27.67,27.907-51.781c0-17.955-7.9-27.086-16.929-27.086
		c-9.234,0-14.057,7.593-14.057,15.698c0,17.031,12.62,20.417,15.39,20.417c4.823,0,6.875-1.026,8.209-1.847
		c0.615-0.411,1.025-0.615,1.333-0.615s0.514,0.411,0.514,0.718c0,0.309-0.103,0.513-0.41,0.82
		c-2.977,3.182-8.209,4.721-12.313,4.721c-14.569,0-20.726-11.185-20.726-19.804c0-14.158,10.362-23.905,24.521-23.905
		C267.389,181.729,276.418,194.04,276.418,209.636z"/>
</g>
<g>
	<g>
		<path fill="#BED747" d="M238.152,33.287c4.762,2.75,8.66,9.5,8.66,14.999v62.45c0,5.502-3.896,12.252-8.658,15l-54.087,31.227
			c-4.764,2.752-12.559,2.75-17.322,0l-54.084-31.225c-4.763-2.75-8.659-9.5-8.66-15L104,48.285
			c0.001-5.499,3.898-12.25,8.661-14.999l54.088-31.224c4.764-2.749,12.557-2.749,17.318,0L238.152,33.287z"/>
	</g>
	<g>
		<path fill="#FFFFFF" d="M178.369,58.333c2.842-0.761,5.215-2.582,6.686-5.127c3.035-5.258,1.227-12.005-4.031-15.041
			c-2.547-1.471-5.514-1.861-8.354-1.1c-2.842,0.761-5.215,2.583-6.686,5.13c-1.469,2.545-1.859,5.513-1.098,8.354
			c0.76,2.837,2.578,5.208,5.119,6.679l0.01,0.005C172.561,58.704,175.529,59.094,178.369,58.333z"/>
		<path d="M162.766,69.791c5.9,3.406,12.775,4.312,19.357,2.548s12.082-5.983,15.488-11.884c7.033-12.184,2.842-27.816-9.338-34.847
			c-5.902-3.407-12.777-4.312-19.357-2.548c-6.582,1.764-12.082,5.985-15.488,11.886c-1.938,3.355-3.057,7.027-3.346,10.779
			l-12.408-7.164l-14.502,8.372L162.766,69.791z M165.984,42.196c1.471-2.547,3.844-4.369,6.686-5.13
			c2.84-0.761,5.807-0.371,8.354,1.1c5.258,3.035,7.066,9.782,4.031,15.041c-1.471,2.545-3.844,4.366-6.686,5.127
			c-2.84,0.761-5.809,0.371-8.354-1.1l-0.01-0.005c-2.541-1.47-4.359-3.841-5.119-6.679
			C164.125,47.709,164.516,44.741,165.984,42.196z"/>
		<path fill="#FFFFFF" d="M147.689,106.643c6.072-0.002,11.01-4.939,11.01-11.01s-4.938-11.009-11.008-11.009
			c-6.072,0-11.01,4.938-11.01,11.009S141.619,106.643,147.689,106.643z"/>
		<path fill="#FFFFFF" d="M212.477,90.162c-1.471-2.547-3.844-4.368-6.686-5.129c-2.84-0.761-5.805-0.37-8.35,1.1l-0.002,0.001
			c-2.547,1.47-4.369,3.845-5.129,6.685c-0.762,2.842-0.371,5.807,1.098,8.354c3.035,5.256,9.783,7.064,15.041,4.029
			c2.547-1.471,4.369-3.846,5.129-6.686C214.34,95.676,213.947,92.709,212.477,90.162z"/>
		<path d="M190.191,73.576L190.191,73.576c-5.902,3.406-10.123,8.907-11.887,15.49c-0.59,2.197-0.881,4.428-0.881,6.645
			c0,4.42,1.158,8.781,3.428,12.711c7.033,12.18,22.666,16.369,34.848,9.336c5.9-3.406,10.123-8.908,11.885-15.49
			c1.764-6.582,0.857-13.455-2.551-19.357c-1.936-3.354-4.551-6.162-7.656-8.288l12.748-7.36V50.518L190.191,73.576z
			 M213.578,98.516c-0.76,2.84-2.582,5.215-5.129,6.686c-5.258,3.035-12.006,1.227-15.041-4.029
			c-1.469-2.547-1.859-5.512-1.098-8.354c0.76-2.84,2.582-5.215,5.129-6.685l0.002-0.001c2.545-1.47,5.51-1.86,8.35-1.1
			c2.842,0.761,5.215,2.582,6.686,5.129S214.34,95.676,213.578,98.516z"/>
		<path d="M147.691,70.124c-14.066,0-25.51,11.444-25.51,25.509c0,14.066,11.443,25.51,25.51,25.51
			c3.939-0.002,7.674-0.9,11.008-2.502v14.604l14.5,8.371V95.633C173.199,81.568,161.756,70.124,147.691,70.124z M147.689,106.643
			c-6.07,0-11.008-4.939-11.008-11.01s4.938-11.009,11.01-11.009c6.07,0,11.008,4.938,11.008,11.009
			S153.762,106.641,147.689,106.643z"/>
	</g>
</g>
<g>
	<path d="M216.619,553.511c-3.692,1.951-10.67,3.488-16.107,3.488c-28.422,0-40.117-21.854-40.117-40.322
		c0-16.621,12.106-40.117,40.425-40.117c23.085,0,40.322,14.672,40.322,38.477c0,18.059-11.389,30.063-18.161,34.475l21.034,10.875
		c22.47,11.594,38.065,12.107,43.195,12.107c5.131,0,13.134-1.129,20.213-4.002c0.616-0.205,1.129-0.41,1.437-0.41
		c0.41,0,0.615,0.309,0.615,0.617c0,0.408-0.205,0.717-0.82,1.023c-5.849,2.67-17.34,7.082-32.524,7.082
		c-12.415,0-25.651-4.617-42.272-13.75L216.619,553.511z M202.974,553.103c9.234,0,28.318-5.338,28.318-35.193
		c0-24.625-14.979-37.861-31.191-37.861c-17.134,0-29.96,11.287-29.96,33.756C170.141,537.712,184.506,553.103,202.974,553.103z"/>
	<path d="M261.355,507.751c0-16.006,0-18.879-0.206-22.162c-0.205-3.488-1.025-5.129-4.411-5.85
		c-0.821-0.203-2.565-0.307-3.488-0.307c-0.411,0-0.821-0.205-0.821-0.615c0-0.615,0.513-0.822,1.642-0.822
		c4.617,0,11.081,0.309,11.594,0.309c2.463,0,6.464-0.309,11.184-0.309c16.827,0,20.521,10.262,20.521,15.391
		c0,8.414-4.823,13.441-9.646,18.469c7.593,2.359,17.751,9.646,17.751,21.65c0,10.979-8.619,22.367-26.164,22.367
		c-2.36,0-12.825-0.617-13.646-0.617c-0.513,0-6.977,0.309-10.055,0.309c-1.129,0-1.643-0.205-1.643-0.82
		c0-0.309,0.206-0.617,0.821-0.617c0.923,0,2.155-0.203,3.079-0.408c2.051-0.41,2.564-2.668,2.975-5.645
		c0.514-4.309,0.514-12.414,0.514-22.264V507.751z M269.563,510.009c0,0.717,0.206,0.922,0.719,1.129
		c0.615,0.102,2.463,0.41,6.259,0.41c5.745,0,7.182-0.205,9.337-2.668c2.154-2.463,3.694-6.156,3.694-10.363
		c0-8.516-3.797-17.648-13.852-17.648c-1.129,0-3.284,0.104-4.926,0.514c-0.923,0.207-1.231,0.514-1.231,1.129V510.009z
		 M269.563,520.884c0,7.9,0,20.623,0.104,22.162c0.308,5.027,0.308,6.465,3.488,8.004c2.77,1.332,7.183,1.539,9.029,1.539
		c5.54,0,14.467-2.977,14.467-14.57c0-6.156-2.053-15.082-9.952-20.52c-3.488-2.359-6.054-2.668-8.517-2.977
		c-1.334-0.205-6.464-0.205-8.004-0.205c-0.409,0-0.615,0.205-0.615,0.719V520.884z"/>
	<path d="M362.418,504.468c0,28.83-22.982,50.551-35.5,56.809c-0.615,0.309-1.231,0.412-1.642,0.412s-0.821-0.412-0.821-1.027
		s0.411-1.129,1.026-1.438c12.107-6.668,27.907-27.67,27.907-51.781c0-17.955-7.9-27.086-16.929-27.086
		c-9.234,0-14.057,7.594-14.057,15.699c0,17.031,12.62,20.416,15.39,20.416c4.823,0,6.875-1.025,8.209-1.846
		c0.615-0.412,1.025-0.615,1.333-0.615s0.514,0.41,0.514,0.717c0,0.309-0.103,0.514-0.41,0.82
		c-2.977,3.182-8.209,4.721-12.313,4.721c-14.569,0-20.726-11.184-20.726-19.803c0-14.158,10.362-23.906,24.521-23.906
		C353.389,476.56,362.418,488.872,362.418,504.468z"/>
</g>
<g>
	<g>
		<path fill="#BED747" d="M134.152,470.456c4.762,2.75,8.66,9.498,8.66,14.998v62.451c0,5.502-3.896,12.252-8.658,15l-54.087,31.227
			c-4.764,2.752-12.559,2.75-17.322,0L8.661,562.907c-4.763-2.75-8.659-9.5-8.66-15L0,485.454c0.001-5.5,3.898-12.25,8.661-15
			l54.088-31.225c4.764-2.748,12.557-2.748,17.318,0L134.152,470.456z"/>
	</g>
	<g>
		<path fill="#FFFFFF" d="M74.369,495.501c2.842-0.762,5.215-2.582,6.686-5.127c3.035-5.258,1.227-12.006-4.031-15.041
			c-2.547-1.471-5.514-1.861-8.354-1.1c-2.842,0.762-5.215,2.584-6.686,5.131c-1.469,2.545-1.859,5.514-1.098,8.354
			c0.76,2.838,2.578,5.209,5.119,6.678l0.01,0.006C68.561,495.872,71.529,496.263,74.369,495.501z"/>
		<path d="M58.766,506.96c5.9,3.406,12.775,4.311,19.357,2.547s12.082-5.982,15.488-11.883c7.033-12.184,2.842-27.816-9.338-34.848
			c-5.902-3.408-12.777-4.313-19.357-2.549c-6.582,1.764-12.082,5.986-15.488,11.887c-1.938,3.355-3.057,7.027-3.346,10.779
			l-12.408-7.164l-14.502,8.373L58.766,506.96z M61.984,479.364c1.471-2.547,3.844-4.369,6.686-5.131
			c2.84-0.762,5.807-0.371,8.354,1.1c5.258,3.035,7.066,9.783,4.031,15.041c-1.471,2.545-3.844,4.365-6.686,5.127
			c-2.84,0.762-5.809,0.371-8.354-1.1l-0.01-0.006c-2.541-1.469-4.359-3.84-5.119-6.678
			C60.125,484.878,60.516,481.909,61.984,479.364z"/>
		<path fill="#FFFFFF" d="M43.689,543.812c6.072-0.002,11.01-4.939,11.01-11.01s-4.938-11.01-11.008-11.01
			c-6.072,0-11.01,4.939-11.01,11.01S37.619,543.812,43.689,543.812z"/>
		<path fill="#FFFFFF" d="M108.477,527.331c-1.471-2.547-3.844-4.369-6.686-5.129c-2.84-0.762-5.805-0.371-8.35,1.1h-0.002
			c-2.547,1.471-4.369,3.846-5.129,6.686c-0.762,2.842-0.371,5.807,1.098,8.354c3.035,5.256,9.783,7.064,15.041,4.029
			c2.547-1.471,4.369-3.846,5.129-6.686C110.34,532.845,109.947,529.878,108.477,527.331z"/>
		<path d="M86.191,510.745L86.191,510.745c-5.902,3.406-10.123,8.906-11.887,15.49c-0.59,2.197-0.881,4.428-0.881,6.645
			c0,4.42,1.158,8.781,3.428,12.711c7.033,12.18,22.666,16.369,34.848,9.336c5.9-3.406,10.123-8.908,11.885-15.49
			c1.764-6.582,0.857-13.455-2.551-19.357c-1.936-3.354-4.551-6.162-7.656-8.289l12.748-7.359v-16.744L86.191,510.745z
			 M109.578,535.685c-0.76,2.84-2.582,5.215-5.129,6.686c-5.258,3.035-12.006,1.227-15.041-4.029
			c-1.469-2.547-1.859-5.512-1.098-8.354c0.76-2.84,2.582-5.215,5.129-6.686h0.002c2.545-1.471,5.51-1.861,8.35-1.1
			c2.842,0.76,5.215,2.582,6.686,5.129S110.34,532.845,109.578,535.685z"/>
		<path d="M43.691,507.292c-14.066,0-25.51,11.445-25.51,25.51c0,14.066,11.443,25.51,25.51,25.51
			c3.939-0.002,7.674-0.9,11.008-2.502v14.604l14.5,8.371v-45.982C69.199,518.737,57.756,507.292,43.691,507.292z M43.689,543.812
			c-6.07,0-11.008-4.939-11.008-11.01s4.938-11.01,11.01-11.01c6.07,0,11.008,4.939,11.008,11.01S49.762,543.81,43.689,543.812z"/>
	</g>
</g>
</svg>
