<?xml version="1.0" encoding="UTF-8" standalone="no"?>
<!-- Created with Inkscape (http://www.inkscape.org/) -->
<svg
   xmlns:dc="http://purl.org/dc/elements/1.1/"
   xmlns:cc="http://creativecommons.org/ns#"
   xmlns:rdf="http://www.w3.org/1999/02/22-rdf-syntax-ns#"
   xmlns:svg="http://www.w3.org/2000/svg"
   xmlns="http://www.w3.org/2000/svg"
   xmlns:sodipodi="http://sodipodi.sourceforge.net/DTD/sodipodi-0.dtd"
   xmlns:inkscape="http://www.inkscape.org/namespaces/inkscape"
   id="svg2"
   sodipodi:version="0.32"
   inkscape:version="0.46"
   width="318.89819"
   height="71.219215"
   xml:space="preserve"
   sodipodi:docname="univention.svg"
   version="1.0"
   inkscape:output_extension="org.inkscape.output.svg.inkscape"
   inkscape:export-filename="/home/dam/work/debian/debconf/media.debconf.org/dc9/sponsorlogos/bronze/univention.png"
   inkscape:export-xdpi="42.330002"
   inkscape:export-ydpi="42.330002"><metadata
     id="metadata7"><rdf:RDF><cc:Work
         rdf:about=""><dc:format>image/svg+xml</dc:format><dc:type
           rdf:resource="http://purl.org/dc/dcmitype/StillImage" /></cc:Work></rdf:RDF></metadata><defs
     id="defs5"><inkscape:perspective
       sodipodi:type="inkscape:persp3d"
       inkscape:vp_x="0 : 526.18109 : 1"
       inkscape:vp_y="0 : 1000 : 0"
       inkscape:vp_z="744.09448 : 526.18109 : 1"
       inkscape:persp3d-origin="372.04724 : 350.78739 : 1"
       id="perspective9" /></defs><sodipodi:namedview
     inkscape:cy="32.246298"
     inkscape:cx="131.2885"
     inkscape:zoom="1.2152178"
     inkscape:window-height="711"
     inkscape:window-width="659"
     inkscape:pageshadow="2"
     inkscape:pageopacity="0.0"
     guidetolerance="10.0"
     gridtolerance="10.0"
     objecttolerance="10.0"
     borderopacity="1.0"
     bordercolor="#666666"
     pagecolor="#ffffff"
     id="base"
     showgrid="false"
     inkscape:window-x="1283"
     inkscape:window-y="71"
     inkscape:current-layer="g11" /><g
     id="g11"
     inkscape:groupmode="layer"
     inkscape:label="univention"
     transform="matrix(1.25,0,0,-1.25,-0.3730475,72.23875)"><g
       id="g13"
       transform="scale(0.1,0.1)"><path
         d="M 437.188,48.4844 L 454.5005,48.4844 L 454.5005,200.9374 L 437.188,200.9374 L 437.188,48.4844 z"
         style="fill:#c81028;fill-opacity:1;fill-rule:nonzero;stroke:none"
         id="path15" /><path
         d="M 511.906,155.121 L 494.594,155.121 L 494.594,48.4844 L 511.906,48.4844 L 511.906,155.121 z M 493.535,182.359 L 512.961,182.359 L 512.961,200.938 L 493.535,200.938 L 493.535,182.359"
         style="fill:#c81028;fill-opacity:1;fill-rule:evenodd;stroke:none"
         id="path17" /><path
         d="M 627.59,48.4844 L 627.59,122.391 C 627.59,143.504 621.891,157.23 599.086,157.23 C 585.359,157.23 577.336,153.426 570.578,141.391 L 569.734,141.391 L 569.734,155.121 L 551.363,155.121 C 552,147.727 552.422,140.336 552.422,132.945 L 552.422,48.4844 L 569.734,48.4844 L 569.734,111.617 C 569.734,126.188 572.48,143.082 591.484,143.082 C 606.266,143.082 610.273,133.793 610.273,122.391 L 610.273,48.4844 L 627.59,48.4844"
         style="fill:#c81028;fill-opacity:1;fill-rule:nonzero;stroke:none"
         id="path19" /><path
         d="M 725.578,84.3789 C 725.578,66.6445 713.969,59.6719 704.676,59.6719 C 692.43,59.6719 686.516,68.332 686.516,81.2148 L 686.516,155.121 L 669.203,155.121 L 669.203,73.8203 C 669.203,55.6641 679.34,46.375 697.918,46.375 C 709.113,46.375 719.246,51.6523 724.949,61.3672 L 725.578,61.3672 L 725.578,48.4844 L 743.949,48.4844 C 743.316,55.875 742.895,63.2656 742.895,70.6562 L 742.895,155.121 L 725.578,155.121 L 725.578,84.3789"
         style="fill:#c81028;fill-opacity:1;fill-rule:nonzero;stroke:none"
         id="path21" /><path
         d="M 826.527,104.23 L 858.41,155.121 L 837.508,155.121 L 815.969,116.898 L 795.695,155.121 L 773.527,155.121 L 803.93,104.23 L 770.781,48.4844 L 791.262,48.4844 L 814.281,92.1953 L 838.984,48.4844 L 861.789,48.4844 L 826.527,104.23"
         style="fill:#c81028;fill-opacity:1;fill-rule:nonzero;stroke:none"
         id="path23" /><path
         d="M 933.109,155.121 L 933.109,142.023 L 949.582,142.023 L 949.582,48.4844 L 966.895,48.4844 L 966.895,142.023 L 988.434,142.023 L 988.434,155.121 L 966.895,155.121 L 966.895,173.277 C 966.895,181.934 970.062,189.75 988.434,188.48 L 988.434,200.938 C 985.898,201.359 983.785,201.574 980.195,201.574 C 964.781,201.574 949.582,197.348 949.582,175.809 L 949.582,155.121 L 933.109,155.121"
         style="fill:#c81028;fill-opacity:1;fill-rule:nonzero;stroke:none"
         id="path25" /><path
         d="M 1053.23,60.5195 C 1035.28,60.5195 1030.84,72.9766 1030.84,107.609 C 1030.84,136.746 1039.93,143.082 1053.23,143.082 C 1066.53,143.082 1075.61,136.746 1075.61,107.609 C 1075.61,72.9766 1071.18,60.5195 1053.23,60.5195 z M 1053.23,46.375 C 1075.82,46.375 1093.77,53.1289 1093.77,100.219 C 1093.77,131.469 1090.18,157.23 1053.23,157.23 C 1016.27,157.23 1012.69,131.469 1012.69,100.219 C 1012.69,53.1289 1030.64,46.375 1053.23,46.375"
         style="fill:#c81028;fill-opacity:1;fill-rule:evenodd;stroke:none"
         id="path27" /><path
         d="M 1149.74,155.121 L 1132.43,155.121 L 1132.43,48.4844 L 1149.74,48.4844 L 1149.74,111.41 C 1149.74,125.766 1154.59,140.336 1173.81,140.336 C 1175.5,140.336 1176.98,140.125 1178.46,139.914 C 1179.94,139.707 1181.62,139.492 1183.1,139.281 L 1183.1,157.23 C 1166.21,157.23 1157.34,155.328 1150.16,139.07 L 1149.74,139.07 L 1149.74,155.121"
         style="fill:#c81028;fill-opacity:1;fill-rule:nonzero;stroke:none"
         id="path29" /><path
         d="M 1276.55,155.121 L 1256.5,155.121 L 1292.61,48.4844 L 1280.57,8.15625 L 1298.52,8.15625 L 1346.88,155.121 L 1328.08,155.121 L 1302.53,68.332 L 1302.11,68.332 L 1276.55,155.121"
         style="fill:#c81028;fill-opacity:1;fill-rule:nonzero;stroke:none"
         id="path31" /><path
         d="M 1411.89,60.5195 C 1393.94,60.5195 1389.5,72.9766 1389.5,107.609 C 1389.5,136.746 1398.58,143.082 1411.89,143.082 C 1425.19,143.082 1434.27,136.746 1434.27,107.609 C 1434.27,72.9766 1429.84,60.5195 1411.89,60.5195 z M 1411.89,46.375 C 1434.48,46.375 1452.43,53.1289 1452.43,100.219 C 1452.43,131.469 1448.84,157.23 1411.89,157.23 C 1374.93,157.23 1371.34,131.469 1371.34,100.219 C 1371.34,53.1289 1389.29,46.375 1411.89,46.375"
         style="fill:#c81028;fill-opacity:1;fill-rule:evenodd;stroke:none"
         id="path33" /><path
         d="M 1547.46,84.3789 C 1547.46,66.6445 1535.85,59.6719 1526.55,59.6719 C 1514.31,59.6719 1508.4,68.332 1508.4,81.2148 L 1508.4,155.121 L 1491.08,155.121 L 1491.08,73.8203 C 1491.08,55.6641 1501.22,46.375 1519.8,46.375 C 1530.99,46.375 1541.12,51.6523 1546.83,61.3672 L 1547.46,61.3672 L 1547.46,48.4844 L 1565.83,48.4844 C 1565.2,55.875 1564.77,63.2656 1564.77,70.6562 L 1564.77,155.121 L 1547.46,155.121 L 1547.46,84.3789"
         style="fill:#c81028;fill-opacity:1;fill-rule:nonzero;stroke:none"
         id="path35" /><path
         d="M 1624.55,155.121 L 1607.23,155.121 L 1607.23,48.4844 L 1624.55,48.4844 L 1624.55,111.41 C 1624.55,125.766 1629.4,140.336 1648.62,140.336 C 1650.31,140.336 1651.79,140.125 1653.26,139.914 C 1654.74,139.707 1656.43,139.492 1657.91,139.281 L 1657.91,157.23 C 1641.02,157.23 1632.14,155.328 1624.97,139.07 L 1624.55,139.07 L 1624.55,155.121"
         style="fill:#c81028;fill-opacity:1;fill-rule:nonzero;stroke:none"
         id="path37" /><path
         d="M 1763.61,106.129 C 1763.61,120.277 1764.45,143.082 1783.67,143.082 C 1802.25,143.082 1804.79,128.301 1804.79,99.793 C 1804.79,83.75 1804.79,60.5195 1783.04,60.5195 C 1761.71,60.5195 1763.61,89.8711 1763.61,106.129 z M 1763.61,61.1523 L 1764.03,61.1523 C 1769.95,51.2305 1777.34,46.375 1788.53,46.375 C 1805.63,46.375 1822.95,53.1289 1822.95,100.008 C 1822.95,126.609 1822.1,157.23 1787.68,157.23 C 1777.55,157.23 1770.16,152.797 1764.24,144.348 L 1763.61,144.348 L 1763.61,200.938 L 1746.29,200.938 L 1746.29,48.4844 L 1763.61,48.4844 L 1763.61,61.1523"
         style="fill:#c81028;fill-opacity:1;fill-rule:evenodd;stroke:none"
         id="path39" /><path
         d="M 1917.98,84.3789 C 1917.98,66.6445 1906.37,59.6719 1897.07,59.6719 C 1884.83,59.6719 1878.91,68.332 1878.91,81.2148 L 1878.91,155.121 L 1861.6,155.121 L 1861.6,73.8203 C 1861.6,55.6641 1871.74,46.375 1890.32,46.375 C 1901.51,46.375 1911.64,51.6523 1917.35,61.3672 L 1917.98,61.3672 L 1917.98,48.4844 L 1936.35,48.4844 C 1935.71,55.875 1935.29,63.2656 1935.29,70.6562 L 1935.29,155.121 L 1917.98,155.121 L 1917.98,84.3789"
         style="fill:#c81028;fill-opacity:1;fill-rule:nonzero;stroke:none"
         id="path41" /><path
         d="M 2045.74,78.8906 C 2045.74,111.41 1992.53,110.988 1992.53,129.777 C 1992.53,139.07 1999.71,144.137 2009,144.137 C 2019.98,144.137 2025.89,138.227 2025.68,127.035 L 2044.89,127.035 C 2046.37,148.148 2030.12,157.23 2011.11,157.23 C 1981.13,157.23 1974.37,139.281 1974.37,128.09 C 1974.37,96.2031 2027.58,95.7852 2027.58,76.7812 C 2027.58,65.8008 2019.55,60.5195 2009.21,60.5195 C 1991.69,60.5195 1991.47,74.8789 1991.47,81.0039 L 1971.84,81.0039 C 1971.2,56.5078 1985.56,46.375 2008.57,46.375 C 2029.69,46.375 2045.74,55.4531 2045.74,78.8906"
         style="fill:#c81028;fill-opacity:1;fill-rule:nonzero;stroke:none"
         id="path43" /><path
         d="M 2098.29,155.121 L 2080.98,155.121 L 2080.98,48.4844 L 2098.29,48.4844 L 2098.29,155.121 z M 2079.93,182.359 L 2099.35,182.359 L 2099.35,200.938 L 2079.93,200.938 L 2079.93,182.359"
         style="fill:#c81028;fill-opacity:1;fill-rule:evenodd;stroke:none"
         id="path45" /><path
         d="M 2213.98,48.4844 L 2213.98,122.391 C 2213.98,143.504 2208.28,157.23 2185.47,157.23 C 2171.75,157.23 2163.73,153.426 2156.97,141.391 L 2156.12,141.391 L 2156.12,155.121 L 2137.75,155.121 C 2138.39,147.727 2138.81,140.336 2138.81,132.945 L 2138.81,48.4844 L 2156.12,48.4844 L 2156.12,111.617 C 2156.12,126.188 2158.87,143.082 2177.88,143.082 C 2192.66,143.082 2196.66,133.793 2196.66,122.391 L 2196.66,48.4844 L 2213.98,48.4844"
         style="fill:#c81028;fill-opacity:1;fill-rule:nonzero;stroke:none"
         id="path47" /><path
         d="M 2271.85,109.297 C 2272.06,138.859 2281.14,144.137 2292.12,144.137 C 2304.79,144.137 2313.45,140.336 2313.45,109.297 L 2271.85,109.297 z M 2331.82,96.2031 L 2331.82,105.285 C 2331.82,140.551 2324.22,157.23 2293.81,157.23 C 2256.86,157.23 2253.27,131.469 2253.27,100.219 C 2253.27,53.1289 2271.21,46.375 2293.81,46.375 C 2316.2,46.375 2330.77,57.1406 2330.98,80.7891 L 2311.97,80.7891 C 2311.34,70.0234 2305.21,60.5195 2293.39,60.5195 C 2279.88,60.5195 2271.85,66.4336 2271.85,96.2031 L 2331.82,96.2031"
         style="fill:#c81028;fill-opacity:1;fill-rule:evenodd;stroke:none"
         id="path49" /><path
         d="M 2439.73,78.8906 C 2439.73,111.41 2386.52,110.988 2386.52,129.777 C 2386.52,139.07 2393.7,144.137 2402.99,144.137 C 2413.97,144.137 2419.88,138.227 2419.67,127.035 L 2438.89,127.035 C 2440.37,148.148 2424.11,157.23 2405.1,157.23 C 2375.12,157.23 2368.36,139.281 2368.36,128.09 C 2368.36,96.2031 2421.57,95.7852 2421.57,76.7812 C 2421.57,65.8008 2413.55,60.5195 2403.2,60.5195 C 2385.68,60.5195 2385.46,74.8789 2385.46,81.0039 L 2365.83,81.0039 C 2365.2,56.5078 2379.55,46.375 2402.57,46.375 C 2423.68,46.375 2439.73,55.4531 2439.73,78.8906"
         style="fill:#c81028;fill-opacity:1;fill-rule:nonzero;stroke:none"
         id="path51" /><path
         d="M 2544.02,78.8906 C 2544.02,111.41 2490.81,110.988 2490.81,129.777 C 2490.81,139.07 2497.99,144.137 2507.29,144.137 C 2518.26,144.137 2524.17,138.227 2523.96,127.035 L 2543.18,127.035 C 2544.65,148.148 2528.4,157.23 2509.39,157.23 C 2479.41,157.23 2472.65,139.281 2472.65,128.09 C 2472.65,96.2031 2525.86,95.7852 2525.86,76.7812 C 2525.86,65.8008 2517.84,60.5195 2507.49,60.5195 C 2489.96,60.5195 2489.75,74.8789 2489.75,81.0039 L 2470.12,81.0039 C 2469.48,56.5078 2483.84,46.375 2506.86,46.375 C 2527.97,46.375 2544.02,55.4531 2544.02,78.8906"
         style="fill:#c81028;fill-opacity:1;fill-rule:nonzero;stroke:none"
         id="path53" /><path
         d="M 263.703,310.973 C 263.703,282.168 240.367,258.824 211.555,258.824 L 55.1289,258.824 C 26.332,258.824 2.98438,282.168 2.98438,310.973 L 2.98438,467.41 C 2.98438,496.211 26.332,519.551 55.1289,519.551 L 211.555,519.551 C 240.367,519.551 263.703,496.211 263.703,467.41 L 263.703,310.973"
         style="fill:#c81028;fill-opacity:1;fill-rule:nonzero;stroke:none"
         id="path55" /><path
         d="M 315.848,363.117 C 315.848,334.316 292.504,310.973 263.703,310.973 L 107.277,310.973 C 78.4648,310.973 55.1289,334.316 55.1289,363.117 L 55.1289,519.551 C 55.1289,548.355 78.4648,571.703 107.277,571.703 L 263.703,571.703 C 292.504,571.703 315.848,548.355 315.848,519.551 L 315.848,363.117"
         style="fill:#c81028;fill-opacity:1;fill-rule:nonzero;stroke:none"
         id="path57" /><path
         d="M 263.488,471.961 L 263.488,472.062 L 263.48,472.055 C 263.312,474.105 262.988,475.973 262.574,477.754 C 256.285,510.191 222.82,518.855 216.859,519.406 L 216.859,366.504 C 210.078,350.508 183.25,339.812 154.707,341.613 C 119.863,343.824 103.012,356.48 102.035,368.059 L 102.035,519.551 L 55.1094,519.551 L 55.1094,363.129 C 55.9062,333.719 75.6797,312.598 107.258,310.98 L 184.238,310.98 C 195.816,313.211 209.25,323.176 216.789,333.703 L 216.789,310.98 L 263.691,310.98 L 263.691,467.41 C 263.691,469.008 263.617,470.508 263.488,471.961"
         style="fill:#ffffff;fill-opacity:1;fill-rule:nonzero;stroke:none"
         id="path59" /><path
         d="M 2455.84,518.152 C 2426.14,517.262 2408.46,518.152 2393.89,495.168 C 2383.24,512.598 2360.73,517.012 2347.38,517.633 L 2347.38,311.027 L 2394.94,311.086 L 2394.43,459.633 C 2395.2,476.336 2422.66,489.387 2455.41,487.309 C 2489.96,485.121 2506.69,472.582 2507.64,461.113 L 2507.64,310.898 L 2554.17,310.898 L 2554.17,465.98 C 2550.24,502.371 2535.83,520.555 2455.84,518.152"
         style="fill:#c81028;fill-opacity:1;fill-rule:nonzero;stroke:none"
         id="path61" /><path
         d="M 1037.65,517.848 C 1041.02,511.102 1123.07,346.07 1128.99,336.363 C 1134.89,326.645 1150.72,312.891 1165.35,310.797 C 1172.11,309.812 1193.5,308.859 1201.16,311.043 C 1202.95,312.25 1264.47,472.27 1265.73,476.062 C 1266.98,479.879 1269.1,498.852 1248.41,517.012 C 1220.55,447.359 1195.66,379.418 1178.79,339.336 C 1150.09,395.879 1124.18,451.57 1101.14,489.984 C 1087.21,513.207 1066.53,517.848 1062.3,517.848 C 1058.09,517.848 1037.65,517.848 1037.65,517.848"
         style="fill:#c81028;fill-opacity:1;fill-rule:nonzero;stroke:none"
         id="path63" /><path
         d="M 799.438,516.988 C 769.727,516.098 752.07,516.988 737.469,494.027 C 726.84,511.449 704.324,515.836 690.973,516.473 L 690.973,309.871 L 738.535,309.914 L 738.035,458.465 C 738.785,475.18 766.258,488.223 799.012,486.148 C 833.562,483.953 850.27,471.422 851.234,459.934 L 851.234,309.75 L 897.777,309.75 L 897.777,464.828 C 893.848,501.215 879.422,519.391 799.438,516.988"
         style="fill:#c81028;fill-opacity:1;fill-rule:nonzero;stroke:none"
         id="path65" /><path
         d="M 1677.91,516.988 C 1648.23,516.098 1630.56,516.988 1615.96,494.027 C 1605.32,511.449 1582.81,515.836 1569.48,516.473 L 1569.48,309.871 L 1617,309.914 L 1616.52,458.465 C 1617.29,475.18 1644.75,488.223 1677.5,486.148 C 1712.05,483.953 1728.76,471.422 1729.73,459.934 L 1729.73,309.75 L 1776.25,309.75 L 1776.25,464.828 C 1772.34,501.215 1757.9,519.391 1677.91,516.988"
         style="fill:#c81028;fill-opacity:1;fill-rule:nonzero;stroke:none"
         id="path67" /><path
         d="M 1001.76,539.129 C 1001.76,534.543 998.07,530.871 993.5,530.871 L 963.512,530.871 C 958.941,530.871 955.238,534.543 955.238,539.129 L 955.238,569.109 C 955.238,573.703 958.941,577.402 963.512,577.402 L 993.5,577.402 C 998.07,577.402 1001.76,573.703 1001.76,569.109 L 1001.76,539.129"
         style="fill:#c81028;fill-opacity:1;fill-rule:nonzero;stroke:none"
         id="path69" /><path
         d="M 1891.89,515.344 L 1891.89,577.91 L 1874.49,577.91 L 1874.49,566.371 C 1874.49,537.805 1851.34,514.668 1822.8,514.668 L 1814.18,514.668 L 1814.18,484.914 L 1845.72,484.914 L 1845.72,309.75 L 1891.89,309.75 L 1891.89,484.324 L 1943.42,484.324 L 1943.42,515.344 L 1891.89,515.344"
         style="fill:#c81028;fill-opacity:1;fill-rule:nonzero;stroke:none"
         id="path71" /><path
         d="M 2240.29,516.523 L 2136.89,516.523 C 2108.38,516.523 2085.2,493.367 2085.2,464.828 L 2085.2,361.434 C 2085.2,332.875 2108.38,309.75 2136.89,309.75 L 2240.29,309.75 C 2268.84,309.75 2291.98,332.875 2291.98,361.434 L 2291.98,464.828 C 2291.98,493.367 2268.84,516.523 2240.29,516.523 z M 2245.45,371.789 C 2245.45,354.637 2231.56,340.762 2214.45,340.762 L 2162.76,340.762 C 2145.61,340.762 2131.72,354.637 2131.72,371.789 L 2131.72,454.492 C 2131.72,471.629 2145.61,485.508 2162.76,485.508 L 2214.45,485.508 C 2231.56,485.508 2245.45,471.629 2245.45,454.492 L 2245.45,371.789"
         style="fill:#c81028;fill-opacity:1;fill-rule:nonzero;stroke:none"
         id="path73" /><path
         d="M 1511,410.891 L 1511,410.895 L 1513.05,410.895 L 1513.05,465.699 C 1513.05,494.25 1489.9,517.402 1461.34,517.402 L 1357.97,517.402 C 1329.41,517.402 1306.28,494.25 1306.28,465.699 L 1306.28,362.336 C 1306.28,333.777 1324.44,307.273 1404.93,308.754 C 1469.96,309.938 1510.22,314.043 1512.92,358.633 L 1464.18,358.633 C 1460.91,352.66 1447.78,337.871 1405.34,339.562 C 1359.8,341.438 1352.33,356.695 1352.33,373.824 L 1352.33,410.891 L 1511,410.891 z M 1383.34,487.547 L 1435.02,487.547 C 1452.16,487.547 1466.04,473.668 1466.04,456.523 L 1466.04,440.227 L 1352.33,440.227 L 1352.33,456.523 C 1352.33,473.668 1366.21,487.547 1383.34,487.547"
         style="fill:#c81028;fill-opacity:1;fill-rule:nonzero;stroke:none"
         id="path75" /><path
         d="M 1001.41,310.086 L 1001.41,465.824 C 1001.41,492.918 981.188,515.18 955.238,517.996 L 955.238,310.086 L 1001.41,310.086"
         style="fill:#c81028;fill-opacity:1;fill-rule:nonzero;stroke:none"
         id="path77" /><path
         d="M 586.797,517.996 L 586.797,366.41 C 584.16,350.602 557.594,338.59 526.082,340.586 C 491.531,342.785 474.82,355.289 473.867,366.797 L 473.867,516.988 L 427.332,516.988 L 427.332,361.898 C 431.262,325.527 445.684,307.324 525.676,309.75 C 554.809,310.621 572.367,309.895 586.797,331.613 L 586.797,310.086 L 632.965,310.086 L 632.965,465.824 C 632.965,492.918 612.75,515.18 586.797,517.996"
         style="fill:#c81028;fill-opacity:1;fill-rule:nonzero;stroke:none"
         id="path79" /><path
         d="M 2029.08,539.129 C 2029.08,534.543 2025.39,530.871 2020.82,530.871 L 1990.84,530.871 C 1986.27,530.871 1982.56,534.543 1982.56,539.129 L 1982.56,569.109 C 1982.56,573.703 1986.27,577.402 1990.84,577.402 L 2020.82,577.402 C 2025.39,577.402 2029.08,573.703 2029.08,569.109 L 2029.08,539.129"
         style="fill:#c81028;fill-opacity:1;fill-rule:nonzero;stroke:none"
         id="path81" /><path
         d="M 2028.74,310.086 L 2028.74,465.824 C 2028.74,492.918 2008.53,515.18 1982.56,517.996 L 1982.56,310.086 L 2028.74,310.086"
         style="fill:#c81028;fill-opacity:1;fill-rule:nonzero;stroke:none"
         id="path83" /></g></g></svg>