<?xml version="1.0" encoding="UTF-8" standalone="no"?>
<svg
   xmlns:dc="http://purl.org/dc/elements/1.1/"
   xmlns:cc="http://creativecommons.org/ns#"
   xmlns:rdf="http://www.w3.org/1999/02/22-rdf-syntax-ns#"
   xmlns:svg="http://www.w3.org/2000/svg"
   xmlns="http://www.w3.org/2000/svg"
   xmlns:sodipodi="http://sodipodi.sourceforge.net/DTD/sodipodi-0.dtd"
   xmlns:inkscape="http://www.inkscape.org/namespaces/inkscape"
   width="1000"
   height="600"
   id="svg2"
   sodipodi:version="0.32"
   inkscape:version="0.46"
   sodipodi:docname="LogoLinux.svg"
   inkscape:output_extension="org.inkscape.output.svg.inkscape"
   version="1.0"
   inkscape:export-filename="/home/sebas/Desktop/new_latin/sitio/images/latinwit_logo.png"
   inkscape:export-xdpi="24.309999"
   inkscape:export-ydpi="24.309999">
  <sodipodi:namedview
     inkscape:window-height="724"
     inkscape:window-width="1280"
     inkscape:pageshadow="2"
     inkscape:pageopacity="0.0"
     guidetolerance="10.0"
     gridtolerance="10.0"
     objecttolerance="10.0"
     borderopacity="1.0"
     bordercolor="#666666"
     pagecolor="#ffffff"
     id="base"
     showgrid="false"
     inkscape:zoom="1.444379"
     inkscape:cx="367.03663"
     inkscape:cy="395.57086"
     inkscape:window-x="0"
     inkscape:window-y="25"
     inkscape:current-layer="svg2"
     showguides="true"
     inkscape:guide-bbox="true" />
  <metadata
     id="metadata23">
    <rdf:RDF>
      <cc:Work
         rdf:about="">
        <dc:format>image/svg+xml</dc:format>
        <dc:type
           rdf:resource="http://purl.org/dc/dcmitype/StillImage" />
      </cc:Work>
    </rdf:RDF>
  </metadata>
  <defs
     id="defs4">
    <inkscape:perspective
       id="perspective25"
       inkscape:persp3d-origin="40.189602 : 27.906832 : 1"
       inkscape:vp_z="80.379204 : 41.860249 : 1"
       inkscape:vp_y="0 : 1000 : 0"
       inkscape:vp_x="0 : 41.860249 : 1"
       sodipodi:type="inkscape:persp3d" />
    <marker
       orient="auto"
       markerHeight="3"
       markerWidth="4"
       markerUnits="strokeWidth"
       refY="5"
       refX="0"
       viewBox="0 0 10 10"
       id="ArrowEnd">
      <path
         id="path7"
         d="M 0,0 L 10,5 L 0,10 L 0,0 z" />
    </marker>
    <marker
       orient="auto"
       markerHeight="3"
       markerWidth="4"
       markerUnits="strokeWidth"
       refY="5"
       refX="10"
       viewBox="0 0 10 10"
       id="ArrowStart">
      <path
         id="path10"
         d="M 10,0 L 0,5 L 10,10 L 10,0 z" />
    </marker>
  </defs>
  <g
     inkscape:export-ydpi="30.418158"
     inkscape:export-xdpi="30.418158"
     inkscape:export-filename="/home/sebas/Desktop/new_latin/sitio/images/latinwit_logo.png"
     style="fill:#006ac9;fill-opacity:1"
     transform="matrix(1.9782688,0,0,1.9782688,0,-1.4461303)"
     id="g14">
    <path
       style="fill:#006ac9;fill-opacity:1;stroke:none"
       d="M 0,65.3236 L 26.4409,65.3236 L 26.4409,62.1816 L 2.6441,62.1816 L 2.6441,50.4453 L 11.9719,50.4453 L 11.9719,54.6038 L 6.61023,54.6038 L 6.61023,57.9307 L 14.616,57.9307 L 14.616,32.1478 L 6.02267,32.1478 L 6.02267,42.4979 L 8.59332,42.4979 L 8.59332,35.4746 L 12.1188,35.3822 L 12.0453,47.0261 L 2.6441,47.0261 L 2.6441,28.0816 L 8.59332,28.0816 L 8.59332,12.8336 L 11.9719,12.8336 L 11.9719,20.319 L 14.616,20.319 L 14.616,9.69165 L 6.02267,9.69165 L 6.02267,24.7548 L 2.71753,24.7548 L 2.6441,5.25586 L 17.9945,5.25586 L 17.9945,20.319 L 32.2432,20.319 L 32.3167,16.9922 L 20.712,16.9922 L 20.6385,1.92908 L 0,1.92908 L 0,65.3236 z"
       id="path16" />
    <path
       style="fill:#006ac9;fill-opacity:1;stroke:none"
       d="M 29.9663,65.3236 L 44.4354,65.3236 L 44.4354,1.92908 L 24.0172,1.92908 L 24.0172,12.8336 L 35.8421,12.8336 L 35.8421,24.5699 L 11.9719,24.5699 L 11.9719,27.8968 L 17.8476,27.8968 L 17.9211,42.8676 L 23.8702,42.8676 L 23.8702,54.6963 L 20.712,54.6963 L 20.6385,47.5806 L 17.9945,47.5806 L 17.9945,57.9307 L 26.5143,57.9307 L 26.5143,43.0524 L 35.9156,43.0524 L 35.9156,57.9307 L 38.4862,57.9307 L 38.4862,39.7255 L 20.712,39.7255 L 20.6385,27.9892 L 38.4862,28.0816 L 38.4862,9.69165 L 26.6613,9.69165 L 26.6613,5.25586 L 41.7913,5.25586 L 41.7913,32.1478 L 24.5313,32.1478 L 24.5313,35.2897 L 41.7913,35.2897 L 41.7913,61.9968 L 32.6104,61.9968 L 32.6104,47.5806 L 29.9663,47.5806 L 29.9663,65.3236 z"
       id="path18" />
  </g>
  <path
     inkscape:export-ydpi="30.418158"
     inkscape:export-xdpi="30.418158"
     inkscape:export-filename="/home/sebas/Desktop/new_latin/sitio/images/latinwit_logo.png"
     style="fill:#fcc40f;fill-opacity:1;stroke:#000000;stroke-width:0.61684602"
     d="M 95.859389,34.657275 L 95.859191,1.7866774 L 107.44492,1.7869148 C 108.11219,6.0931312 107.78696,20.563891 107.24037,23.384111 L 112.20721,28.01504 C 118.98021,22.752449 122.30152,20.355777 125.55815,18.866338 C 129.06166,22.53029 130.94042,24.30994 133.75926,29.551759 C 130.40095,34.112658 125.02916,37.396782 120.783,40.317696 C 126.3544,53.216404 116.00351,66.715715 103.27117,70.163639 C 102.90242,71.923903 103.20767,76.510717 104.39384,77.34159 C 120.23839,78.988103 133.63997,68.00337 140.77005,55.940678 C 147.74226,57.18402 153.08042,60.439657 155.77878,66.957261 C 144.79325,82.252642 140.34175,91.006482 106.78893,97.690063 L 107.91773,107.58339 C 140.13621,116.36789 147.77252,132.41956 154.87589,160.94283 L 133.65441,160.90802 C 132.54282,134.0004 103.91925,126.42679 95.859191,127.60307 L 95.859191,55.590327 C 110.03744,53.261113 110.74012,35.864217 95.859389,34.657275 z"
     id="path20" />
  <text
     inkscape:export-ydpi="30.418158"
     inkscape:export-xdpi="30.418158"
     inkscape:export-filename="/home/sebas/Desktop/new_latin/sitio/images/latinwit_logo.png"
     sodipodi:linespacing="125%"
     id="text2398"
     y="127.3044"
     x="174.20221"
     style="font-size:129.65480042px;font-style:normal;font-variant:normal;font-weight:normal;font-stretch:normal;text-align:start;line-height:125%;writing-mode:lr-tb;text-anchor:start;opacity:1;fill:#716aa2;fill-opacity:1;stroke:#000000;stroke-width:0.5;stroke-linecap:butt;stroke-linejoin:miter;stroke-miterlimit:4;stroke-dasharray:none;stroke-opacity:1;font-family:AustereBlackCapsSSK;-inkscape-font-specification:AustereBlackCapsSSK"
     xml:space="preserve"><tspan
       style="stroke:#000000;stroke-width:0.5;stroke-miterlimit:4;stroke-dasharray:none;stroke-opacity:1"
       y="127.3044"
       x="174.20221"
       id="tspan2400"
       sodipodi:role="line"><tspan
         id="tspan2395"
         style="fill:#006ac9;fill-opacity:1;stroke:#000000;stroke-width:0.5;stroke-miterlimit:4;stroke-dasharray:none;stroke-opacity:1">L</tspan><tspan
         id="tspan2389"
         style="font-size:101.37783813px;fill:#006ac9;fill-opacity:1;stroke:#000000;stroke-width:0.5;stroke-miterlimit:4;stroke-dasharray:none;stroke-opacity:1">atin</tspan><tspan
         id="tspan2393"
         style="fill:#fcc40f;fill-opacity:1;stroke:#000000;stroke-width:0.5;stroke-miterlimit:4;stroke-dasharray:none;stroke-opacity:1">W</tspan><tspan
         id="tspan2391"
         style="font-size:101.37783813px;fill:#fcc40f;fill-opacity:1;stroke:#000000;stroke-width:0.5;stroke-miterlimit:4;stroke-dasharray:none;stroke-opacity:1">it</tspan></tspan></text>
  <g
     id="g2392"
     transform="matrix(1.9782688,0,0,1.9782688,2.0770172,184.79308)"
     style="fill:#000000;fill-opacity:1"
     inkscape:export-filename="/home/sebas/Desktop/new_latin/sitio/images/latinwit_logo.png"
     inkscape:export-xdpi="30.418158"
     inkscape:export-ydpi="30.418158">
    <path
       id="path2394"
       d="M 0,65.3236 L 26.4409,65.3236 L 26.4409,62.1816 L 2.6441,62.1816 L 2.6441,50.4453 L 11.9719,50.4453 L 11.9719,54.6038 L 6.61023,54.6038 L 6.61023,57.9307 L 14.616,57.9307 L 14.616,32.1478 L 6.02267,32.1478 L 6.02267,42.4979 L 8.59332,42.4979 L 8.59332,35.4746 L 12.1188,35.3822 L 12.0453,47.0261 L 2.6441,47.0261 L 2.6441,28.0816 L 8.59332,28.0816 L 8.59332,12.8336 L 11.9719,12.8336 L 11.9719,20.319 L 14.616,20.319 L 14.616,9.69165 L 6.02267,9.69165 L 6.02267,24.7548 L 2.71753,24.7548 L 2.6441,5.25586 L 17.9945,5.25586 L 17.9945,20.319 L 32.2432,20.319 L 32.3167,16.9922 L 20.712,16.9922 L 20.6385,1.92908 L 0,1.92908 L 0,65.3236 z"
       style="fill:#000000;fill-opacity:1;stroke:none" />
    <path
       id="path2396"
       d="M 29.9663,65.3236 L 44.4354,65.3236 L 44.4354,1.92908 L 24.0172,1.92908 L 24.0172,12.8336 L 35.8421,12.8336 L 35.8421,24.5699 L 11.9719,24.5699 L 11.9719,27.8968 L 17.8476,27.8968 L 17.9211,42.8676 L 23.8702,42.8676 L 23.8702,54.6963 L 20.712,54.6963 L 20.6385,47.5806 L 17.9945,47.5806 L 17.9945,57.9307 L 26.5143,57.9307 L 26.5143,43.0524 L 35.9156,43.0524 L 35.9156,57.9307 L 38.4862,57.9307 L 38.4862,39.7255 L 20.712,39.7255 L 20.6385,27.9892 L 38.4862,28.0816 L 38.4862,9.69165 L 26.6613,9.69165 L 26.6613,5.25586 L 41.7913,5.25586 L 41.7913,32.1478 L 24.5313,32.1478 L 24.5313,35.2897 L 41.7913,35.2897 L 41.7913,61.9968 L 32.6104,61.9968 L 32.6104,47.5806 L 29.9663,47.5806 L 29.9663,65.3236 z"
       style="fill:#000000;fill-opacity:1;stroke:none" />
  </g>
  <path
     id="path2398"
     d="M 97.936406,220.89648 L 97.936208,188.02588 L 109.52194,188.02612 C 110.18921,192.33234 109.86398,206.8031 109.31739,209.62332 L 114.28423,214.25425 C 121.05723,208.99166 124.37854,206.59498 127.63517,205.10555 C 131.13868,208.7695 133.01744,210.54915 135.83628,215.79097 C 132.47797,220.35187 127.10618,223.63599 122.86002,226.5569 C 128.43142,239.45561 118.08053,252.95492 105.34819,256.40285 C 104.97944,258.16311 105.28469,262.74992 106.47086,263.5808 C 122.31541,265.22731 135.71699,254.24258 142.84707,242.17989 C 149.81928,243.42323 155.15744,246.67886 157.8558,253.19647 C 146.87027,268.49185 142.41877,277.24569 108.86595,283.92927 L 109.99475,293.8226 C 142.21323,302.6071 149.84954,318.65877 156.95291,347.18204 L 135.73143,347.14723 C 134.61984,320.23961 105.99627,312.666 97.936208,313.84228 L 97.936208,241.82953 C 112.11446,239.50032 112.81714,222.10342 97.936406,220.89648 z"
     style="fill:#000000;fill-opacity:1;stroke:#000000;stroke-width:0.61684601999999999"
     inkscape:export-filename="/home/sebas/Desktop/new_latin/sitio/images/latinwit_logo.png"
     inkscape:export-xdpi="30.418158"
     inkscape:export-ydpi="30.418158" />
  <text
     xml:space="preserve"
     style="font-size:129.65480041999995819px;font-style:normal;font-variant:normal;font-weight:normal;font-stretch:normal;text-align:start;line-height:125%;writing-mode:lr-tb;text-anchor:start;opacity:1;fill:#000000;fill-opacity:1;stroke:#000000;stroke-width:0.50000000000000000;stroke-linecap:butt;stroke-linejoin:miter;stroke-miterlimit:4;stroke-dasharray:none;stroke-opacity:1;font-family:AustereBlackCapsSSK;-inkscape-font-specification:AustereBlackCapsSSK"
     x="176.27922"
     y="313.54361"
     id="text2400"
     sodipodi:linespacing="125%"
     inkscape:export-filename="/home/sebas/Desktop/new_latin/sitio/images/latinwit_logo.png"
     inkscape:export-xdpi="30.418158"
     inkscape:export-ydpi="30.418158"><tspan
       sodipodi:role="line"
       id="tspan2402"
       x="176.27922"
       y="313.54361"
       style="stroke:#000000;stroke-width:0.50000000000000000;stroke-miterlimit:4;stroke-dasharray:none;stroke-opacity:1;fill:#000000"><tspan
         style="fill:#000000;fill-opacity:1;stroke:#000000;stroke-width:0.50000000000000000;stroke-miterlimit:4;stroke-dasharray:none;stroke-opacity:1"
         id="tspan2404">L</tspan><tspan
         style="font-size:101.37783813000000066px;fill:#000000;fill-opacity:1;stroke:#000000;stroke-width:0.50000000000000000;stroke-miterlimit:4;stroke-dasharray:none;stroke-opacity:1"
         id="tspan2406">atin</tspan><tspan
         style="fill:#000000;fill-opacity:1;stroke:#000000;stroke-width:0.50000000000000000;stroke-miterlimit:4;stroke-dasharray:none;stroke-opacity:1"
         id="tspan2408">W</tspan><tspan
         style="font-size:101.37783813000000066px;fill:#000000;fill-opacity:1;stroke:#000000;stroke-width:0.50000000000000000;stroke-miterlimit:4;stroke-dasharray:none;stroke-opacity:1"
         id="tspan2410">it</tspan></tspan></text>
</svg>
