<?xml version="1.0" encoding="UTF-8" standalone="no"?>
<!-- Created with Inkscape (http://www.inkscape.org/) -->
<svg
   xmlns:dc="http://purl.org/dc/elements/1.1/"
   xmlns:cc="http://creativecommons.org/ns#"
   xmlns:rdf="http://www.w3.org/1999/02/22-rdf-syntax-ns#"
   xmlns:svg="http://www.w3.org/2000/svg"
   xmlns="http://www.w3.org/2000/svg"
   xmlns:xlink="http://www.w3.org/1999/xlink"
   xmlns:sodipodi="http://sodipodi.sourceforge.net/DTD/sodipodi-0.dtd"
   xmlns:inkscape="http://www.inkscape.org/namespaces/inkscape"
   width="2400"
   height="1000"
   id="svg2"
   version="1.0"
   inkscape:version="0.46"
   sodipodi:docname="DebConf10logo-web_header.svg"
   inkscape:output_extension="org.inkscape.output.svg.inkscape"
   sodipodi:version="0.32">
  <defs
     id="defs4">
    <linearGradient
       id="linearGradient3199">
      <stop
         id="stop3201"
         offset="0"
         style="stop-color:#dfdfdf;stop-opacity:0;" />
      <stop
         style="stop-color:#dfdfdf;stop-opacity:0.87450981;"
         offset="0.11783489"
         id="stop3207" />
      <stop
         style="stop-color:#dfdfdf;stop-opacity:0.87450981;"
         offset="0.86487538"
         id="stop3205" />
      <stop
         id="stop3203"
         offset="1"
         style="stop-color:#dfdfdf;stop-opacity:0;" />
    </linearGradient>
    <inkscape:perspective
       sodipodi:type="inkscape:persp3d"
       inkscape:vp_x="0 : 526.18109 : 1"
       inkscape:vp_y="0 : 1000 : 0"
       inkscape:vp_z="744.09448 : 526.18109 : 1"
       inkscape:persp3d-origin="372.04724 : 350.78739 : 1"
       id="perspective10" />
    <inkscape:perspective
       id="perspective2905"
       inkscape:persp3d-origin="0.5 : 0.33333333 : 1"
       inkscape:vp_z="1 : 0.5 : 1"
       inkscape:vp_y="0 : 1000 : 0"
       inkscape:vp_x="0 : 0.5 : 1"
       sodipodi:type="inkscape:persp3d" />
    <inkscape:perspective
       sodipodi:type="inkscape:persp3d"
       inkscape:vp_x="0 : 0.5 : 1"
       inkscape:vp_y="0 : 1000 : 0"
       inkscape:vp_z="1 : 0.5 : 1"
       inkscape:persp3d-origin="0.5 : 0.33333333 : 1"
       id="perspective4139" />
    <inkscape:perspective
       id="perspective4194"
       inkscape:persp3d-origin="372.04724 : 350.78739 : 1"
       inkscape:vp_z="744.09448 : 526.18109 : 1"
       inkscape:vp_y="0 : 1000 : 0"
       inkscape:vp_x="0 : 526.18109 : 1"
       sodipodi:type="inkscape:persp3d" />
    <inkscape:perspective
       id="perspective3980"
       inkscape:persp3d-origin="0.5 : 0.33333333 : 1"
       inkscape:vp_z="1 : 0.5 : 1"
       inkscape:vp_y="0 : 1000 : 0"
       inkscape:vp_x="0 : 0.5 : 1"
       sodipodi:type="inkscape:persp3d" />
    <inkscape:perspective
       id="perspective4002"
       inkscape:persp3d-origin="0.5 : 0.33333333 : 1"
       inkscape:vp_z="1 : 0.5 : 1"
       inkscape:vp_y="0 : 1000 : 0"
       inkscape:vp_x="0 : 0.5 : 1"
       sodipodi:type="inkscape:persp3d" />
    <inkscape:perspective
       id="perspective4026"
       inkscape:persp3d-origin="0.5 : 0.33333333 : 1"
       inkscape:vp_z="1 : 0.5 : 1"
       inkscape:vp_y="0 : 1000 : 0"
       inkscape:vp_x="0 : 0.5 : 1"
       sodipodi:type="inkscape:persp3d" />
    <inkscape:perspective
       id="perspective4064"
       inkscape:persp3d-origin="0.5 : 0.33333333 : 1"
       inkscape:vp_z="1 : 0.5 : 1"
       inkscape:vp_y="0 : 1000 : 0"
       inkscape:vp_x="0 : 0.5 : 1"
       sodipodi:type="inkscape:persp3d" />
    <inkscape:perspective
       id="perspective4088"
       inkscape:persp3d-origin="0.5 : 0.33333333 : 1"
       inkscape:vp_z="1 : 0.5 : 1"
       inkscape:vp_y="0 : 1000 : 0"
       inkscape:vp_x="0 : 0.5 : 1"
       sodipodi:type="inkscape:persp3d" />
    <inkscape:perspective
       id="perspective4146"
       inkscape:persp3d-origin="0.5 : 0.33333333 : 1"
       inkscape:vp_z="1 : 0.5 : 1"
       inkscape:vp_y="0 : 1000 : 0"
       inkscape:vp_x="0 : 0.5 : 1"
       sodipodi:type="inkscape:persp3d" />
    <inkscape:perspective
       id="perspective4168"
       inkscape:persp3d-origin="0.5 : 0.33333333 : 1"
       inkscape:vp_z="1 : 0.5 : 1"
       inkscape:vp_y="0 : 1000 : 0"
       inkscape:vp_x="0 : 0.5 : 1"
       sodipodi:type="inkscape:persp3d" />
    <inkscape:perspective
       id="perspective4247"
       inkscape:persp3d-origin="0.5 : 0.33333333 : 1"
       inkscape:vp_z="1 : 0.5 : 1"
       inkscape:vp_y="0 : 1000 : 0"
       inkscape:vp_x="0 : 0.5 : 1"
       sodipodi:type="inkscape:persp3d" />
    <inkscape:perspective
       id="perspective2974"
       inkscape:persp3d-origin="0.5 : 0.33333333 : 1"
       inkscape:vp_z="1 : 0.5 : 1"
       inkscape:vp_y="0 : 1000 : 0"
       inkscape:vp_x="0 : 0.5 : 1"
       sodipodi:type="inkscape:persp3d" />
    <linearGradient
       inkscape:collect="always"
       xlink:href="#linearGradient3199"
       id="linearGradient3197"
       x1="-23.405121"
       y1="498.6214"
       x2="2459.0359"
       y2="498.6214"
       gradientUnits="userSpaceOnUse" />
  </defs>
  <sodipodi:namedview
     id="base"
     pagecolor="#ffffff"
     bordercolor="#666666"
     borderopacity="1.0"
     inkscape:pageopacity="0.0"
     inkscape:pageshadow="2"
     inkscape:zoom="0.39291667"
     inkscape:cx="97.968734"
     inkscape:cy="500"
     inkscape:document-units="px"
     inkscape:current-layer="layer1"
     showgrid="false"
     inkscape:window-width="1024"
     inkscape:window-height="708"
     inkscape:window-x="-5"
     inkscape:window-y="-3"
     inkscape:window-maximized="1"
     showguides="true"
     inkscape:guide-bbox="true" />
  <metadata
     id="metadata7">
    <rdf:RDF>
      <cc:Work
         rdf:about="">
        <dc:format>image/svg+xml</dc:format>
        <dc:type
           rdf:resource="http://purl.org/dc/dcmitype/StillImage" />
        <dc:title />
      </cc:Work>
    </rdf:RDF>
  </metadata>
  <g
     inkscape:label="Camada 1"
     inkscape:groupmode="layer"
     id="layer1"
     transform="translate(2281.606,-221.48463)">
    <rect
       style="fill:url(#linearGradient3197);fill-opacity:1;stroke:#000000;stroke-width:0.99900001000000005;stroke-miterlimit:4;stroke-dasharray:none;stroke-opacity:1"
       id="rect2419"
       width="2481.4421"
       height="1099.4697"
       x="-22.905621"
       y="-51.113468"
       transform="translate(-2281.606,221.48463)" />
    <g
       id="g2403"
       transform="translate(345.18975,94.960775)">
      <path
         id="path2919"
         d="M -2118.3185,715.90905 C -2121.0168,715.90905 -2124.7696,716.73775 -2123.6512,717.40888 C -2122.1598,718.30361 -2124.5581,719.8121 -2121.8736,720.40853 C -2119.1893,721.0051 -2116.2077,722.49166 -2116.2077,722.49166 L -2122.0679,723.5193 C -2125.365,722.61566 -2132.687,720.63819 -2134.9835,720.40853 C -2137.9658,720.11037 -2141.8436,722.79716 -2141.8436,722.79716 C -2141.8436,722.79716 -2145.4365,718.30361 -2148.1206,717.40888 C -2148.4575,717.29699 -2148.7591,717.24614 -2149.0651,717.2421 C -2151.206,717.2151 -2152.5925,719.49183 -2152.5925,719.49183 C -2152.5925,719.49183 -2154.6988,723.68583 -2156.7864,723.68583 C -2158.8742,723.68583 -2165.3964,725.18566 -2165.3964,725.18566 C -2165.3964,725.18566 -2169.0025,721.60864 -2171.0903,720.71394 C -2173.178,719.8191 -2175.562,720.71394 -2175.562,720.71394 C -2175.562,720.71394 -2176.1499,721.61126 -2174.0621,723.10254 C -2171.9745,724.59385 -2174.0621,726.68549 -2174.0621,726.68549 C -2174.0621,726.68549 -2174.6612,726.65019 -2176.4508,726.35228 C -2178.2405,726.05411 -2180.617,726.96331 -2180.617,726.96331 C -2180.617,726.96331 -2180.651,725.79551 -2182.4226,724.60246 C -2184.2119,723.40947 -2186.2796,723.39487 -2189.5603,723.99145 C -2192.8413,724.58801 -2184.5053,729.65749 -2184.5053,729.65749 C -2184.5053,729.65749 -2187.1744,728.14435 -2189.5603,728.74091 C -2191.9468,729.33735 -2184.8001,729.96081 -2180.9227,734.43472 C -2177.0452,738.90859 -2178.8335,743.07046 -2179.7283,747.54435 C -2180.6231,752.01826 -2184.7991,759.76055 -2186.5886,761.84832 C -2188.1008,763.61256 -2186.9019,765.10264 -2186.4767,765.54231 C -2161.6638,763.27991 -2136.4753,762.36349 -2111.152,762.40379 C -2085.559,762.44419 -2059.8004,763.45657 -2034.1052,764.98682 C -2033.6729,764.2702 -2033.3313,763.10765 -2034.4118,761.84832 C -2036.2011,759.76055 -2040.3771,752.01826 -2041.2719,747.54435 C -2042.1667,743.07046 -2043.9827,738.90859 -2040.1055,734.43472 C -2036.2281,729.96081 -2029.0534,729.33735 -2031.4399,728.74091 C -2033.8258,728.14435 -2036.5225,729.65749 -2036.5225,729.65749 C -2036.5225,729.65749 -2028.159,724.58801 -2031.4399,723.99145 C -2034.7203,723.39487 -2036.816,723.40947 -2038.6056,724.60246 C -2040.3953,725.79551 -2040.3832,726.96331 -2040.3832,726.96331 C -2040.3832,726.96331 -2042.7877,726.05408 -2044.5771,726.35228 C -2046.3667,726.65045 -2046.9658,726.68549 -2046.9658,726.68549 C -2046.9658,726.68549 -2049.0536,724.59385 -2046.9658,723.10254 C -2044.8779,721.61126 -2045.4658,720.71394 -2045.4658,720.71394 C -2045.4658,720.71394 -2047.8499,719.8191 -2049.9376,720.71394 C -2052.0254,721.60864 -2055.6038,725.18566 -2055.6038,725.18566 C -2055.6038,725.18566 -2062.1536,723.68583 -2064.2415,723.68583 C -2066.3293,723.68583 -2068.4078,719.49183 -2068.4078,719.49183 C -2068.4078,719.49183 -2069.7942,717.21357 -2071.9353,717.2421 C -2072.2419,717.2521 -2072.544,717.2968 -2072.8797,717.40888 C -2075.5637,718.30361 -2079.1566,722.79716 -2079.1566,722.79716 C -2079.1566,722.79716 -2083.0341,720.11037 -2086.0167,720.40853 C -2087.6505,720.57192 -2091.8006,721.62693 -2095.2936,722.54717 C -2097.4617,721.38749 -2100.657,720.24364 -2105.1536,720.10301 C -2111.3424,719.90964 -2112.5379,720.73177 -2112.5975,721.3251 C -2113.1654,720.11821 -2114.7539,716.96938 -2116.2081,716.24235 C -2116.6555,716.01864 -2117.4193,715.90915 -2118.3189,715.90915 L -2118.3185,715.90905 z M -2109.514,730.12967 C -2106.1384,730.13054 -2102.8745,731.15483 -2100.4039,733.71258 C -2106.0286,739.80331 -2106.8334,745.86986 -2108.014,751.96057 C -2110.3886,745.12006 -2110.9415,737.76681 -2119.374,732.65718 C -2116.3859,731.12908 -2112.8898,730.12835 -2109.514,730.12967 L -2109.514,730.12967 z M -2138.7049,730.57409 C -2135.3294,730.57318 -2131.833,731.60127 -2128.8452,733.12935 C -2137.2775,738.23898 -2137.8579,745.59225 -2140.2328,752.43273 C -2141.4134,746.342 -2142.1906,740.24768 -2147.8151,734.15701 C -2145.3444,731.59935 -2142.0808,730.5754 -2138.7049,730.57409 z M -2081.4061,731.15735 C -2077.7109,731.13035 -2074.151,732.32538 -2071.6569,735.37908 C -2077.4497,741.09509 -2078.6111,747.12234 -2080.1282,753.12707 C -2081.9846,746.14265 -2082.0563,738.7515 -2089.8494,733.10156 C -2087.2506,731.93645 -2084.2801,731.17919 -2081.4061,731.15735 z M -2162.0637,732.76825 C -2160.1002,732.78855 -2158.2205,733.54072 -2156.6198,734.71247 C -2162.8171,740.39434 -2163.9753,747.7974 -2166.3131,754.82136 C -2166.4346,748.78273 -2166.2761,742.73828 -2169.3683,736.99003 C -2167.1945,733.91908 -2164.5886,732.73999 -2162.0637,732.76825 L -2162.0637,732.76825 z M -2058.6029,733.51818 C -2056.0785,733.49118 -2053.4442,734.66898 -2051.2705,737.73993 C -2054.3615,743.48817 -2054.2328,749.53256 -2054.3535,755.57125 C -2056.6914,748.54733 -2057.8775,741.14427 -2064.0748,735.4624 C -2062.4738,734.29073 -2060.5669,733.54015 -2058.6029,733.51818 L -2058.6029,733.51818 z M -2124.901,736.49007 C -2118.1258,739.65149 -2107.7023,759.58623 -2123.4566,759.26528 C -2138.3563,759.92958 -2133.6411,743.08934 -2124.901,736.49007 z M -2094.8768,736.68447 C -2088.1012,739.84602 -2077.6783,759.78066 -2093.4324,759.45971 C -2108.3318,760.12408 -2103.6166,743.28383 -2094.8768,736.68447 L -2094.8768,736.68447 z M -2151.7868,738.32319 C -2146.029,741.48934 -2139.1103,761.47543 -2153.3981,761.15394 C -2167.0342,761.81931 -2160.581,744.93231 -2151.7868,738.32319 z M -2068.8518,738.93423 C -2060.0578,745.54336 -2053.6325,762.43026 -2067.2686,761.765 C -2081.5564,762.08641 -2074.6096,742.10036 -2068.8518,738.93423 z M -2172.0626,742.01721 C -2169.8487,744.56308 -2168.6172,760.60698 -2174.7844,760.3485 C -2180.7572,760.88353 -2176.4674,747.33149 -2172.0626,742.01721 z M -2049.0485,743.37817 C -2044.6434,748.69243 -2040.3538,762.21663 -2046.3266,761.68169 C -2052.4938,761.94009 -2051.262,745.92403 -2049.0485,743.37817 z M -2111.1527,763.82032 C -2136.8874,763.77782 -2162.4579,764.75067 -2187.644,767.09774 C -2188.047,767.69892 -2188.3384,768.44517 -2188.0884,769.31973 C -2187.6972,770.68857 -2186.1637,771.66793 -2185.1446,772.18051 C -2160.7615,770.00606 -2136.0236,769.11347 -2111.1527,769.15306 C -2085.8547,769.19316 -2060.3951,770.17984 -2034.9946,771.68058 C -2034.1227,771.12541 -2033.2005,770.33097 -2032.9114,769.31973 C -2032.556,768.07598 -2033.2838,767.06478 -2033.9113,766.43115 C -2059.6886,764.89217 -2085.4969,763.86265 -2111.1527,763.82032 L -2111.1527,763.82032 z M -2111.1527,770.59733 C -2135.628,770.55693 -2159.9613,771.41228 -2183.9501,773.51367 C -2183.4838,775.09477 -2182.4768,778.26483 -2181.8114,779.15195 C -2180.9166,780.34495 -2184.2164,779.48178 -2173.479,782.76266 C -2162.7416,786.04343 -2151.3884,782.44631 -2148.7041,785.429 C -2147.1844,787.11727 -2145.679,790.12285 -2144.6488,792.4282 L -2144.5369,794.26138 C -2133.4464,793.20209 -2122.3157,792.7406 -2111.152,792.78927 C -2099.8578,792.83817 -2088.5207,793.44197 -2077.1837,794.42802 C -2076.3124,792.29253 -2074.3189,787.67766 -2072.2951,785.429 C -2069.6109,782.44643 -2058.2853,786.04343 -2047.5479,782.76266 C -2036.8109,779.48178 -2040.0827,780.34495 -2039.1877,779.15195 C -2038.4005,778.1023 -2037.199,774.0282 -2036.9103,773.01372 C -2061.6919,771.57444 -2086.4899,770.63802 -2111.152,770.59733 L -2111.1527,770.59733 z M -2110.8461,796.70554 C -2112.5906,796.69554 -2114.3244,796.71834 -2116.0676,796.73254 C -2126.9855,796.82954 -2137.8667,797.43588 -2148.7029,798.62123 C -2150.4608,800.22264 -2151.5915,802.51576 -2151.5915,805.09273 C -2151.5915,808.6436 -2149.5003,811.68267 -2146.4809,813.06404 C -2136.3789,812.03637 -2126.2336,811.49 -2116.0676,811.39758 C -2114.4285,811.38478 -2112.7922,811.38758 -2111.1517,811.39758 C -2099.5771,811.44808 -2087.9689,812.03714 -2076.3501,813.06404 C -2073.3213,811.68645 -2071.2116,808.65027 -2071.2116,805.09273 C -2071.2116,802.505 -2072.3293,800.19558 -2074.1002,798.59344 C -2086.3662,797.45164 -2098.634,796.773 -2110.8461,796.70478 L -2110.8461,796.70554 z M -2111.5404,815.31453 C -2113.0474,815.30853 -2114.5616,815.33133 -2116.0676,815.34153 C -2125.0581,815.42143 -2134.0444,815.84006 -2142.9813,816.64693 L -2133.6769,949.79864 C -2127.5742,949.61259 -2121.4417,949.49878 -2115.318,949.49302 C -2110.4075,949.49302 -2105.4896,949.55692 -2100.5694,949.65942 C -2096.7623,949.73932 -2092.9385,949.85395 -2089.1261,949.99269 L -2079.8216,816.70215 C -2090.4161,815.84505 -2100.9907,815.35056 -2111.5404,815.3134 L -2111.5404,815.31453 z M -2115.3456,951.54933 C -2121.5475,951.54933 -2127.7486,951.66282 -2133.9269,951.85479 C -2135.5528,952.38195 -2136.732,953.88207 -2136.732,955.68764 C -2136.732,957.47291 -2135.5787,958.98006 -2133.9825,959.52065 C -2127.8309,959.32932 -2121.6576,959.22078 -2115.4844,959.21503 C -2110.5742,959.21503 -2105.6843,959.25183 -2100.7637,959.35409 C -2097.0342,959.43079 -2093.3055,959.55182 -2089.5705,959.6872 C -2087.5989,959.41163 -2086.0709,957.73825 -2086.0709,955.6878 C -2086.0709,954.10201 -2086.9999,952.74479 -2088.3209,952.07697 C -2097.3444,951.73731 -2106.3574,951.54262 -2115.3456,951.54933 z M -2115.541,961.27043 L -2132.8445,961.88135 C -2135.4549,962.42289 -2137.3998,964.74428 -2137.3998,967.51961 C -2137.3998,969.84179 -2136.0413,971.81024 -2134.0668,972.71351 C -2131.115,972.66871 -2128.1627,972.63361 -2125.2066,972.63041 C -2120.2964,972.63041 -2115.3786,972.66721 -2110.4583,972.76947 C -2103.9118,972.90534 -2097.3542,973.15421 -2090.7938,973.46383 L -2090.7598,973.21383 C -2087.7581,973.01947 -2085.3992,970.57245 -2085.3992,967.52011 C -2085.3992,964.74478 -2087.3438,962.42323 -2089.9542,961.88185 L -2089.9542,961.71529 C -2098.4915,961.41048 -2107.0295,961.26454 -2115.5345,961.27093 L -2115.541,961.27043 z M -2125.2342,974.68548 C -2127.4666,974.68548 -2129.6983,974.68548 -2131.9279,974.71268 L -2130.3172,998.18232 C -2130.3172,999.92347 -2129.2293,1001.3871 -2127.7062,1001.9875 C -2117.9613,1001.4966 -2108.1852,1001.2465 -2098.3763,1001.2375 C -2096.8849,1001.2375 -2095.3974,1001.2585 -2093.9045,1001.2645 C -2093.0367,1000.5111 -2092.4878,999.3974 -2092.4878,998.15367 L -2090.9047,975.48947 C -2102.3674,974.95208 -2113.8251,974.67524 -2125.2342,974.68403 L -2125.2342,974.68548 z M -2098.404,1003.3212 C -2107.8236,1003.3372 -2117.2064,1003.5362 -2126.5673,1003.9879 C -2126.2911,1004.1859 -2125.9633,1004.321 -2125.5955,1004.321 L -2125.2888,1004.321 C -2125.9134,1005.944 -2126.2608,1007.7031 -2126.2608,1009.5427 C -2126.2608,1017.6545 -2119.1456,1023.8195 -2111.4014,1028.2906 C -2104.7032,1024.4232 -2096.5418,1017.6545 -2096.5418,1009.5427 C -2096.5418,1007.7031 -2096.8892,1005.944 -2097.5142,1004.321 L -2097.2076,1004.321 C -2096.5223,1004.321 -2095.9448,1003.9051 -2095.68,1003.3212 L -2098.4019,1003.3212 L -2098.404,1003.3212 z"
         style="fill:#3f6c74;fill-opacity:1;fill-rule:nonzero;stroke:none;stroke-width:3;marker:none;visibility:visible;display:inline;overflow:visible;enable-background:accumulate" />
      <path
         id="path3820"
         transform="translate(-2326.3703,32.64984)"
         d="M 244.71875,747.65625 L 243.6875,747.78125 L 243.53125,747.78125 C 243.50125,747.78086 243.4675,747.78125 243.4375,747.78125 C 243.2079,747.78125 243.17995,747.81745 242.96875,747.84375 L 241.96875,747.96875 C 241.96875,747.96875 238.02535,748.36564 235.34375,748.8125 C 233.96305,749.04253 232.5986,749.50671 230.6875,750.125 C 228.7318,750.75772 226.4173,751.54444 224.1875,752.3125 C 219.9287,753.7794 216.35865,755.07878 215.96875,755.21875 L 215.8125,755.21875 L 215.375,755.40625 C 215.375,755.40625 212.5289,756.51536 209.4375,757.90625 C 207.8799,758.60725 206.2986,759.3817 204.875,760.15625 C 203.6487,760.82342 202.2022,761.56259 200.9375,763.0625 L 200.90625,763.03125 C 200.89625,763.03925 200.885,763.02225 200.875,763.03125 C 200.785,763.11185 200.63565,763.23354 200.46875,763.375 C 200.13485,763.65792 199.69,764.04554 199.1875,764.40625 C 198.1095,765.18005 196.67545,766.09828 195.15625,767.0625 C 192.13485,768.98061 188.7753,770.95835 187.125,771.875 L 187.125,771.90625 C 184.771,773.21427 183.42225,775.12661 181.78125,777.21875 C 180.05745,779.41629 178.21055,782.04626 176.46875,784.59375 C 173.12065,789.49059 170.47395,793.71835 170.21875,794.125 C 170.20875,794.133 170.09675,794.30761 170.09375,794.3125 C 168.86585,795.56174 163.4059,801.46049 159.5625,813.375 C 155.6643,825.45911 149.3439,842.45458 145,853.90625 C 142.7643,859.80024 136.7496,876.57004 130.8125,893.09375 C 124.8756,909.61811 118.9791,925.99015 117.3125,930.25 C 115.7983,934.11916 108.6359,949.45952 102.0625,963.25 C 95.4874,977.04385 89.375,989.71875 89.375,989.71875 C 88.1316,992.32885 89.36195,995.27135 92.09375,996.21875 L 92.125,996.21875 C 92.8567,996.46265 93.4898,996.535 93.25,996.5 C 93.5599,996.548 93.82765,996.583 94.15625,996.625 L 94.1875,996.625 C 94.9466,996.718 95.9202,996.813 97.125,996.9375 C 99.5611,997.189 102.9798,997.5086 107.0625,997.8125 C 115.208,998.4187 125.9531,998.98275 136.875,998.90625 C 147.7971,998.83025 158.8473,998.1285 167.8125,996.0625 C 172.2843,995.032 176.2996,993.707 179.625,991.625 C 182.9833,989.5225 185.79435,986.4061 186.53125,982.3125 C 190.01045,962.9833 194.953,922.98839 195.375,919.59375 C 196.8496,918.60902 199.1941,916.94676 201.1875,914.15625 C 202.6056,912.17056 203.9261,909.4529 205.1875,906.875 C 206.4599,904.27581 207.6491,901.70169 207.875,901.25 C 207.6965,901.60656 207.892,901.2199 208,901.03125 C 208.1082,900.8426 208.2476,900.57815 208.4375,900.25 C 208.8172,899.5937 209.3515,898.69165 209.9375,897.6875 C 211.1167,895.66637 212.64535,893.04202 214.28125,890.21875 C 217.55895,884.56321 221.23425,878.15706 223.34375,873.9375 C 224.13265,872.3597 224.70605,871.72403 224.96875,871.53125 C 225.23135,871.33847 225.30145,871.31107 226.03125,871.28125 C 226.94365,871.24355 229.73985,872.02087 233.09375,872.5 C 234.94645,872.76477 235.45585,873.26514 235.84375,873.65625 C 236.07285,873.88735 236.1396,873.99211 236.125,873.96875 C 236.9673,876.07688 239.0472,877.25586 241.3125,876.84375 L 241.3125,876.875 C 241.3125,876.875 241.40425,876.84395 241.40625,876.84375 C 241.56535,876.82165 247.9915,875.92125 252.6875,871.8125 C 255.7198,869.15899 256.3735,865.42469 256.4375,862.65625 C 256.5025,859.87548 255.9819,857.39155 255.8125,856.375 C 255.5748,854.94909 254.9558,853.83268 254.25,852.90625 C 255.4043,852.044 256.5384,851.03519 257.375,849.59375 C 258.4041,847.82048 258.80175,845.90934 259.03125,843.84375 C 259.47115,839.88351 259.6288,834.51912 256.875,829.5625 C 255.8924,827.79382 254.70925,826.41665 253.53125,825.25 C 253.94765,824.78576 254.34,824.36654 254.8125,823.8125 C 255.5786,822.914 256.35505,821.9479 257.03125,821.03125 C 257.53785,820.34497 258.46895,819.2805 258.90625,817.53125 C 259.28805,816.0121 259.0934,814.76425 259,813.90625 L 259,813.875 C 258.8755,812.81977 258.67605,811.74347 258.46875,810.65625 C 258.05105,808.46121 257.54275,806.16362 257.40625,805.34375 C 257.01805,803.00701 255.52715,801.50371 254.59375,800.59375 C 253.49695,799.52493 252.26175,798.57818 250.96875,797.71875 C 249.66835,796.85444 248.3224,796.07709 247,795.46875 C 245.7946,794.91417 244.3073,794.28125 242.4375,794.28125 C 241.8506,794.28125 237.6785,794.08621 233.3125,794.03125 C 228.9566,793.97645 224.11495,793.98755 220.21875,794.71875 C 216.62435,795.39267 212.2052,796.74734 208.125,798.09375 C 208.5765,797.13267 209.0147,796.10516 209.4375,795.125 C 210.0945,793.60113 210.40015,792.81698 210.65625,792.1875 C 211.65425,791.45179 214.8593,789.10712 216.6875,788.0625 C 218.5158,787.01774 222.28355,784.50632 225.90625,782.125 C 229.38725,779.83681 232.2948,777.88697 232.5,777.75 C 232.7625,777.63256 235.22665,776.55485 238.34375,775.09375 C 241.63895,773.54945 245.17725,771.88529 247.34375,770.53125 C 253.02975,766.97754 254.441,759.31903 251.4375,753.3125 C 249.8132,750.06395 247.19005,748.41372 244.71875,747.96875 L 244.71875,747.65625 z"
         style="font-size:medium;font-style:normal;font-variant:normal;font-weight:normal;font-stretch:normal;text-indent:0;text-align:start;text-decoration:none;line-height:normal;letter-spacing:normal;word-spacing:normal;text-transform:none;direction:ltr;block-progression:tb;writing-mode:lr-tb;text-anchor:start;fill:#ffffff;fill-opacity:1;fill-rule:nonzero;stroke:none;stroke-width:5;marker:none;visibility:visible;display:inline;overflow:visible;enable-background:accumulate;font-family:Bitstream Vera Sans;-inkscape-font-specification:Bitstream Vera Sans" />
      <path
         sodipodi:nodetypes="cccccccccccccccccccccccccccccccccccccccccccccccccccccccccccccccccccccccccccccccccccccccccccccccccccccccccccccccccccccccccccccccccccccccccccccccccccccccccccccccccccccccccccccccccccccccccccccccccccccc"
         style="fill:#c18a00;fill-opacity:1;stroke:none"
         d="M -2014.132,221.48887 C -2022.2128,231.52934 -2033.7836,239.56123 -2035.6725,253.23107 C -2036.5874,258.11106 -2036.0117,264.00603 -2037.5609,268.26947 C -2037.0244,266.77366 -2036.7522,262.02955 -2038.3711,264.54449 C -2041.2348,270.14493 -2042.7795,276.99535 -2044.7397,282.63258 C -2041.3285,283.19225 -2040.6679,287.27252 -2042.7944,288.41886 C -2045.1879,293.64743 -2041.937,301.50861 -2046.5233,305.24485 C -2048.7672,309.25592 -2046.4833,314.7177 -2045.6898,319.42612 C -2045.3007,320.98134 -2043.6873,323.3351 -2044.1487,324.39759 C -2046.7262,324.0538 -2044.9674,328.12241 -2044.8442,329.99295 C -2044.2058,336.02355 -2044.9449,343.35953 -2040.2631,348.51797 C -2037.7397,347.31446 -2039.8757,350.75632 -2039.5624,351.60233 C -2039.6564,354.44946 -2036.8118,356.85802 -2034.994,359.08139 C -2033.4876,363.56177 -2033.9465,368.71288 -2029.5232,372.46971 C -2028.6799,370.99838 -2027.682,366.88159 -2025.0911,368.41754 C -2022.2232,373.44746 -2019.6311,380.42024 -2023.6626,383.70958 C -2025.6982,387.39404 -2022.4978,392.9743 -2018.986,396.35207 C -2015.0278,398.57093 -2015.4976,403.3312 -2010.9247,405.23784 C -2007.2429,407.5789 -2004.9202,410.87372 -2003.3971,414.28063 C -1994.5441,426.31963 -1978.8342,433.66895 -1969.5168,445.42364 C -1934.7995,485.30219 -1924.5867,536.75747 -1934.6955,581.96649 C -1941.0899,606.2436 -1954.3905,629.19428 -1974.7353,645.64875 C -1988.7994,659.4157 -2003.343,673.04419 -2020.6852,682.63157 C -2051.1178,700.4372 -2086.8129,709.22368 -2122.0396,706.95948 C -2134.1256,706.79033 -2146.2774,706.71116 -2158.322,706.80827 C -2172.7159,702.70855 -2186.8195,697.51944 -2200.2798,690.95955 C -2200.2798,685.26252 -2207.0953,683.98471 -2211.2547,682.22579 C -2220.038,678.8899 -2227.7352,673.18973 -2234.9976,667.35477 C -2242.3793,660.4716 -2249.1361,652.0658 -2255.7307,644.9976 C -2252.9061,642.47585 -2257.605,640.13069 -2258.7017,637.99076 C -2269.0532,623.23774 -2274.4779,605.35726 -2281.0257,588.12836 C -2276.7139,585.48181 -2280.9747,579.87531 -2280.4867,576.01754 C -2280.7427,574.3451 -2280.9264,571.47351 -2280.2239,570.34297 C -2279.1582,571.98458 -2278.8513,575.62298 -2277.0117,575.69454 C -2277.7288,569.62084 -2275.2942,561.07804 -2275.0415,556.15197 C -2275.0075,557.9626 -2274.9875,561.75318 -2272.8792,561.16925 C -2271.7323,552.1812 -2274.1716,543.62499 -2271.6319,534.43038 C -2275.2109,535.56464 -2273.5366,530.27387 -2272.134,528.34351 C -2267.669,515.03037 -2260.521,502.01875 -2256.0795,488.71081 C -2256.7924,483.71384 -2258.1275,476.52925 -2252.1565,472.34394 C -2248.5196,469.15716 -2244.2913,464.381 -2243.9112,460.21516 C -2245.8515,460.73252 -2247.1574,464.61789 -2248.5589,464.39433 C -2231.5695,435.64746 -2206.7182,410.74623 -2178.3637,398.61372 C -2180.8415,399.75423 -2180.0362,402.35124 -2177.4562,401.11363 C -2166.2346,399.81903 -2156.197,394.08748 -2145.6184,392.4493 C -2157.7977,396.08371 -2170.5502,400.43755 -2181.8435,408.67429 C -2177.6782,408.41521 -2181.0221,416.9049 -2175.8288,414.73823 C -2173.0353,414.28994 -2168.8015,412.77588 -2169.4371,409.28232 C -2166.6565,405.68425 -2161.6769,406.58029 -2157.982,405.00129 C -2155.6442,404.47352 -2152.6629,403.27732 -2150.628,403.96913 C -2151.3519,405.23157 -2155.7234,406.13768 -2153.5405,407.62869 C -2148.4036,407.39757 -2143.8291,401.52601 -2138.741,404.40135 C -2136.0117,404.58194 -2131.9853,404.71367 -2130.5571,402.02027 C -2130.0751,398.96889 -2127.3191,401.59054 -2125.7564,402.10997 C -2121.0333,404.51701 -2115.0824,406.5763 -2110.6274,406.5687 C -2112.2079,407.30363 -2115.4169,406.86754 -2115.711,408.84321 C -2113.5047,409.24593 -2110.2086,409.31853 -2108.6505,409.78967 C -2110.5294,409.30156 -2112.003,411.61684 -2109.3035,411.78314 C -2105.1856,412.52872 -2101.1707,413.97791 -2097.7157,417.00253 C -2092.7967,420.68541 -2087.2384,425.40578 -2082.483,427.75795 C -2085.3261,427.72755 -2085.7114,432.97816 -2082.7221,434.00578 C -2079.8876,437.00819 -2075.2754,436.76104 -2072.9895,439.7398 C -2073.7922,439.98609 -2076.3086,437.91903 -2074.8876,440.26428 C -2066.9964,454.58808 -2058.3382,469.3227 -2055.6436,486.8141 C -2051.0072,510.98772 -2052.9418,537.46875 -2063.0478,558.53507 C -2074.9768,574.27138 -2088.3902,591.25239 -2106.639,596.49841 C -2119.8146,600.38531 -2134.2853,600.15992 -2146.077,592.86732 C -2151.8752,589.80091 -2157.8068,586.78952 -2162.1109,581.17217 C -2167.8073,575.34974 -2173.4392,569.08049 -2176.215,560.32592 C -2183.1234,541.46666 -2178.7405,515.99843 -2166.0628,497.41528 C -2163.1027,492.83375 -2157.8631,487.10856 -2154.9784,485.0755 C -2176.9744,511.79916 -2176.9565,557.3706 -2155.3582,575.68474 C -2146.4889,584.11559 -2134.8618,588.71072 -2123.0251,587.65003 C -2124.3751,587.32458 -2124.4368,584.624 -2122.7522,585.83539 C -2092.1213,586.65382 -2062.8333,553.94937 -2062.4295,516.32588 C -2063.3486,504.33487 -2063.25,491.12541 -2069.3986,481.04395 C -2070.183,479.60589 -2071.6498,476.20237 -2071.6943,475.74235 C -2071.2931,477.55708 -2068.2383,480.08763 -2069.03,476.63476 C -2072.3527,466.25806 -2077.9356,457.38998 -2082.9714,448.42585 C -2086.1801,445.23766 -2092.0054,446.71361 -2093.4224,440.69427 C -2095.8374,434.23279 -2101.9654,432.75836 -2106.6303,429.86001 C -2108.4656,429.12252 -2111.344,428.04498 -2112.7487,428.94813 C -2111.989,429.63775 -2108.9665,431.54946 -2111.6453,430.59674 C -2122.9955,426.51785 -2135.3223,426.70251 -2147.6123,427.72242 C -2152.2697,429.25981 -2157.2411,428.77031 -2161.8615,431.25115 C -2190.9666,442.47061 -2218.8693,469.08495 -2233.7891,501.81833 C -2243.9948,525.4494 -2247.7699,550.77732 -2244.114,573.07541 C -2244.8014,571.23289 -2244.3567,567.05751 -2246.2076,566.74304 C -2248.3946,581.27015 -2240.0924,592.09103 -2237.0968,604.53836 C -2236.3516,606.82079 -2234.5868,604.50796 -2235.6737,603.08172 C -2236.5868,601.9845 -2236.1303,597.83469 -2235.0232,600.6284 C -2232.1999,608.70476 -2234.8953,619.5061 -2228.2918,625.39266 C -2227.1671,627.36976 -2225.0361,630.63348 -2222.9631,630.0221 C -2224.5176,629.1532 -2223.3148,625.57085 -2222.1666,628.15741 C -2219.7263,633.51653 -2219.6533,640.09836 -2215.4541,644.37333 C -2206.5956,657.03834 -2194.9392,667.49316 -2182.398,676.15724 C -2180.8333,675.04937 -2179.0483,673.92284 -2177.0882,675.27461 C -2165.922,681.81156 -2153.6749,688.31546 -2140.3171,687.68298 C -2124.4061,689.29288 -2107.7941,692.65168 -2092.1882,687.5162 C -2087.2438,683.96549 -2080.6625,687.69208 -2075.6209,684.39264 C -2072.5561,683.11964 -2069.2466,684.31014 -2066.3145,682.57399 C -2061.4152,681.22977 -2056.4164,678.01113 -2055.7891,672.54804 C -2053.3262,666.61436 -2046.6328,663.96027 -2040.8494,662.56132 C -2039.2855,664.06923 -2043.1337,665.38606 -2043.4349,666.92856 C -2042.5299,668.55423 -2039.6497,666.43866 -2038.1591,665.89971 C -2034.0916,663.92437 -2030.3408,659.88288 -2025.6224,660.12498 C -2021.9443,661.32529 -2020.0505,656.37536 -2017.5271,655.38309 C -2014.2187,658.17053 -2010.6577,652.42895 -2007.5032,651.37503 C -2003.6346,648.60797 -1998.9218,645.60444 -1996.434,642.0663 C -1998.4042,639.99009 -1993.7792,640.07629 -1992.6843,639.28037 C -1987.9314,637.38697 -1982.9957,633.856 -1982.7906,628.19202 C -1980.5766,624.18045 -1975.6402,622.5754 -1974.5167,617.83469 C -1973.983,616.40262 -1972.8593,613.9115 -1971.5815,615.98212 C -1969.5761,616.96219 -1968.5554,614.6149 -1968.5587,612.90005 C -1966.8897,608.44794 -1962.634,604.29134 -1963.6964,599.30601 C -1964.508,599.82133 -1967.5412,601.77514 -1966.4052,599.93216 C -1962.2754,595.46786 -1956.5541,590.27727 -1959.1538,582.81117 C -1958.412,579.90226 -1954.3956,578.60036 -1956.2102,574.83208 C -1956.5805,570.82024 -1958.4403,566.57094 -1959.7006,562.80721 C -1956.8369,561.65807 -1959.9735,557.43475 -1959.6666,554.77359 C -1960.2986,549.72534 -1960.4368,543.42071 -1964.5317,539.28423 C -1967.1986,541.00244 -1965.504,537.3207 -1965.608,536.55389 C -1965.4362,533.98552 -1967.3228,531.1502 -1970.0235,529.61208 C -1972.205,524.28389 -1971.9026,518.41698 -1976.714,513.65342 C -1977.8919,515.85531 -1978.2065,519.33749 -1981.4867,520.1638 C -1984.5704,514.09559 -1988.1278,506.19488 -1984.1024,501.92113 C -1982.5179,497.30477 -1985.6226,490.93092 -1990.0712,486.62472 C -1993.4872,483.81562 -1992.546,479.12813 -1997.5121,477.13193 C -2003.6811,472.67652 -2004.1376,465.90003 -2009.6568,461.0948 C -2017.551,453.14281 -2027.7473,446.86349 -2035.9651,439.15362 C -2057.0393,420.61756 -2072.8772,397.98012 -2079.043,373.82496 C -2086.6593,339.35964 -2079.8954,304.75002 -2063.0893,272.6769 C -2052.8417,253.35963 -2037.5934,235.15803 -2017.3471,223.21173 C -2016.4416,222.6534 -2014.5932,221.41069 -2014.1162,221.48809 L -2014.1162,221.48809 L -2014.132,221.48887 z M -2177.4322,398.20816 C -2178.4285,398.62437 -2177.3622,398.13266 -2177.4322,398.20816 z M -2105.0897,403.57427 C -2100.6367,405.02701 -2095.4533,407.56192 -2091.8171,409.64286 C -2096.0908,407.31716 -2102.5107,405.42698 -2105.657,403.39395 C -2105.4684,403.45355 -2105.2786,403.51383 -2105.0897,403.57421 L -2105.0897,403.57427 z M -2106.3285,410.04583 C -2106.5104,410.04583 -2107.0615,409.87536 -2106.3285,410.04583 z M -2106.2745,410.06263 C -2103.9154,410.40523 -2099.7984,411.98086 -2098.8988,413.15486 C -2101.3373,412.07933 -2103.7685,410.90295 -2106.2745,410.06263 z M -2123.5809,471.08447 C -2121.7717,470.72424 -2120.1633,473.30525 -2122.611,474.13617 C -2124.3737,475.15635 -2128.3223,474.48586 -2127.2539,471.3294 C -2126.059,470.7516 -2124.7895,471.06897 -2123.5809,471.08447 z M -2106.5571,479.45127 C -2102.7682,481.83828 -2097.5366,484.05361 -2096.2187,489.62336 C -2097.7294,492.89045 -2101.5709,493.00972 -2102.8346,489.56036 C -2103.7466,488.63315 -2106.0148,486.48568 -2105.405,485.47174 C -2103.0253,487.15199 -2101.2871,491.95227 -2098.1132,490.6213 C -2098.5414,484.45231 -2103.5078,481.93367 -2107.0373,479.20488 C -2106.8755,479.28578 -2106.7171,479.36829 -2106.5571,479.45083 L -2106.5571,479.45127 z M -2047.0765,512.59491 C -2044.0649,533.42428 -2051.9627,553.28925 -2061.4515,569.47892 C -2067.6726,579.79804 -2075.6846,588.94828 -2085.4534,594.65495 C -2079.399,586.53344 -2070.1775,582.30432 -2065.5945,572.69972 C -2068.9973,576.46278 -2072.6026,580.24849 -2076.9432,582.42055 C -2070.7327,576.02699 -2063.7371,569.21123 -2061.344,559.52466 C -2060.7439,556.67928 -2057.5878,556.3827 -2056.85,553.52802 C -2049.2377,542.13326 -2048.9338,525.40946 -2047.1455,512.13908 C -2047.1115,512.29029 -2047.0995,512.4433 -2047.0755,512.59491 L -2047.0765,512.59491 z M -2090.4895,511.0787 C -2086.6845,515.41559 -2087.4458,524.48371 -2091.2389,528.47542 C -2093.2501,528.15166 -2091.4241,524.36771 -2091.669,522.57894 C -2091.2718,518.59231 -2090.8658,514.59887 -2090.7994,510.59205 C -2090.6987,510.75376 -2090.5939,510.91648 -2090.4895,511.0787 L -2090.4895,511.0787 z M -2281.5034,543.99093 C -2281.5034,548.79058 -2281.0058,554.67597 -2281.5034,558.81816 C -2281.652,554.00724 -2281.628,548.4419 -2281.5034,543.99093 z M -2275.8497,550.78475 C -2275.8157,552.11885 -2276.7671,555.38031 -2277.4709,555.45482 C -2277.3769,554.26107 -2277.6326,549.86548 -2275.8497,550.78475 z M -2275.4113,552.71441 C -2275.2497,553.94386 -2275.4453,553.72228 -2275.4113,552.71441 z M -2277.7038,557.41254 C -2277.9091,558.37449 -2277.5855,556.30316 -2277.7038,557.41254 z M -2087.1069,591.2501 C -2090.8821,593.50972 -2094.6826,595.94805 -2098.8465,597.03415 C -2094.7197,595.24083 -2091.135,591.61059 -2086.7228,591.00057 C -2086.8507,591.08417 -2086.9789,591.16735 -2087.1069,591.25022 L -2087.1069,591.2501 z M -2075.2692,593.87129 C -2079.7013,597.75059 -2084.884,603.47865 -2090.5555,602.75636 C -2089.8167,600.07869 -2086.5079,600.76153 -2084.9948,598.77868 C -2081.4899,596.61012 -2076.376,593.09208 -2073.6692,592.36234 C -2074.2023,592.86495 -2074.7358,593.36798 -2075.2692,593.87129 L -2075.2692,593.87129 z M -2209.5637,697.19667 C -2207.1346,697.11577 -2203.5108,699.35775 -2203.7493,701.52773 C -2205.9508,700.54775 -2210.9589,700.94673 -2210.035,697.24245 C -2209.8864,697.19965 -2209.7184,697.14207 -2209.5637,697.19685 L -2209.5637,697.19667 z M -2181.3967,707.32143 C -2178.8293,708.10077 -2175.8669,707.96285 -2173.6277,709.59672 C -2177.0565,710.04872 -2182.1655,709.7126 -2183.8061,706.84157 C -2183.0031,707.00159 -2182.1999,707.16129 -2181.3967,707.32143 L -2181.3967,707.32143 z"
         id="path6536-8-0" />
      <path
         id="text4116-4"
         d="M -1570.0873,700.78439 L -1570.0873,905.59577 L -1522.9676,905.59577 L -1522.9676,884.27363 C -1516.474,892.87332 -1509.2859,899.23375 -1501.388,903.35799 C -1493.4905,907.39463 -1484.4176,909.42798 -1474.1501,909.42798 C -1455.9855,909.42798 -1441.0681,902.21432 -1429.3968,887.82293 C -1425.2272,882.65016 -1421.8142,876.94456 -1419.1345,870.71898 C -1430.2118,853.94983 -1435.7496,832.89692 -1435.7496,807.5497 C -1435.7496,795.16727 -1434.4178,783.81564 -1431.7888,773.49592 C -1443.0805,760.90685 -1457.2126,754.61732 -1474.1501,754.61716 C -1484.4176,754.61732 -1493.4905,756.69159 -1501.388,760.81586 C -1509.2859,764.85255 -1516.474,771.1721 -1522.9676,779.77166 L -1522.9676,700.78439 L -1570.0873,700.78439 L -1570.0873,700.78439 z M -1922.456,709.09215 L -1922.456,905.59577 L -1869.0091,905.59577 C -1839.5247,905.59577 -1817.4189,903.50648 -1802.6763,899.29433 C -1787.9341,894.99443 -1775.295,887.73981 -1764.7647,877.56051 C -1755.5508,868.69762 -1748.6898,858.48523 -1744.2142,846.90184 C -1739.739,835.23087 -1737.5012,821.96836 -1737.5009,807.13819 C -1737.5012,792.48367 -1739.739,779.36949 -1744.2142,767.78601 C -1748.6898,756.20287 -1755.5508,745.9904 -1764.7647,737.12728 C -1775.2074,726.94829 -1787.7391,719.7345 -1802.3937,715.52217 C -1816.9605,711.22247 -1839.1737,709.09233 -1869.0091,709.09215 L -1922.456,709.09215 z M -1871.7614,747.3897 L -1853.6029,747.3897 C -1832.8057,747.38986 -1816.9785,752.46284 -1806.0974,762.64195 C -1795.2162,772.82132 -1789.765,787.65728 -1789.765,807.13819 C -1789.765,826.70705 -1795.257,841.62464 -1806.2258,851.89158 C -1817.1073,862.15868 -1832.8933,867.29819 -1853.6029,867.29819 L -1871.7614,867.29819 L -1871.7614,747.3897 L -1871.7614,747.3897 z M -1652.3924,754.61716 C -1677.8407,754.61732 -1697.8569,761.51932 -1712.4236,775.29637 C -1726.903,789.07356 -1734.1317,807.96575 -1734.1317,832.0098 C -1734.1317,856.49274 -1726.7544,875.55888 -1712.0122,889.16036 C -1697.182,902.67434 -1676.4458,909.42798 -1649.7688,909.42798 C -1638.6245,909.42798 -1627.4771,908.32971 -1616.3324,906.13588 C -1605.1881,904.0298 -1594.0407,900.8571 -1582.8959,896.64511 L -1582.8959,860.32787 C -1593.8651,866.29513 -1604.5783,870.77037 -1615.0205,873.75391 C -1625.3755,876.64976 -1635.5064,878.10071 -1645.4221,878.10071 C -1657.7075,878.10071 -1667.2558,875.32146 -1674.1002,869.79305 C -1680.945,864.26457 -1684.9453,855.97821 -1686.0858,844.92131 L -1575.9256,844.92131 L -1575.9256,831.49536 C -1575.926,808.15328 -1582.8838,789.50625 -1596.8364,775.55356 C -1610.7012,761.6011 -1629.2259,754.61732 -1652.3924,754.61716 z M -1652.6483,785.94459 C -1644.2247,785.94468 -1637.4298,788.7239 -1632.2525,794.25224 C -1626.9872,799.693 -1624.3563,806.88107 -1624.356,815.83165 L -1685.5706,815.83165 C -1684.1668,806.17901 -1680.6005,798.8019 -1674.8967,793.71215 C -1669.1928,788.53486 -1661.775,785.94468 -1652.6483,785.94459 z M -1491.6389,788.85091 C -1481.5476,788.85112 -1473.8846,792.53966 -1468.6194,799.91077 C -1463.2665,807.28198 -1460.5688,817.96942 -1460.5688,832.0098 C -1460.5688,846.05021 -1463.2665,856.76327 -1468.6194,864.13445 C -1473.8846,871.5058 -1481.5476,875.19428 -1491.6389,875.19428 C -1501.7307,875.19428 -1509.5012,871.5058 -1514.9416,864.13445 C -1520.2945,856.67558 -1522.9666,845.96237 -1522.9666,832.0098 C -1522.9666,818.05722 -1520.2945,807.41062 -1514.9416,800.03934 C -1509.5012,792.58056 -1501.7307,788.85112 -1491.6389,788.85091 L -1491.6389,788.85091 z"
         style="font-size:327.53112793px;font-style:normal;font-weight:normal;fill:#3f6c74;fill-opacity:1;stroke:none;font-family:Bitstream Vera Sans" />
      <path
         id="path4255-2"
         d="M -893.95264,697.76897 C -910.53815,697.76924 -922.64776,701.52668 -930.28213,709.07322 C -937.91665,716.5324 -941.72536,728.46533 -941.72536,744.87475 L -941.72536,755.15143 L -964.88932,755.15143 L -964.88932,773.98265 L -941.72536,773.98265 L -941.72536,902.57924 L -917.39456,902.57924 L -917.39456,773.98265 L -877.51003,773.98265 L -877.51003,755.15143 L -917.39456,755.15143 L -917.39456,742.12512 C -917.39456,732.99897 -915.72997,726.66527 -912.39519,723.155 C -908.97281,719.64508 -902.91817,717.90572 -894.2306,717.90565 L -871.03868,717.90565 L -871.03868,697.76897 L -893.95264,697.76897 L -893.95264,697.76897 z M -1329.9038,702.49068 C -1359.6518,702.49084 -1383.09,711.6242 -1400.2017,729.87648 C -1417.3136,748.04136 -1425.8653,772.91627 -1425.8653,804.50695 C -1425.8653,836.01014 -1417.3136,860.88498 -1400.2017,879.13749 C -1383.09,897.30222 -1359.6518,906.38443 -1329.9038,906.38443 C -1318.3208,906.38443 -1307.3736,904.82182 -1297.0185,901.66271 C -1286.5762,898.50375 -1276.6849,893.76029 -1267.3832,887.44216 L -1267.3832,859.66751 C -1276.3342,868.00398 -1285.9231,874.23547 -1296.1022,878.35983 C -1306.1936,882.48413 -1316.9407,884.55361 -1328.3487,884.55361 C -1350.8131,884.55361 -1367.992,877.68971 -1379.9261,864.00033 C -1391.8605,850.22321 -1397.8407,830.39407 -1397.8407,804.50695 C -1397.8407,778.53244 -1391.8605,758.70329 -1379.9261,745.0137 C -1367.992,731.2367 -1350.8131,724.34945 -1328.3487,724.34935 C -1316.9407,724.34945 -1306.1936,726.41892 -1296.1022,730.54306 C -1285.9231,734.66759 -1276.3342,740.89914 -1267.3832,749.23543 L -1267.3832,721.18295 C -1276.5097,714.95283 -1286.2984,710.31166 -1296.7409,707.24019 C -1307.0959,704.08133 -1318.1453,702.49084 -1329.9038,702.49068 L -1329.9038,702.49068 z M -1184.8369,751.59628 C -1205.9851,751.59634 -1222.5871,758.43254 -1234.6091,772.12179 C -1246.5435,785.8111 -1252.496,804.7846 -1252.496,829.00428 C -1252.496,853.13606 -1246.5435,872.08185 -1234.6091,885.85894 C -1222.5871,899.54832 -1205.9851,906.38443 -1184.8369,906.38443 C -1163.7765,906.38443 -1147.2533,899.54832 -1135.2313,885.85894 C -1123.2094,872.08185 -1117.178,853.13615 -1117.1776,829.00428 C -1117.178,804.78466 -1123.2094,785.81117 -1135.2313,772.12179 C -1147.2533,758.43254 -1163.7765,751.59634 -1184.8369,751.59628 L -1184.8369,751.59628 z M -1025.9104,751.59628 C -1036.1775,751.59634 -1045.2595,753.79138 -1053.1572,758.17882 C -1060.967,762.56657 -1067.78,769.20272 -1073.5715,778.06544 L -1073.5715,755.15143 L -1097.9023,755.15143 L -1097.9023,902.57924 L -1073.5715,902.57924 L -1073.5715,819.25535 C -1073.5715,804.86407 -1069.7863,793.4846 -1062.2395,785.14803 C -1054.6931,776.81172 -1044.3739,772.64963 -1031.2986,772.64946 C -1020.4174,772.64963 -1012.2698,776.13262 -1006.8291,783.06491 C -1001.3887,789.99746 -998.66341,800.44226 -998.66341,814.39472 L -998.66341,902.57924 L -974.44386,902.57924 L -974.44386,813.58931 C -974.44386,793.23086 -978.78293,777.84264 -987.47017,767.40001 C -996.15773,756.86999 -1008.9742,751.59634 -1025.9104,751.59628 L -1025.9104,751.59628 z M -1184.8369,772.12179 C -1171.9372,772.12179 -1161.7203,777.26973 -1154.1735,787.53669 C -1146.6271,797.71606 -1142.8695,811.54162 -1142.8695,829.00428 C -1142.8695,846.55465 -1146.6271,860.4036 -1154.1735,870.58287 C -1161.7203,880.76211 -1171.9372,885.85894 -1184.8369,885.85894 C -1197.912,885.85894 -1208.2314,880.81332 -1215.7778,870.72171 C -1223.237,860.5425 -1226.9709,846.64245 -1226.9709,829.00428 C -1226.9709,811.36605 -1223.1859,797.48932 -1215.6389,787.39776 C -1208.0921,777.21862 -1197.8241,772.12185 -1184.8369,772.12179 L -1184.8369,772.12179 z"
         style="font-size:303.30599976px;font-style:normal;font-weight:normal;fill:#c18a00;fill-opacity:1;stroke:none;font-family:Bitstream Vera Sans" />
      <g
         id="text4227"
         style="font-size:234.61767578px;font-style:normal;font-variant:normal;font-weight:normal;font-stretch:normal;text-align:start;line-height:125%;writing-mode:lr-tb;text-anchor:start;fill:#3f6c74;fill-opacity:1;stroke:none;font-family:Dyuthi;-inkscape-font-specification:Dyuthi"
         transform="matrix(1.6798628,0,0,1.6798628,311.78185,-2756.867)">
        <path
           style="fill:#3f6c74;fill-opacity:1"
           id="path4234"
           d="M -668.60684,2082.0629 L -680.2919,2082.7502 C -683.80507,2082.5976 -686.63087,2081.2229 -688.76929,2078.6261 C -690.755,2075.8768 -691.74785,2072.6691 -691.74784,2069.0031 C -691.74785,2065.9483 -690.755,2063.0461 -688.76929,2060.2966 C -686.63087,2057.8528 -683.80507,2056.6308 -680.2919,2056.6307 L -651.19381,2056.6307 C -649.36091,2056.6308 -647.29884,2057.7764 -645.0076,2060.0675 C -642.71647,2062.206 -641.57088,2064.1154 -641.57081,2065.7955 L -641.57081,2163.6292 C -641.57088,2169.1281 -642.94559,2173.2522 -645.69495,2176.0016 C -648.44444,2179.0565 -651.6521,2180.584 -655.31794,2180.584 C -658.83115,2180.584 -661.88606,2179.2093 -664.4827,2176.4598 C -667.23216,2173.4049 -668.60687,2169.5099 -668.60684,2164.7748 L -668.60684,2082.0629" />
        <path
           style="fill:#3f6c74;fill-opacity:1"
           id="path4236"
           d="M -575.58459,2053.1939 C -560.46283,2053.194 -548.24317,2060.144 -538.92558,2074.0437 C -530.37192,2086.7217 -526.09504,2101.8436 -526.09493,2119.4093 C -526.09504,2136.3641 -530.21918,2150.4931 -538.46734,2161.7962 C -547.63219,2174.4742 -560.46283,2180.8131 -576.95931,2180.8131 C -592.99767,2180.8131 -605.75194,2174.1687 -615.22215,2160.8798 C -623.77594,2149.1184 -628.05282,2134.6075 -628.0528,2117.3472 C -628.05282,2099.9342 -623.62319,2085.1943 -614.76391,2073.1273 C -605.14096,2059.8385 -592.0812,2053.194 -575.58459,2053.1939 M -576.95931,2074.2729 C -584.13842,2074.273 -589.79001,2078.168 -593.9141,2085.9579 C -597.73279,2092.6788 -599.64211,2102.9128 -599.64207,2116.6598 C -599.64211,2131.629 -597.73279,2142.4739 -593.9141,2149.1947 C -589.79001,2156.6793 -584.06205,2160.4215 -576.73019,2160.4215 C -570.00944,2160.4215 -564.73971,2156.4502 -560.92099,2148.5073 C -557.25517,2141.4811 -555.42222,2130.3306 -555.42214,2115.056 C -555.42222,2101.6144 -557.1788,2091.686 -560.69187,2085.2706 C -564.66334,2077.9389 -570.08581,2074.273 -576.95931,2074.2729" />
      </g>
      <path
         id="path2911"
         d="M -2084.9361,785.15577 C -2085.5274,785.15577 -2085.9276,785.32456 -2085.9276,785.32456 C -2085.9276,785.32456 -2089.8835,785.73064 -2092.2585,786.12642 C -2094.6337,786.52229 -2111.2512,792.45739 -2111.2512,792.45739 C -2111.2512,792.45739 -2122.3298,796.80907 -2123.9129,798.78828 C -2125.4964,800.76744 -2135.3969,806.70644 -2138.9598,808.68559 C -2142.5223,810.66481 -2154.4072,829.66199 -2154.4072,829.66199 C -2154.4072,829.66199 -2160.346,835.20197 -2164.3043,847.47298 C -2168.2626,859.74403 -2174.5955,876.76469 -2178.9498,888.24403 C -2183.304,899.72335 -2203.0955,955.53259 -2206.658,964.63702 C -2210.2206,973.74145 -2234.7672,1024.4219 -2234.7672,1024.4219 C -2233.58,1024.818 -2150.056,1033.9159 -2146.4931,1014.1236 C -2142.9309,994.3317 -2137.3767,949.59063 -2137.3767,949.59063 C -2137.3767,949.59063 -2133.0255,946.8324 -2131.046,944.06155 C -2129.0667,941.29069 -2125.5065,933.36285 -2124.7151,931.77962 C -2123.9234,930.19623 -2113.2259,912.38905 -2109.2674,904.47225 C -2105.3094,896.5556 -2100.1638,899.71327 -2094.6222,900.50481 C -2089.0803,901.29667 -2087.9112,904.87313 -2087.9112,904.87313 C -2087.9112,904.87313 -2081.9615,903.67671 -2078.7948,900.90585 C -2075.6282,898.135 -2076.8161,892.20167 -2077.2121,889.82677 C -2077.6078,887.45159 -2082.7619,884.67769 -2082.7619,884.67769 C -2082.7619,884.67769 -2079.9882,883.89741 -2077.613,882.31413 C -2075.238,880.73064 -2074.4427,879.54562 -2074.0467,875.98316 C -2073.6508,872.42056 -2073.6502,868.06578 -2075.6295,864.50315 C -2077.6085,860.94061 -2081.9605,858.15114 -2081.9605,858.15114 L -2079.9767,856.56837 C -2079.9767,856.56837 -2074.4427,850.63911 -2074.0467,849.05573 C -2073.6508,847.47234 -2075.2334,841.1324 -2075.6295,838.75739 C -2076.0251,836.3824 -2083.5527,831.64569 -2085.9276,831.64569 C -2088.3029,831.64569 -2100.9716,830.83801 -2107.3048,832.02553 C -2113.6386,833.21304 -2129.062,838.75739 -2129.062,838.75739 L -2129.4632,835.592 C -2129.4632,835.592 -2127.0843,832.82812 -2125.8967,831.24473 C -2124.7091,829.66135 -2121.5495,821.74839 -2121.5495,821.74839 C -2121.5495,821.74839 -2116.8079,818.18259 -2114.0367,816.59927 C -2111.266,815.01588 -2098.1884,806.30097 -2098.1884,806.30097 C -2098.1884,806.30097 -2086.7099,801.1685 -2083.5429,799.18921 C -2080.3763,797.21006 -2079.2002,792.04746 -2081.1795,788.08906 C -2082.4167,785.61503 -2083.9502,785.1557 -2084.9361,785.1557 L -2084.9361,785.15577 z M -2100.9107,852.0313 C -2094.8332,852.0313 -2089.4307,852.7066 -2087.4049,853.04425 C -2085.3787,853.3819 -2085.7166,855.74543 -2085.7166,855.74543 C -2085.7166,855.74543 -2089.0931,854.73251 -2094.1577,854.73251 C -2099.2224,854.73251 -2113.7417,855.40778 -2113.7417,855.40778 L -2115.4299,855.07013 C -2115.4299,855.07013 -2106.9885,852.0313 -2100.9107,852.0313 z M -2093.8201,877.35492 C -2091.1191,877.35492 -2087.4049,881.40675 -2087.4049,881.40675 C -2087.4049,881.40675 -2092.1319,880.73145 -2094.1577,879.71849 C -2096.1835,878.70554 -2102.5989,878.70554 -2102.9365,878.36792 C -2102.9365,878.36792 -2096.5214,877.35492 -2093.8201,877.35492 L -2093.8201,877.35492 z"
         style="fill:#3f6c74;fill-opacity:1;stroke:none" />
      <path
         id="path2457"
         d="M -1920.6174,943.31548 L -1920.6174,946.28423 L -1917.8362,946.28423 C -1916.5626,946.28425 -1914.965,946.34458 -1913.0549,946.47173 C -1912.2907,946.59912 -1911.8098,946.68839 -1911.5549,946.75298 C -1911.0457,946.94398 -1910.7737,947.57684 -1910.7737,948.65923 L -1910.7737,998.50299 C -1910.7736,999.13979 -1910.8037,999.68339 -1910.8674,1000.0655 C -1911.1859,1003.7586 -1914.4409,1005.5967 -1920.6174,1005.5967 L -1920.6174,1008.5655 C -1913.9316,1008.3746 -1910.1939,1008.2842 -1909.4299,1008.2842 C -1908.6659,1008.2842 -1904.9596,1008.3749 -1898.2737,1008.5655 L -1898.2737,1005.5967 C -1901.4574,1005.5967 -1903.8681,1005.1143 -1905.5237,1004.1592 C -1907.2428,1003.1405 -1908.0862,1001.2408 -1908.0862,998.50299 L -1908.0862,948.84673 C -1907.7041,949.22866 -1907.4035,949.62101 -1907.1487,950.00298 L -1868.1487,1007.3155 C -1867.512,1008.1433 -1867.0007,1008.5655 -1866.5549,1008.5655 C -1866.364,1008.5655 -1866.1834,1008.5363 -1865.9924,1008.4717 L -1865.8987,1008.4717 C -1865.4531,1008.3443 -1865.2112,1007.53 -1865.2112,1006.0655 L -1865.2112,953.34673 L -1865.2112,951.90923 L -1865.1174,951.81548 C -1864.7991,948.12245 -1861.5751,946.28423 -1855.3987,946.28423 L -1855.3987,943.31548 C -1862.0845,943.5064 -1865.791,943.59691 -1866.5549,943.59673 C -1867.3191,943.59693 -1871.0565,943.50607 -1877.7424,943.31548 L -1877.7424,946.28423 C -1874.5587,946.28425 -1872.1169,946.76667 -1870.4612,947.72173 C -1868.7419,948.74062 -1867.8988,950.60868 -1867.8987,953.34673 L -1867.8987,994.12799 L -1901.5862,944.56548 L -1901.7112,944.37798 L -1901.7737,944.25298 L -1901.8987,944.19048 L -1901.9924,944.06548 C -1902.3744,943.55613 -1903.1888,943.31557 -1904.3987,943.31548 L -1920.6174,943.31548 z"
         style="font-size:100.47190094px;font-style:normal;font-variant:normal;font-weight:bold;font-stretch:normal;text-align:start;line-height:125%;writing-mode:lr-tb;text-anchor:start;fill:#3f6c74;fill-opacity:1;stroke:none;font-family:cmr10;-inkscape-font-specification:cmr10 Medium" />
      <path
         id="path2498"
         d="M -1443.013,941.54722 C -1443.6498,941.54728 -1444.2842,941.56558 -1444.921,941.63017 C -1453.3897,942.07592 -1460.6328,945.51256 -1466.6817,951.94375 C -1473.0493,958.69317 -1476.2488,966.79689 -1476.2488,976.22075 C -1476.2488,976.85766 -1476.2019,977.49191 -1476.1381,978.12862 C -1475.6925,987.55249 -1472.1509,995.42978 -1465.4651,1001.7973 C -1459.0976,1007.91 -1451.6092,1010.9772 -1443.013,1010.9772 C -1435.5633,1010.9772 -1429.3903,1008.2218 -1424.4873,1002.6821 C -1420.2211,997.90655 -1418.0724,992.53897 -1418.0724,986.61728 C -1418.0724,985.53473 -1418.4889,985.01356 -1419.3167,985.01356 C -1420.0171,985.07727 -1420.4143,985.57927 -1420.478,986.53433 C -1420.7964,992.39241 -1422.7658,997.29638 -1426.3952,1001.2443 C -1430.534,1005.7651 -1435.6753,1008.0186 -1441.8517,1008.0186 C -1445.4174,1008.0186 -1448.9204,1007.1664 -1452.3589,1005.4472 C -1461.7189,1000.6716 -1466.4052,990.94892 -1466.4052,976.3037 C -1466.4052,966.17944 -1464.1049,958.34062 -1459.5203,952.80091 L -1459.4373,952.71796 C -1458.5459,951.69927 -1457.5805,950.73377 -1456.5617,949.84232 C -1452.2955,946.27659 -1447.4383,944.5058 -1441.9623,944.5058 C -1438.1418,944.50579 -1434.6388,945.62301 -1431.4552,947.8515 C -1425.7881,951.86305 -1422.3514,958.30085 -1421.1417,967.15144 C -1421.0779,967.5336 -1421.0311,967.77067 -1421.0311,967.898 C -1420.9037,968.47101 -1420.4211,968.75525 -1419.5932,968.75516 C -1419.1476,968.75525 -1418.8442,968.7368 -1418.6531,968.67221 C -1418.271,968.54478 -1418.0724,967.79731 -1418.0724,966.46018 L -1418.0724,943.84219 C -1418.1361,942.88716 -1418.4865,942.1204 -1419.1231,941.54722 C -1419.6327,941.54731 -1420.1346,941.91685 -1420.6439,942.68088 L -1425.4274,949.75937 L -1427.0588,948.128 C -1431.8344,943.73445 -1437.1551,941.5473 -1443.013,941.54722 z M -1547.4207,942.59793 L -1561.1906,943.64864 L -1561.1906,946.60723 L -1558.7851,946.60723 C -1557.0658,946.73462 -1555.8633,946.99947 -1555.1628,947.38144 L -1555.0799,947.38144 C -1554.1884,947.95451 -1553.725,949.46044 -1553.725,951.94375 L -1553.725,1001.6314 C -1553.725,1003.2869 -1553.9706,1004.3572 -1554.4163,1004.8665 L -1554.5822,1005.0601 C -1555.2188,1005.6332 -1557.434,1005.9172 -1561.1906,1005.9172 L -1561.1906,1008.8758 C -1554.8869,1008.6849 -1551.4032,1008.5993 -1550.7665,1008.5993 C -1547.5828,1008.5993 -1544.0799,1008.6851 -1540.2593,1008.8758 L -1540.2593,1005.9172 C -1543.5068,1005.9172 -1545.5037,1005.7654 -1546.2041,1005.4472 C -1547.2231,1005.0652 -1547.7249,1003.7964 -1547.7249,1001.6314 L -1547.7249,991.7879 L -1541.6142,986.53433 L -1541.4207,986.81083 C -1539.2556,989.80354 -1537.8737,991.69919 -1537.3007,992.47915 C -1532.6565,998.95015 -1530.2499,1002.766 -1530.2499,1003.7328 C -1530.2498,1005.1975 -1531.3865,1005.9172 -1533.6786,1005.9172 L -1533.6786,1008.8758 C -1528.33,1008.6849 -1524.8931,1008.5993 -1523.3649,1008.5993 C -1520.563,1008.5993 -1517.7804,1008.6851 -1515.0422,1008.8758 L -1515.0422,1005.9172 C -1516.252,1005.9172 -1517.1513,1005.8989 -1517.7243,1005.8343 C -1519.9529,1005.5159 -1522.1403,1003.8499 -1524.3051,1000.8572 L -1536.4436,983.7693 L -1537.0242,982.71858 L -1536.9136,982.52503 L -1536.8307,982.41443 C -1535.4298,980.88628 -1532.9117,978.69884 -1529.2821,975.83365 C -1525.2708,972.58611 -1521.2658,970.85406 -1517.2543,970.66303 L -1517.2543,967.70444 C -1519.1009,967.89557 -1521.3348,968.0086 -1523.9456,968.0086 C -1528.4027,968.00859 -1531.9719,967.89556 -1534.6463,967.70444 L -1534.6463,970.66303 C -1534.4553,970.66302 -1534.2567,970.70904 -1534.0657,970.77363 C -1532.6011,971.02827 -1531.8536,971.79519 -1531.8536,973.06861 C -1531.8536,974.3421 -1532.5542,975.56404 -1533.9551,976.77376 L -1547.4207,988.4422 L -1547.4207,942.59793 z M -1400.3486,944.97586 C -1401.24,944.97583 -1402.0261,945.1937 -1402.7265,945.63947 C -1404.5093,946.59451 -1405.4086,948.06201 -1405.4086,950.03587 C -1405.4086,950.67277 -1405.2762,951.30704 -1405.0215,951.94375 L -1405.0215,952.05435 C -1404.13,954.09198 -1402.5773,955.09606 -1400.3486,955.09589 C -1399.7118,955.09608 -1399.0776,954.99117 -1398.4407,954.73643 C -1396.3394,953.97241 -1395.2885,952.39195 -1395.2885,950.03587 C -1395.2885,949.27194 -1395.4402,948.55191 -1395.7585,947.8515 C -1396.65,945.94125 -1398.1837,944.97586 -1400.3486,944.97586 z M -1371.9516,950.14647 C -1372.0153,952.88444 -1372.3657,955.4414 -1373.0024,957.86092 C -1374.849,964.73796 -1378.589,968.30696 -1384.256,968.5616 L -1384.256,970.66303 L -1376.1545,970.66303 L -1376.1545,997.04146 C -1376.1545,999.71581 -1375.6909,1001.9886 -1374.7997,1003.8987 C -1372.8257,1007.9103 -1369.1713,1009.9265 -1363.8224,1009.9265 C -1361.8486,1009.9265 -1360.1634,1009.3776 -1358.7625,1008.2952 C -1355.8335,1006.0029 -1354.366,1002.2629 -1354.366,997.04146 L -1354.366,991.59434 L -1356.7716,991.59434 L -1356.7716,996.84791 C -1356.7717,998.88554 -1356.9894,1000.6563 -1357.4353,1002.1844 C -1358.5177,1005.7501 -1360.421,1007.5486 -1363.1588,1007.5486 C -1363.4773,1007.5486 -1363.7613,1007.5017 -1364.0159,1007.438 C -1367.7092,1006.9923 -1369.546,1003.6025 -1369.546,997.23501 L -1369.546,970.66303 L -1355.8868,970.66303 L -1355.8868,967.70444 L -1369.546,967.70444 L -1369.546,950.14647 L -1371.9516,950.14647 z M -1626.0583,966.10072 C -1631.1064,966.33201 -1635.5145,968.31691 -1639.2752,972.0179 C -1643.9235,976.47515 -1646.2431,981.94743 -1646.2431,988.4422 C -1646.2431,994.04562 -1644.3591,998.90288 -1640.6024,1003.0416 C -1636.3998,1007.6261 -1631.2586,1009.9265 -1625.1459,1009.9265 C -1619.8608,1009.9265 -1615.2217,1008.175 -1611.2101,1004.673 C -1606.3709,1000.4068 -1603.9381,995.00078 -1603.9381,988.4422 C -1603.9381,982.71155 -1605.775,977.72201 -1609.4681,973.45572 C -1613.6708,968.55282 -1618.8588,966.10072 -1625.0353,966.10072 C -1625.3775,966.10072 -1625.7218,966.08568 -1626.0583,966.10072 z M -1585.2188,966.65373 L -1598.491,967.70444 L -1598.491,970.66303 L -1596.5831,970.66303 C -1594.6091,970.72675 -1593.2548,970.99165 -1592.4908,971.43724 C -1591.5357,972.01043 -1591.053,973.54398 -1591.053,976.0272 L -1591.053,1001.6314 C -1591.053,1003.2869 -1591.2708,1004.3572 -1591.7166,1004.8665 L -1591.9102,1005.0601 C -1592.5468,1005.6332 -1594.7342,1005.9172 -1598.491,1005.9172 L -1598.491,1008.8758 C -1591.041,1008.6849 -1587.4057,1008.5993 -1587.5967,1008.5993 C -1582.0569,1008.5993 -1578.0329,1008.6851 -1575.4859,1008.8758 L -1575.4859,1005.9172 L -1577.4767,1005.9172 C -1580.5966,1005.9172 -1582.613,1005.6523 -1583.5045,1005.143 L -1583.5874,1005.0601 C -1584.3515,1004.6145 -1584.7487,1003.4119 -1584.7487,1001.4379 L -1584.7487,986.72788 C -1584.7487,982.97116 -1584.1336,979.60073 -1582.9238,976.60786 C -1580.8862,971.38657 -1577.7336,968.75525 -1573.4674,968.75516 C -1572.8943,968.75523 -1572.5442,968.80117 -1572.4167,968.86576 C -1573.8812,969.62969 -1574.6287,970.85172 -1574.6287,972.57091 C -1574.6287,973.14409 -1574.5157,973.67365 -1574.3246,974.11932 C -1573.7515,975.83861 -1572.4828,976.69081 -1570.5088,976.69081 C -1570.1904,976.6908 -1569.8871,976.67245 -1569.5687,976.60786 C -1567.4673,976.09846 -1566.4167,974.7167 -1566.4166,972.48795 C -1566.4167,971.5966 -1566.6346,970.76346 -1567.0802,969.99942 C -1568.3537,967.77076 -1570.4748,966.65382 -1573.4674,966.65373 C -1574.6135,966.65381 -1575.7114,966.83308 -1576.7301,967.15144 C -1580.678,968.48857 -1583.4997,971.81227 -1585.2188,977.16086 L -1585.2188,966.65373 z M -1395.6756,966.65373 L -1409.0308,967.70444 L -1409.0308,970.66303 C -1406.2928,970.66304 -1404.5221,970.86172 -1403.6942,971.24369 L -1403.5836,971.35429 L -1403.5007,971.35429 C -1402.4819,971.86387 -1401.9799,973.36976 -1401.9799,975.9166 L -1401.9799,1001.6314 C -1401.9799,1003.2869 -1402.1979,1004.3572 -1402.6435,1004.8665 L -1402.8371,1005.0601 C -1403.4738,1005.6332 -1405.6612,1005.9172 -1409.4179,1005.9172 L -1409.4179,1008.8758 C -1403.305,1008.6849 -1399.8022,1008.5993 -1398.9108,1008.5993 C -1398.7833,1008.5993 -1395.4791,1008.6851 -1388.9843,1008.8758 L -1388.9843,1005.9172 C -1391.9133,1005.9172 -1393.7503,1005.7186 -1394.5143,1005.3366 C -1395.2784,1004.8908 -1395.6756,1003.6884 -1395.6756,1001.7144 L -1395.6756,966.65373 z M -1347.1493,967.70444 L -1347.1493,970.66303 C -1345.6849,970.66304 -1344.3498,970.72935 -1343.14,970.85658 C -1341.4209,971.11123 -1340.1713,972.1623 -1339.4072,974.00872 L -1325.0843,1008.8758 C -1325.7849,1010.7224 -1326.5707,1012.6062 -1327.4623,1014.5165 C -1328.099,1016.1084 -1328.601,1017.3109 -1328.983,1018.1387 C -1331.4665,1023.6147 -1334.5997,1026.3508 -1338.3564,1026.3508 C -1340.1393,1026.3508 -1341.6261,1025.7826 -1342.8359,1024.6365 C -1340.3526,1024.2545 -1339.1306,1022.9195 -1339.1306,1020.6272 C -1339.1307,1020.1816 -1339.197,1019.7455 -1339.3242,1019.2999 C -1339.8972,1017.5171 -1341.1661,1016.6179 -1343.14,1016.6179 C -1343.4583,1016.6179 -1343.7616,1016.6372 -1344.0801,1016.7009 C -1346.1175,1017.1466 -1347.1492,1018.4816 -1347.1493,1020.7102 C -1347.1493,1022.1111 -1346.7328,1023.4267 -1345.905,1024.6365 C -1344.1859,1027.1835 -1341.6675,1028.4522 -1338.3564,1028.4523 C -1333.2625,1028.4522 -1329.1913,1024.8169 -1326.1351,1017.558 L -1309.3237,976.77376 C -1307.6682,972.69878 -1304.7141,970.66303 -1300.4478,970.66303 L -1300.4478,967.70444 C -1302.6128,967.89558 -1304.9985,968.0086 -1307.6092,968.0086 C -1308.9465,968.00861 -1311.7019,967.89556 -1315.9043,967.70444 L -1315.9043,970.66303 L -1315.3513,970.66303 C -1312.7409,970.98148 -1311.425,972.36333 -1311.4251,974.78293 C -1311.4251,975.41966 -1311.6236,976.18655 -1312.0057,977.07791 L -1321.6556,1000.5807 L -1332.2457,974.86588 C -1332.6278,973.91074 -1332.8264,973.34268 -1332.8264,973.15156 C -1332.8264,971.49609 -1331.0281,970.66303 -1327.4623,970.66303 L -1327.4623,967.70444 C -1332.4289,967.89558 -1335.9124,968.0086 -1337.8864,968.0086 C -1341.1975,968.00861 -1344.284,967.89556 -1347.1493,967.70444 z M -1625.1459,968.20215 C -1620.6886,968.39318 -1617.1002,970.44807 -1614.3623,974.39583 C -1612.7067,977.13388 -1611.8737,981.55519 -1611.8737,987.66799 C -1611.8737,993.39874 -1612.5743,997.66835 -1613.9752,1000.4701 L -1614.9153,1002.1844 C -1617.3985,1005.7501 -1620.7691,1007.5486 -1625.0353,1007.5486 C -1629.6199,1007.4213 -1633.2552,1005.2726 -1635.9295,1001.1337 C -1637.5213,998.33206 -1638.3351,993.84442 -1638.3351,987.66799 C -1638.3351,981.74613 -1637.5683,977.39105 -1636.0401,974.58938 C -1635.7218,974.0163 -1635.3246,973.46748 -1634.8788,972.95801 C -1632.3317,969.77428 -1629.0937,968.20215 -1625.1459,968.20215 z"
         style="font-size:100.47190094px;font-style:normal;font-variant:normal;font-weight:bold;font-stretch:normal;text-align:start;line-height:125%;writing-mode:lr-tb;text-anchor:start;fill:#3f6c74;fill-opacity:1;stroke:none;font-family:cmr10;-inkscape-font-specification:cmr10 Medium" />
      <path
         id="path2449"
         d="M -1709.8002,943.31548 L -1709.8002,946.28418 L -1708.1127,946.28418 C -1706.6481,946.28418 -1705.4115,946.34458 -1704.4565,946.47168 C -1703.6286,946.53548 -1702.9357,946.68598 -1702.3627,946.94048 C -1701.2801,947.32268 -1700.2555,948.28728 -1699.3002,949.81548 L -1679.2377,982.47168 L -1679.2377,1001.128 C -1679.2377,1002.5926 -1679.358,1003.526 -1679.6127,1003.9717 C -1680.2496,1005.0543 -1682.6302,1005.5967 -1686.769,1005.5967 L -1689.0815,1005.5967 L -1689.0815,1008.5655 C -1686.7892,1008.3746 -1682.1482,1008.2842 -1675.144,1008.2842 C -1668.14,1008.2842 -1663.4676,1008.3749 -1661.1752,1008.5655 L -1661.1752,1005.5967 L -1663.394,1005.5967 C -1666.7689,1005.5967 -1668.8776,1005.2948 -1669.769,1004.7217 C -1670.5966,1004.2124 -1671.019,1002.9467 -1671.019,1000.9092 L -1671.019,982.47168 L -1652.6127,952.47168 C -1650.1294,948.33298 -1646.0298,946.28418 -1640.3627,946.28418 L -1640.3627,943.31548 C -1643.2919,943.50638 -1646.4266,943.59688 -1649.7377,943.59668 C -1652.0935,943.59688 -1655.7398,943.50608 -1660.7065,943.31548 L -1660.7065,946.28418 C -1659.9424,946.28418 -1659.2797,946.34458 -1658.7065,946.47168 C -1656.4144,946.98108 -1655.2691,948.15658 -1655.269,950.00298 C -1655.2691,950.95828 -1655.601,951.92288 -1656.2377,952.87798 L -1671.9877,978.47168 L -1689.269,950.28418 C -1689.7147,949.64728 -1689.9252,949.10498 -1689.9252,948.65918 C -1689.9252,948.46838 -1689.9264,948.28788 -1689.8627,948.09668 C -1689.5443,946.88698 -1687.3128,946.28418 -1683.2377,946.28418 L -1683.2377,943.31548 C -1685.5299,943.50638 -1690.2626,943.59688 -1697.394,943.59668 C -1701.6602,943.59688 -1705.7887,943.50608 -1709.8002,943.31548 z M -1831.5815,965.78418 C -1836.5481,965.78418 -1840.8883,967.56228 -1844.5815,971.12798 C -1849.1661,975.45788 -1851.4252,980.91208 -1851.4252,987.53418 C -1851.4252,993.45588 -1849.527,998.51918 -1845.7065,1002.7217 C -1841.5038,1007.3063 -1836.4105,1009.5967 -1830.4252,1009.5967 C -1829.4064,1009.5968 -1828.4116,1009.5061 -1827.4565,1009.3155 C -1823.1903,1008.615 -1819.7547,1006.4749 -1817.144,1002.9092 C -1815.3612,1000.4896 -1814.4877,998.59128 -1814.4877,997.19048 C -1814.4877,996.42628 -1814.91,996.06548 -1815.7377,996.06548 C -1816.3745,996.06548 -1816.7654,996.48648 -1816.9565,997.37798 C -1817.5294,999.09708 -1818.3139,1000.5732 -1819.269,1001.8467 C -1821.9433,1005.4124 -1825.4691,1007.2217 -1829.8627,1007.2217 C -1834.0015,1006.9034 -1837.5876,1004.7632 -1840.644,1000.8155 C -1842.5541,997.75898 -1843.5192,992.96658 -1843.519,986.47168 L -1816.8627,986.47168 C -1815.9076,986.47178 -1815.3661,986.47378 -1815.1752,986.40918 C -1814.7295,986.21828 -1814.4877,985.58548 -1814.4877,984.50298 C -1814.4877,981.00088 -1815.1506,977.80578 -1816.4877,974.94048 C -1819.3531,968.82768 -1824.3863,965.78418 -1831.5815,965.78418 z M -1810.0502,967.37798 L -1810.0502,970.34668 C -1808.0125,970.34678 -1806.5967,970.43688 -1805.769,970.62798 C -1804.5591,970.94628 -1803.6245,971.97128 -1802.9877,973.69048 L -1790.9565,1007.503 C -1790.8927,1007.7578 -1790.8337,1007.9072 -1790.769,1007.9717 C -1790.387,1009.0543 -1789.7843,1009.5967 -1788.9565,1009.5967 C -1788.7655,1009.5968 -1788.5536,1009.5979 -1788.3627,1009.5342 L -1788.3002,1009.5342 C -1787.8544,1009.407 -1787.4323,1008.7731 -1787.0502,1007.6905 L -1777.394,980.65918 L -1767.644,1007.7842 C -1767.198,1008.9942 -1766.5655,1009.5967 -1765.7377,1009.5967 C -1764.91,1009.4693 -1764.2772,1008.8667 -1763.8315,1007.7842 L -1752.644,976.44048 C -1751.243,972.49278 -1748.5605,970.47418 -1744.6127,970.34668 L -1744.6127,967.37798 C -1746.714,967.56908 -1749.0346,967.69048 -1751.5815,967.69048 C -1753.8739,967.69048 -1756.8583,967.56908 -1760.4877,967.37798 L -1760.4877,970.34668 C -1760.042,970.34668 -1759.5898,970.37588 -1759.144,970.44048 C -1756.3424,970.94988 -1754.9252,972.45718 -1754.9252,974.94048 C -1754.9252,975.44978 -1755.1068,976.11278 -1755.4252,976.94048 L -1764.1127,1001.378 L -1773.5815,974.72168 C -1773.8999,973.76648 -1774.0502,973.19528 -1774.0502,972.94048 C -1774.0502,971.22138 -1772.1509,970.34668 -1768.394,970.34668 L -1768.394,967.37798 C -1773.9336,967.56908 -1777.2803,967.69048 -1778.3627,967.69048 C -1781.1643,967.69048 -1783.9974,967.56908 -1786.8627,967.37798 L -1786.8627,970.34668 C -1783.9973,970.34668 -1781.9776,970.82918 -1780.8315,971.78418 C -1780.5132,972.16628 -1779.7902,973.91408 -1778.644,977.03418 L -1786.8627,1000.1592 L -1795.9252,974.65918 C -1796.2437,973.89518 -1796.4252,973.32258 -1796.4252,972.94048 C -1796.4251,971.22138 -1794.5258,970.34668 -1790.769,970.34668 L -1790.769,967.37798 C -1796.4997,967.56908 -1799.9656,967.69048 -1801.1752,967.69048 C -1803.6586,967.69048 -1806.6117,967.56908 -1810.0502,967.37798 z M -1831.5815,967.87798 C -1828.8436,967.87798 -1826.5831,968.87278 -1824.8002,970.84668 C -1822.1259,973.90318 -1820.8003,978.45398 -1820.8002,984.50298 L -1843.4252,984.50298 C -1843.2342,979.28178 -1842.0287,975.21218 -1839.8002,972.34668 C -1837.5715,969.35418 -1834.8289,967.87798 -1831.5815,967.87798 z"
         style="font-size:100.47190094px;font-style:normal;font-variant:normal;font-weight:bold;font-stretch:normal;text-align:start;line-height:125%;writing-mode:lr-tb;text-anchor:start;fill:#3f6c74;fill-opacity:1;stroke:none;font-family:cmr10;-inkscape-font-specification:cmr10 Medium" />
    </g>
  </g>
</svg>
